

================================================================
== Vivado HLS Report for 'pooling2d_large_cl_nopad_pad_me_ap_fixed_ap_fixed_config8_s'
================================================================
* Date:           Wed Mar 30 21:22:06 2022

* Version:        2019.2 (Build 2704478 on Wed Nov 06 22:10:23 MST 2019)
* Project:        myproject_prj
* Solution:       solution1
* Product family: zynq
* Target device:  xc7z020-clg400-1


================================================================
== Performance Estimates
================================================================
+ Timing: 
    * Summary: 
    +--------+---------+----------+------------+
    |  Clock |  Target | Estimated| Uncertainty|
    +--------+---------+----------+------------+
    |ap_clk  | 5.00 ns | 4.321 ns |   0.62 ns  |
    +--------+---------+----------+------------+

+ Latency: 
    * Summary: 
    +---------+---------+----------+----------+-------+---------+---------+
    |  Latency (cycles) |  Latency (absolute) |     Interval    | Pipeline|
    |   min   |   max   |    min   |    max   |  min  |   max   |   Type  |
    +---------+---------+----------+----------+-------+---------+---------+
    |    55441|  1881881| 0.277 ms | 9.409 ms |  55441|  1881881|   none  |
    +---------+---------+----------+----------+-------+---------+---------+

    + Detail: 
        * Instance: 
        N/A

        * Loop: 
        +-----------------+---------+---------+----------+-----------+-----------+------+----------+
        |                 |  Latency (cycles) | Iteration|  Initiation Interval  | Trip |          |
        |    Loop Name    |   min   |   max   |  Latency |  achieved |   target  | Count| Pipelined|
        +-----------------+---------+---------+----------+-----------+-----------+------+----------+
        |- Loop 1         |    55440|  1881880| 18 ~ 611 |          -|          -|  3080|    no    |
        | + Loop 1.1      |      592|      592|        37|          -|          -|    16|    no    |
        |  ++ Loop 1.1.1  |       27|       27|         9|          -|          -|     3|    no    |
        +-----------------+---------+---------+----------+-----------+-----------+------+----------+

============================================================
+ Verbose Summary: Synthesis Manager
============================================================
InlineROM: 1
ExposeGlobal: 0
============================================================
+ Verbose Summary: CDFG Model
============================================================
IsTopModel: 0
ResetActiveHigh: 1
IsCombinational: 2
IsDatapathOnly: 0
HasWiredReturn: 1
HasMFsm: 0
HasVarLatency: 1
IsPipeline: 0
IsRtlPipelined: 0
IsInstanceOverlapped: 0
IsDontTouch: 0
HasImplIP: 0
IsGatedGlobalClock: 0


============================================================
+ Verbose Summary: Schedule
============================================================
* Number of FSM states : 38
* Pipeline : 0
* Dataflow Pipeline: 0

* FSM state transitions: 
1 --> 2 
2 --> 3 
3 --> 4 
4 --> 5 
5 --> 6 
6 --> 7 
7 --> 8 
8 --> 9 
9 --> 10 
10 --> 11 
11 --> 12 
12 --> 13 
13 --> 14 
14 --> 15 
15 --> 16 
16 --> 17 
17 --> 18 
18 --> 19 36 37 38 
19 --> 20 
20 --> 21 
21 --> 22 
22 --> 23 
23 --> 24 
24 --> 25 
25 --> 26 
26 --> 27 
27 --> 28 18 
28 --> 29 
29 --> 30 
30 --> 31 
31 --> 32 
32 --> 33 
33 --> 34 
34 --> 35 
35 --> 27 
36 --> 38 
37 --> 38 
38 --> 2 

* FSM state operations: 

State 1 <SV = 0> <Delay = 1.76>
ST_1 : Operation 39 [1/1] (0.00ns)   --->   "call void (...)* @_ssdm_op_SpecInterface(i32* %res_V_V, [8 x i8]* @ap_fifo_str, i32 0, i32 0, [1 x i8]* @p_str, i32 0, i32 0, [1 x i8]* @p_str, [1 x i8]* @p_str, [1 x i8]* @p_str, i32 2, i32 2, i32 16, i32 16, [1 x i8]* @p_str, [1 x i8]* @p_str)"   --->   Operation 39 'specinterface' <Predicate = true> <Delay = 0.00>
ST_1 : Operation 40 [1/1] (0.00ns)   --->   "call void (...)* @_ssdm_op_SpecInterface(i32* %data_V_V, [8 x i8]* @ap_fifo_str, i32 0, i32 0, [1 x i8]* @p_str, i32 0, i32 0, [1 x i8]* @p_str, [1 x i8]* @p_str, [1 x i8]* @p_str, i32 2, i32 2, i32 16, i32 16, [1 x i8]* @p_str, [1 x i8]* @p_str)"   --->   Operation 40 'specinterface' <Predicate = true> <Delay = 0.00>
ST_1 : Operation 41 [1/1] (1.76ns)   --->   "br label %.preheader57" [firmware/nnet_utils/nnet_pooling_stream.h:484]   --->   Operation 41 'br' <Predicate = true> <Delay = 1.76>

State 2 <SV = 1> <Delay = 2.18>
ST_2 : Operation 42 [1/1] (0.00ns)   --->   "%i_ih_0 = phi i12 [ 0, %codeRepl ], [ %i_ih, %6 ]"   --->   Operation 42 'phi' 'i_ih_0' <Predicate = true> <Delay = 0.00>
ST_2 : Operation 43 [1/1] (1.99ns)   --->   "%icmp_ln484 = icmp eq i12 %i_ih_0, -1016" [firmware/nnet_utils/nnet_pooling_stream.h:484]   --->   Operation 43 'icmp' 'icmp_ln484' <Predicate = true> <Delay = 1.99> <Core = "Cmp">   --->   Core 25 'Cmp' <Latency = 0> <II = 1> <Delay = 2.47> <FuncUnit> <Opcode : 'icmp'> <InPorts = 2> <OutPorts = 1>
ST_2 : Operation 44 [1/1] (0.00ns)   --->   "%empty = call i32 (...)* @_ssdm_op_SpecLoopTripCount(i64 3080, i64 3080, i64 3080)"   --->   Operation 44 'speclooptripcount' 'empty' <Predicate = true> <Delay = 0.00>
ST_2 : Operation 45 [1/1] (1.54ns)   --->   "%i_ih = add i12 %i_ih_0, 1" [firmware/nnet_utils/nnet_pooling_stream.h:484]   --->   Operation 45 'add' 'i_ih' <Predicate = true> <Delay = 1.54> <Core = "AddSub">   --->   Core 14 'AddSub' <Latency = 0> <II = 1> <Delay = 2.55> <FuncUnit> <Opcode : 'add' 'sub'> <InPorts = 2> <OutPorts = 1>
ST_2 : Operation 46 [1/1] (0.00ns)   --->   "br i1 %icmp_ln484, label %7, label %.preheader56.0" [firmware/nnet_utils/nnet_pooling_stream.h:484]   --->   Operation 46 'br' <Predicate = true> <Delay = 0.00>
ST_2 : Operation 47 [1/1] (2.18ns)   --->   "%tmp_V_721 = call i32 @_ssdm_op_Read.ap_fifo.volatile.i32P(i32* %data_V_V)" [firmware/nnet_utils/nnet_pooling_stream.h:491]   --->   Operation 47 'read' 'tmp_V_721' <Predicate = (!icmp_ln484)> <Delay = 2.18> <Core = "FIFO">   --->   Core 32 'FIFO' <Latency = 0> <II = 1> <Delay = 3.63> <Storage> <Opcode : 'read' 'write' 'nbread' 'nbwrite'> <Ports = 0> <Width = 32> <Depth = 3> <FIFO>
ST_2 : Operation 48 [1/1] (0.00ns)   --->   "ret void" [firmware/nnet_utils/nnet_pooling_stream.h:542]   --->   Operation 48 'ret' <Predicate = (icmp_ln484)> <Delay = 0.00>

State 3 <SV = 2> <Delay = 2.18>
ST_3 : Operation 49 [1/1] (2.18ns)   --->   "%tmp_V_722 = call i32 @_ssdm_op_Read.ap_fifo.volatile.i32P(i32* %data_V_V)" [firmware/nnet_utils/nnet_pooling_stream.h:491]   --->   Operation 49 'read' 'tmp_V_722' <Predicate = true> <Delay = 2.18> <Core = "FIFO">   --->   Core 32 'FIFO' <Latency = 0> <II = 1> <Delay = 3.63> <Storage> <Opcode : 'read' 'write' 'nbread' 'nbwrite'> <Ports = 0> <Width = 32> <Depth = 3> <FIFO>

State 4 <SV = 3> <Delay = 2.18>
ST_4 : Operation 50 [1/1] (2.18ns)   --->   "%tmp_V_723 = call i32 @_ssdm_op_Read.ap_fifo.volatile.i32P(i32* %data_V_V)" [firmware/nnet_utils/nnet_pooling_stream.h:491]   --->   Operation 50 'read' 'tmp_V_723' <Predicate = true> <Delay = 2.18> <Core = "FIFO">   --->   Core 32 'FIFO' <Latency = 0> <II = 1> <Delay = 3.63> <Storage> <Opcode : 'read' 'write' 'nbread' 'nbwrite'> <Ports = 0> <Width = 32> <Depth = 3> <FIFO>

State 5 <SV = 4> <Delay = 2.18>
ST_5 : Operation 51 [1/1] (2.18ns)   --->   "%tmp_V_724 = call i32 @_ssdm_op_Read.ap_fifo.volatile.i32P(i32* %data_V_V)" [firmware/nnet_utils/nnet_pooling_stream.h:491]   --->   Operation 51 'read' 'tmp_V_724' <Predicate = true> <Delay = 2.18> <Core = "FIFO">   --->   Core 32 'FIFO' <Latency = 0> <II = 1> <Delay = 3.63> <Storage> <Opcode : 'read' 'write' 'nbread' 'nbwrite'> <Ports = 0> <Width = 32> <Depth = 3> <FIFO>

State 6 <SV = 5> <Delay = 2.18>
ST_6 : Operation 52 [1/1] (2.18ns)   --->   "%tmp_V_725 = call i32 @_ssdm_op_Read.ap_fifo.volatile.i32P(i32* %data_V_V)" [firmware/nnet_utils/nnet_pooling_stream.h:491]   --->   Operation 52 'read' 'tmp_V_725' <Predicate = true> <Delay = 2.18> <Core = "FIFO">   --->   Core 32 'FIFO' <Latency = 0> <II = 1> <Delay = 3.63> <Storage> <Opcode : 'read' 'write' 'nbread' 'nbwrite'> <Ports = 0> <Width = 32> <Depth = 3> <FIFO>

State 7 <SV = 6> <Delay = 2.18>
ST_7 : Operation 53 [1/1] (2.18ns)   --->   "%tmp_V_726 = call i32 @_ssdm_op_Read.ap_fifo.volatile.i32P(i32* %data_V_V)" [firmware/nnet_utils/nnet_pooling_stream.h:491]   --->   Operation 53 'read' 'tmp_V_726' <Predicate = true> <Delay = 2.18> <Core = "FIFO">   --->   Core 32 'FIFO' <Latency = 0> <II = 1> <Delay = 3.63> <Storage> <Opcode : 'read' 'write' 'nbread' 'nbwrite'> <Ports = 0> <Width = 32> <Depth = 3> <FIFO>

State 8 <SV = 7> <Delay = 2.18>
ST_8 : Operation 54 [1/1] (2.18ns)   --->   "%tmp_V_727 = call i32 @_ssdm_op_Read.ap_fifo.volatile.i32P(i32* %data_V_V)" [firmware/nnet_utils/nnet_pooling_stream.h:491]   --->   Operation 54 'read' 'tmp_V_727' <Predicate = true> <Delay = 2.18> <Core = "FIFO">   --->   Core 32 'FIFO' <Latency = 0> <II = 1> <Delay = 3.63> <Storage> <Opcode : 'read' 'write' 'nbread' 'nbwrite'> <Ports = 0> <Width = 32> <Depth = 3> <FIFO>

State 9 <SV = 8> <Delay = 2.18>
ST_9 : Operation 55 [1/1] (2.18ns)   --->   "%tmp_V_728 = call i32 @_ssdm_op_Read.ap_fifo.volatile.i32P(i32* %data_V_V)" [firmware/nnet_utils/nnet_pooling_stream.h:491]   --->   Operation 55 'read' 'tmp_V_728' <Predicate = true> <Delay = 2.18> <Core = "FIFO">   --->   Core 32 'FIFO' <Latency = 0> <II = 1> <Delay = 3.63> <Storage> <Opcode : 'read' 'write' 'nbread' 'nbwrite'> <Ports = 0> <Width = 32> <Depth = 3> <FIFO>

State 10 <SV = 9> <Delay = 2.18>
ST_10 : Operation 56 [1/1] (2.18ns)   --->   "%tmp_V_729 = call i32 @_ssdm_op_Read.ap_fifo.volatile.i32P(i32* %data_V_V)" [firmware/nnet_utils/nnet_pooling_stream.h:491]   --->   Operation 56 'read' 'tmp_V_729' <Predicate = true> <Delay = 2.18> <Core = "FIFO">   --->   Core 32 'FIFO' <Latency = 0> <II = 1> <Delay = 3.63> <Storage> <Opcode : 'read' 'write' 'nbread' 'nbwrite'> <Ports = 0> <Width = 32> <Depth = 3> <FIFO>

State 11 <SV = 10> <Delay = 2.18>
ST_11 : Operation 57 [1/1] (2.18ns)   --->   "%tmp_V_730 = call i32 @_ssdm_op_Read.ap_fifo.volatile.i32P(i32* %data_V_V)" [firmware/nnet_utils/nnet_pooling_stream.h:491]   --->   Operation 57 'read' 'tmp_V_730' <Predicate = true> <Delay = 2.18> <Core = "FIFO">   --->   Core 32 'FIFO' <Latency = 0> <II = 1> <Delay = 3.63> <Storage> <Opcode : 'read' 'write' 'nbread' 'nbwrite'> <Ports = 0> <Width = 32> <Depth = 3> <FIFO>

State 12 <SV = 11> <Delay = 2.18>
ST_12 : Operation 58 [1/1] (2.18ns)   --->   "%tmp_V_731 = call i32 @_ssdm_op_Read.ap_fifo.volatile.i32P(i32* %data_V_V)" [firmware/nnet_utils/nnet_pooling_stream.h:491]   --->   Operation 58 'read' 'tmp_V_731' <Predicate = true> <Delay = 2.18> <Core = "FIFO">   --->   Core 32 'FIFO' <Latency = 0> <II = 1> <Delay = 3.63> <Storage> <Opcode : 'read' 'write' 'nbread' 'nbwrite'> <Ports = 0> <Width = 32> <Depth = 3> <FIFO>

State 13 <SV = 12> <Delay = 2.18>
ST_13 : Operation 59 [1/1] (2.18ns)   --->   "%tmp_V_732 = call i32 @_ssdm_op_Read.ap_fifo.volatile.i32P(i32* %data_V_V)" [firmware/nnet_utils/nnet_pooling_stream.h:491]   --->   Operation 59 'read' 'tmp_V_732' <Predicate = true> <Delay = 2.18> <Core = "FIFO">   --->   Core 32 'FIFO' <Latency = 0> <II = 1> <Delay = 3.63> <Storage> <Opcode : 'read' 'write' 'nbread' 'nbwrite'> <Ports = 0> <Width = 32> <Depth = 3> <FIFO>

State 14 <SV = 13> <Delay = 2.18>
ST_14 : Operation 60 [1/1] (2.18ns)   --->   "%tmp_V_733 = call i32 @_ssdm_op_Read.ap_fifo.volatile.i32P(i32* %data_V_V)" [firmware/nnet_utils/nnet_pooling_stream.h:491]   --->   Operation 60 'read' 'tmp_V_733' <Predicate = true> <Delay = 2.18> <Core = "FIFO">   --->   Core 32 'FIFO' <Latency = 0> <II = 1> <Delay = 3.63> <Storage> <Opcode : 'read' 'write' 'nbread' 'nbwrite'> <Ports = 0> <Width = 32> <Depth = 3> <FIFO>

State 15 <SV = 14> <Delay = 2.18>
ST_15 : Operation 61 [1/1] (2.18ns)   --->   "%tmp_V_734 = call i32 @_ssdm_op_Read.ap_fifo.volatile.i32P(i32* %data_V_V)" [firmware/nnet_utils/nnet_pooling_stream.h:491]   --->   Operation 61 'read' 'tmp_V_734' <Predicate = true> <Delay = 2.18> <Core = "FIFO">   --->   Core 32 'FIFO' <Latency = 0> <II = 1> <Delay = 3.63> <Storage> <Opcode : 'read' 'write' 'nbread' 'nbwrite'> <Ports = 0> <Width = 32> <Depth = 3> <FIFO>

State 16 <SV = 15> <Delay = 2.18>
ST_16 : Operation 62 [1/1] (2.18ns)   --->   "%tmp_V_735 = call i32 @_ssdm_op_Read.ap_fifo.volatile.i32P(i32* %data_V_V)" [firmware/nnet_utils/nnet_pooling_stream.h:491]   --->   Operation 62 'read' 'tmp_V_735' <Predicate = true> <Delay = 2.18> <Core = "FIFO">   --->   Core 32 'FIFO' <Latency = 0> <II = 1> <Delay = 3.63> <Storage> <Opcode : 'read' 'write' 'nbread' 'nbwrite'> <Ports = 0> <Width = 32> <Depth = 3> <FIFO>

State 17 <SV = 16> <Delay = 3.81>
ST_17 : Operation 63 [1/1] (2.18ns)   --->   "%tmp_V_736 = call i32 @_ssdm_op_Read.ap_fifo.volatile.i32P(i32* %data_V_V)" [firmware/nnet_utils/nnet_pooling_stream.h:491]   --->   Operation 63 'read' 'tmp_V_736' <Predicate = true> <Delay = 2.18> <Core = "FIFO">   --->   Core 32 'FIFO' <Latency = 0> <II = 1> <Delay = 3.63> <Storage> <Opcode : 'read' 'write' 'nbread' 'nbwrite'> <Ports = 0> <Width = 32> <Depth = 3> <FIFO>
ST_17 : Operation 64 [1/1] (0.00ns)   --->   "%layer_in_V_9_load = load i2048* @layer_in_V_9, align 16"   --->   Operation 64 'load' 'layer_in_V_9_load' <Predicate = true> <Delay = 0.00>
ST_17 : Operation 65 [1/1] (1.62ns)   --->   "%call_ret = call fastcc i2048 @"cnnshift_arr<ap_fixed,ap_fixed<32,16,5,3,0>,config8>"(i32 %tmp_V_721, i32 %tmp_V_722, i32 %tmp_V_723, i32 %tmp_V_724, i32 %tmp_V_725, i32 %tmp_V_726, i32 %tmp_V_727, i32 %tmp_V_728, i32 %tmp_V_729, i32 %tmp_V_730, i32 %tmp_V_731, i32 %tmp_V_732, i32 %tmp_V_733, i32 %tmp_V_734, i32 %tmp_V_735, i32 %tmp_V_736, i2048 %layer_in_V_9_load)" [firmware/nnet_utils/nnet_pooling_stream.h:491]   --->   Operation 65 'call' 'call_ret' <Predicate = true> <Delay = 1.62> <CoreType = "Generic">   --->   Core 0 '' <Latency = 0> <II = 1> <Delay = 1.00> <Generic> <Opcode : >
ST_17 : Operation 66 [1/1] (0.00ns)   --->   "store i2048 %call_ret, i2048* @layer_in_V_9, align 16" [firmware/nnet_utils/nnet_pooling_stream.h:491]   --->   Operation 66 'store' <Predicate = true> <Delay = 0.00>
ST_17 : Operation 67 [1/1] (0.00ns)   --->   "%sX_load = load i32* @sX, align 4" [firmware/nnet_utils/nnet_pooling_stream.h:498]   --->   Operation 67 'load' 'sX_load' <Predicate = true> <Delay = 0.00>
ST_17 : Operation 68 [1/1] (2.47ns)   --->   "%icmp_ln498 = icmp eq i32 %sX_load, 1" [firmware/nnet_utils/nnet_pooling_stream.h:498]   --->   Operation 68 'icmp' 'icmp_ln498' <Predicate = true> <Delay = 2.47> <Core = "Cmp">   --->   Core 25 'Cmp' <Latency = 0> <II = 1> <Delay = 2.47> <FuncUnit> <Opcode : 'icmp'> <InPorts = 2> <OutPorts = 1>
ST_17 : Operation 69 [1/1] (0.00ns)   --->   "%sY_load = load i32* @sY, align 4" [firmware/nnet_utils/nnet_pooling_stream.h:498]   --->   Operation 69 'load' 'sY_load' <Predicate = true> <Delay = 0.00>
ST_17 : Operation 70 [1/1] (2.47ns)   --->   "%icmp_ln498_1 = icmp eq i32 %sY_load, 1" [firmware/nnet_utils/nnet_pooling_stream.h:498]   --->   Operation 70 'icmp' 'icmp_ln498_1' <Predicate = true> <Delay = 2.47> <Core = "Cmp">   --->   Core 25 'Cmp' <Latency = 0> <II = 1> <Delay = 2.47> <FuncUnit> <Opcode : 'icmp'> <InPorts = 2> <OutPorts = 1>
ST_17 : Operation 71 [1/1] (0.00ns)   --->   "%pY_load = load i32* @pY, align 4" [firmware/nnet_utils/nnet_pooling_stream.h:498]   --->   Operation 71 'load' 'pY_load' <Predicate = true> <Delay = 0.00>
ST_17 : Operation 72 [1/1] (2.47ns)   --->   "%icmp_ln498_2 = icmp sgt i32 %pY_load, 0" [firmware/nnet_utils/nnet_pooling_stream.h:498]   --->   Operation 72 'icmp' 'icmp_ln498_2' <Predicate = true> <Delay = 2.47> <Core = "Cmp">   --->   Core 25 'Cmp' <Latency = 0> <II = 1> <Delay = 2.47> <FuncUnit> <Opcode : 'icmp'> <InPorts = 2> <OutPorts = 1>
ST_17 : Operation 73 [1/1] (0.00ns)   --->   "%pX_load = load i32* @pX, align 4" [firmware/nnet_utils/nnet_pooling_stream.h:498]   --->   Operation 73 'load' 'pX_load' <Predicate = true> <Delay = 0.00>
ST_17 : Operation 74 [1/1] (2.47ns)   --->   "%icmp_ln498_3 = icmp sgt i32 %pX_load, 0" [firmware/nnet_utils/nnet_pooling_stream.h:498]   --->   Operation 74 'icmp' 'icmp_ln498_3' <Predicate = true> <Delay = 2.47> <Core = "Cmp">   --->   Core 25 'Cmp' <Latency = 0> <II = 1> <Delay = 2.47> <FuncUnit> <Opcode : 'icmp'> <InPorts = 2> <OutPorts = 1>
ST_17 : Operation 75 [1/1] (0.00ns) (grouped into LUT with out node and_ln498_2)   --->   "%and_ln498 = and i1 %icmp_ln498, %icmp_ln498_1" [firmware/nnet_utils/nnet_pooling_stream.h:498]   --->   Operation 75 'and' 'and_ln498' <Predicate = true> <Delay = 0.00> <Core = "LogicGate">   --->   Core 27 'LogicGate' <Latency = 0> <II = 1> <Delay = 1.03> <FuncUnit> <Opcode : 'and' 'or' 'xor'> <InPorts = 2> <OutPorts = 1>
ST_17 : Operation 76 [1/1] (0.00ns) (grouped into LUT with out node and_ln498_2)   --->   "%and_ln498_1 = and i1 %icmp_ln498_2, %icmp_ln498_3" [firmware/nnet_utils/nnet_pooling_stream.h:498]   --->   Operation 76 'and' 'and_ln498_1' <Predicate = true> <Delay = 0.00> <Core = "LogicGate">   --->   Core 27 'LogicGate' <Latency = 0> <II = 1> <Delay = 1.03> <FuncUnit> <Opcode : 'and' 'or' 'xor'> <InPorts = 2> <OutPorts = 1>
ST_17 : Operation 77 [1/1] (0.97ns) (out node of the LUT)   --->   "%and_ln498_2 = and i1 %and_ln498_1, %and_ln498" [firmware/nnet_utils/nnet_pooling_stream.h:498]   --->   Operation 77 'and' 'and_ln498_2' <Predicate = true> <Delay = 0.97> <Core = "LogicGate">   --->   Core 27 'LogicGate' <Latency = 0> <II = 1> <Delay = 1.03> <FuncUnit> <Opcode : 'and' 'or' 'xor'> <InPorts = 2> <OutPorts = 1>
ST_17 : Operation 78 [1/1] (0.00ns)   --->   "br i1 %and_ln498_2, label %.preheader.preheader, label %.loopexit" [firmware/nnet_utils/nnet_pooling_stream.h:498]   --->   Operation 78 'br' <Predicate = true> <Delay = 0.00>
ST_17 : Operation 79 [1/1] (1.76ns)   --->   "br label %.preheader" [firmware/nnet_utils/nnet_pooling_stream.h:500]   --->   Operation 79 'br' <Predicate = (and_ln498_2)> <Delay = 1.76>

State 18 <SV = 17> <Delay = 4.32>
ST_18 : Operation 80 [1/1] (0.00ns)   --->   "%i1_0 = phi i5 [ %i1, %hls_label_16_end ], [ 0, %.preheader.preheader ]"   --->   Operation 80 'phi' 'i1_0' <Predicate = (and_ln498_2)> <Delay = 0.00>
ST_18 : Operation 81 [1/1] (1.36ns)   --->   "%icmp_ln500 = icmp eq i5 %i1_0, -16" [firmware/nnet_utils/nnet_pooling_stream.h:500]   --->   Operation 81 'icmp' 'icmp_ln500' <Predicate = (and_ln498_2)> <Delay = 1.36> <Core = "Cmp">   --->   Core 25 'Cmp' <Latency = 0> <II = 1> <Delay = 2.47> <FuncUnit> <Opcode : 'icmp'> <InPorts = 2> <OutPorts = 1>
ST_18 : Operation 82 [1/1] (0.00ns)   --->   "%empty_94 = call i32 (...)* @_ssdm_op_SpecLoopTripCount(i64 16, i64 16, i64 16)"   --->   Operation 82 'speclooptripcount' 'empty_94' <Predicate = (and_ln498_2)> <Delay = 0.00>
ST_18 : Operation 83 [1/1] (1.78ns)   --->   "%i1 = add i5 %i1_0, 1" [firmware/nnet_utils/nnet_pooling_stream.h:500]   --->   Operation 83 'add' 'i1' <Predicate = (and_ln498_2)> <Delay = 1.78> <Core = "AddSub">   --->   Core 14 'AddSub' <Latency = 0> <II = 1> <Delay = 2.55> <FuncUnit> <Opcode : 'add' 'sub'> <InPorts = 2> <OutPorts = 1>
ST_18 : Operation 84 [1/1] (0.00ns)   --->   "br i1 %icmp_ln500, label %.loopexit.loopexit, label %hls_label_16_begin" [firmware/nnet_utils/nnet_pooling_stream.h:500]   --->   Operation 84 'br' <Predicate = (and_ln498_2)> <Delay = 0.00>
ST_18 : Operation 85 [1/1] (0.00ns)   --->   "%layer_in_V_9_load_1 = load i2048* @layer_in_V_9, align 16" [firmware/nnet_utils/nnet_pooling_stream.h:508]   --->   Operation 85 'load' 'layer_in_V_9_load_1' <Predicate = (and_ln498_2 & !icmp_ln500)> <Delay = 0.00>
ST_18 : Operation 86 [1/1] (0.00ns)   --->   "%empty_95 = trunc i5 %i1_0 to i4" [firmware/nnet_utils/nnet_pooling_stream.h:500]   --->   Operation 86 'trunc' 'empty_95' <Predicate = (and_ln498_2 & !icmp_ln500)> <Delay = 0.00>
ST_18 : Operation 87 [1/1] (0.00ns)   --->   "%tmp_2 = call i9 @_ssdm_op_BitConcatenate.i9.i4.i5(i4 %empty_95, i5 0)" [firmware/nnet_utils/nnet_pooling_stream.h:500]   --->   Operation 87 'bitconcatenate' 'tmp_2' <Predicate = (and_ln498_2 & !icmp_ln500)> <Delay = 0.00>
ST_18 : Operation 88 [1/1] (0.00ns)   --->   "%empty_96 = or i9 %tmp_2, 31" [firmware/nnet_utils/nnet_pooling_stream.h:500]   --->   Operation 88 'or' 'empty_96' <Predicate = (and_ln498_2 & !icmp_ln500)> <Delay = 0.00>
ST_18 : Operation 89 [1/1] (1.66ns)   --->   "%icmp_ln203 = icmp ugt i9 %tmp_2, %empty_96" [firmware/nnet_utils/nnet_pooling_stream.h:508]   --->   Operation 89 'icmp' 'icmp_ln203' <Predicate = (and_ln498_2 & !icmp_ln500)> <Delay = 1.66> <Core = "Cmp">   --->   Core 25 'Cmp' <Latency = 0> <II = 1> <Delay = 2.47> <FuncUnit> <Opcode : 'icmp'> <InPorts = 2> <OutPorts = 1>
ST_18 : Operation 90 [1/1] (0.00ns)   --->   "%zext_ln203 = zext i9 %tmp_2 to i12" [firmware/nnet_utils/nnet_pooling_stream.h:508]   --->   Operation 90 'zext' 'zext_ln203' <Predicate = (and_ln498_2 & !icmp_ln500)> <Delay = 0.00>
ST_18 : Operation 91 [1/1] (0.00ns)   --->   "%zext_ln203_1 = zext i9 %empty_96 to i12" [firmware/nnet_utils/nnet_pooling_stream.h:508]   --->   Operation 91 'zext' 'zext_ln203_1' <Predicate = (and_ln498_2 & !icmp_ln500)> <Delay = 0.00>
ST_18 : Operation 92 [1/1] (0.00ns)   --->   "%tmp_1 = call i2048 @llvm.part.select.i2048(i2048 %layer_in_V_9_load_1, i32 2047, i32 0)" [firmware/nnet_utils/nnet_pooling_stream.h:508]   --->   Operation 92 'partselect' 'tmp_1' <Predicate = (and_ln498_2 & !icmp_ln500)> <Delay = 0.00>
ST_18 : Operation 93 [1/1] (1.82ns)   --->   "%sub_ln203 = sub i12 %zext_ln203, %zext_ln203_1" [firmware/nnet_utils/nnet_pooling_stream.h:508]   --->   Operation 93 'sub' 'sub_ln203' <Predicate = (and_ln498_2 & !icmp_ln500)> <Delay = 1.82> <Core = "AddSub">   --->   Core 14 'AddSub' <Latency = 0> <II = 1> <Delay = 2.55> <FuncUnit> <Opcode : 'add' 'sub'> <InPorts = 2> <OutPorts = 1>
ST_18 : Operation 94 [1/1] (0.00ns) (grouped into LUT with out node select_ln203_2)   --->   "%xor_ln203_1 = xor i12 %zext_ln203, 2047" [firmware/nnet_utils/nnet_pooling_stream.h:508]   --->   Operation 94 'xor' 'xor_ln203_1' <Predicate = (and_ln498_2 & !icmp_ln500)> <Delay = 0.00> <Core = "LogicGate">   --->   Core 27 'LogicGate' <Latency = 0> <II = 1> <Delay = 1.03> <FuncUnit> <Opcode : 'and' 'or' 'xor'> <InPorts = 2> <OutPorts = 1>
ST_18 : Operation 95 [1/1] (1.82ns)   --->   "%sub_ln203_1 = sub i12 %zext_ln203_1, %zext_ln203" [firmware/nnet_utils/nnet_pooling_stream.h:508]   --->   Operation 95 'sub' 'sub_ln203_1' <Predicate = (and_ln498_2 & !icmp_ln500)> <Delay = 1.82> <Core = "AddSub">   --->   Core 14 'AddSub' <Latency = 0> <II = 1> <Delay = 2.55> <FuncUnit> <Opcode : 'add' 'sub'> <InPorts = 2> <OutPorts = 1>
ST_18 : Operation 96 [1/1] (0.00ns) (grouped into LUT with out node sub_ln203_2)   --->   "%select_ln203 = select i1 %icmp_ln203, i12 %sub_ln203, i12 %sub_ln203_1" [firmware/nnet_utils/nnet_pooling_stream.h:508]   --->   Operation 96 'select' 'select_ln203' <Predicate = (and_ln498_2 & !icmp_ln500)> <Delay = 0.00> <Core = "Sel">   --->   Core 26 'Sel' <Latency = 0> <II = 1> <Delay = 0.69> <FuncUnit> <Opcode : 'select'> <InPorts = 3> <OutPorts = 1>
ST_18 : Operation 97 [1/1] (2.40ns)   --->   "%select_ln203_1 = select i1 %icmp_ln203, i2048 %tmp_1, i2048 %layer_in_V_9_load_1" [firmware/nnet_utils/nnet_pooling_stream.h:508]   --->   Operation 97 'select' 'select_ln203_1' <Predicate = (and_ln498_2 & !icmp_ln500)> <Delay = 2.40> <Core = "Sel">   --->   Core 26 'Sel' <Latency = 0> <II = 1> <Delay = 0.69> <FuncUnit> <Opcode : 'select'> <InPorts = 3> <OutPorts = 1>
ST_18 : Operation 98 [1/1] (0.99ns) (out node of the LUT)   --->   "%select_ln203_2 = select i1 %icmp_ln203, i12 %xor_ln203_1, i12 %zext_ln203" [firmware/nnet_utils/nnet_pooling_stream.h:508]   --->   Operation 98 'select' 'select_ln203_2' <Predicate = (and_ln498_2 & !icmp_ln500)> <Delay = 0.99> <Core = "Sel">   --->   Core 26 'Sel' <Latency = 0> <II = 1> <Delay = 0.69> <FuncUnit> <Opcode : 'select'> <InPorts = 3> <OutPorts = 1>
ST_18 : Operation 99 [1/1] (1.54ns) (out node of the LUT)   --->   "%sub_ln203_2 = sub i12 2047, %select_ln203" [firmware/nnet_utils/nnet_pooling_stream.h:508]   --->   Operation 99 'sub' 'sub_ln203_2' <Predicate = (and_ln498_2 & !icmp_ln500)> <Delay = 1.54> <Core = "AddSub">   --->   Core 14 'AddSub' <Latency = 0> <II = 1> <Delay = 2.55> <FuncUnit> <Opcode : 'add' 'sub'> <InPorts = 2> <OutPorts = 1>
ST_18 : Operation 100 [1/1] (0.78ns)   --->   "%xor_ln203 = xor i5 %i1_0, -16" [firmware/nnet_utils/nnet_pooling_stream.h:508]   --->   Operation 100 'xor' 'xor_ln203' <Predicate = (and_ln498_2 & !icmp_ln500)> <Delay = 0.78> <Core = "LogicGate">   --->   Core 27 'LogicGate' <Latency = 0> <II = 1> <Delay = 1.03> <FuncUnit> <Opcode : 'and' 'or' 'xor'> <InPorts = 2> <OutPorts = 1>
ST_18 : Operation 101 [1/1] (0.00ns)   --->   "%tmp_5 = call i2048 @llvm.part.select.i2048(i2048 %layer_in_V_9_load_1, i32 2047, i32 0)" [firmware/nnet_utils/nnet_pooling_stream.h:508]   --->   Operation 101 'partselect' 'tmp_5' <Predicate = (and_ln498_2 & !icmp_ln500)> <Delay = 0.00>
ST_18 : Operation 102 [1/1] (0.00ns)   --->   "%tmp_4 = call i11 @_ssdm_op_BitConcatenate.i11.i1.i5.i5(i1 true, i5 %i1_0, i5 0)" [firmware/nnet_utils/nnet_pooling_stream.h:500]   --->   Operation 102 'bitconcatenate' 'tmp_4' <Predicate = (and_ln498_2 & !icmp_ln500)> <Delay = 0.00>
ST_18 : Operation 103 [1/1] (0.00ns)   --->   "%empty_98 = or i11 %tmp_4, 31" [firmware/nnet_utils/nnet_pooling_stream.h:500]   --->   Operation 103 'or' 'empty_98' <Predicate = (and_ln498_2 & !icmp_ln500)> <Delay = 0.00>
ST_18 : Operation 104 [1/1] (1.88ns)   --->   "%icmp_ln203_2 = icmp ugt i11 %tmp_4, %empty_98" [firmware/nnet_utils/nnet_pooling_stream.h:508]   --->   Operation 104 'icmp' 'icmp_ln203_2' <Predicate = (and_ln498_2 & !icmp_ln500)> <Delay = 1.88> <Core = "Cmp">   --->   Core 25 'Cmp' <Latency = 0> <II = 1> <Delay = 2.47> <FuncUnit> <Opcode : 'icmp'> <InPorts = 2> <OutPorts = 1>
ST_18 : Operation 105 [1/1] (0.00ns)   --->   "%zext_ln203_8 = zext i11 %tmp_4 to i12" [firmware/nnet_utils/nnet_pooling_stream.h:508]   --->   Operation 105 'zext' 'zext_ln203_8' <Predicate = (and_ln498_2 & !icmp_ln500)> <Delay = 0.00>
ST_18 : Operation 106 [1/1] (0.00ns)   --->   "%zext_ln203_9 = zext i11 %empty_98 to i12" [firmware/nnet_utils/nnet_pooling_stream.h:508]   --->   Operation 106 'zext' 'zext_ln203_9' <Predicate = (and_ln498_2 & !icmp_ln500)> <Delay = 0.00>
ST_18 : Operation 107 [1/1] (0.00ns)   --->   "%tmp_6 = call i2048 @llvm.part.select.i2048(i2048 %layer_in_V_9_load_1, i32 2047, i32 0)" [firmware/nnet_utils/nnet_pooling_stream.h:508]   --->   Operation 107 'partselect' 'tmp_6' <Predicate = (and_ln498_2 & !icmp_ln500)> <Delay = 0.00>
ST_18 : Operation 108 [1/1] (1.63ns)   --->   "%sub_ln203_6 = sub i12 %zext_ln203_8, %zext_ln203_9" [firmware/nnet_utils/nnet_pooling_stream.h:508]   --->   Operation 108 'sub' 'sub_ln203_6' <Predicate = (and_ln498_2 & !icmp_ln500)> <Delay = 1.63> <Core = "AddSub">   --->   Core 14 'AddSub' <Latency = 0> <II = 1> <Delay = 2.55> <FuncUnit> <Opcode : 'add' 'sub'> <InPorts = 2> <OutPorts = 1>
ST_18 : Operation 109 [1/1] (0.00ns) (grouped into LUT with out node select_ln203_8)   --->   "%xor_ln203_3 = xor i12 %zext_ln203_8, 2047" [firmware/nnet_utils/nnet_pooling_stream.h:508]   --->   Operation 109 'xor' 'xor_ln203_3' <Predicate = (and_ln498_2 & !icmp_ln500)> <Delay = 0.00> <Core = "LogicGate">   --->   Core 27 'LogicGate' <Latency = 0> <II = 1> <Delay = 1.03> <FuncUnit> <Opcode : 'and' 'or' 'xor'> <InPorts = 2> <OutPorts = 1>
ST_18 : Operation 110 [1/1] (1.63ns)   --->   "%sub_ln203_7 = sub i12 %zext_ln203_9, %zext_ln203_8" [firmware/nnet_utils/nnet_pooling_stream.h:508]   --->   Operation 110 'sub' 'sub_ln203_7' <Predicate = (and_ln498_2 & !icmp_ln500)> <Delay = 1.63> <Core = "AddSub">   --->   Core 14 'AddSub' <Latency = 0> <II = 1> <Delay = 2.55> <FuncUnit> <Opcode : 'add' 'sub'> <InPorts = 2> <OutPorts = 1>
ST_18 : Operation 111 [1/1] (0.00ns) (grouped into LUT with out node sub_ln203_8)   --->   "%select_ln203_6 = select i1 %icmp_ln203_2, i12 %sub_ln203_6, i12 %sub_ln203_7" [firmware/nnet_utils/nnet_pooling_stream.h:508]   --->   Operation 111 'select' 'select_ln203_6' <Predicate = (and_ln498_2 & !icmp_ln500)> <Delay = 0.00> <Core = "Sel">   --->   Core 26 'Sel' <Latency = 0> <II = 1> <Delay = 0.69> <FuncUnit> <Opcode : 'select'> <InPorts = 3> <OutPorts = 1>
ST_18 : Operation 112 [1/1] (2.40ns)   --->   "%select_ln203_7 = select i1 %icmp_ln203_2, i2048 %tmp_6, i2048 %layer_in_V_9_load_1" [firmware/nnet_utils/nnet_pooling_stream.h:508]   --->   Operation 112 'select' 'select_ln203_7' <Predicate = (and_ln498_2 & !icmp_ln500)> <Delay = 2.40> <Core = "Sel">   --->   Core 26 'Sel' <Latency = 0> <II = 1> <Delay = 0.69> <FuncUnit> <Opcode : 'select'> <InPorts = 3> <OutPorts = 1>
ST_18 : Operation 113 [1/1] (0.99ns) (out node of the LUT)   --->   "%select_ln203_8 = select i1 %icmp_ln203_2, i12 %xor_ln203_3, i12 %zext_ln203_8" [firmware/nnet_utils/nnet_pooling_stream.h:508]   --->   Operation 113 'select' 'select_ln203_8' <Predicate = (and_ln498_2 & !icmp_ln500)> <Delay = 0.99> <Core = "Sel">   --->   Core 26 'Sel' <Latency = 0> <II = 1> <Delay = 0.69> <FuncUnit> <Opcode : 'select'> <InPorts = 3> <OutPorts = 1>
ST_18 : Operation 114 [1/1] (1.54ns) (out node of the LUT)   --->   "%sub_ln203_8 = sub i12 2047, %select_ln203_6" [firmware/nnet_utils/nnet_pooling_stream.h:508]   --->   Operation 114 'sub' 'sub_ln203_8' <Predicate = (and_ln498_2 & !icmp_ln500)> <Delay = 1.54> <Core = "AddSub">   --->   Core 14 'AddSub' <Latency = 0> <II = 1> <Delay = 2.55> <FuncUnit> <Opcode : 'add' 'sub'> <InPorts = 2> <OutPorts = 1>
ST_18 : Operation 115 [1/1] (0.00ns)   --->   "%tmp_7 = call i2048 @llvm.part.select.i2048(i2048 %layer_in_V_9_load_1, i32 2047, i32 0)" [firmware/nnet_utils/nnet_pooling_stream.h:508]   --->   Operation 115 'partselect' 'tmp_7' <Predicate = (and_ln498_2 & !icmp_ln500)> <Delay = 0.00>
ST_18 : Operation 116 [1/1] (0.00ns)   --->   "br label %.loopexit"   --->   Operation 116 'br' <Predicate = (and_ln498_2 & icmp_ln500)> <Delay = 0.00>
ST_18 : Operation 117 [1/1] (2.47ns)   --->   "%icmp_ln522 = icmp eq i32 %pX_load, 54" [firmware/nnet_utils/nnet_pooling_stream.h:522]   --->   Operation 117 'icmp' 'icmp_ln522' <Predicate = (icmp_ln500) | (!and_ln498_2)> <Delay = 2.47> <Core = "Cmp">   --->   Core 25 'Cmp' <Latency = 0> <II = 1> <Delay = 2.47> <FuncUnit> <Opcode : 'icmp'> <InPorts = 2> <OutPorts = 1>
ST_18 : Operation 118 [1/1] (0.00ns)   --->   "br i1 %icmp_ln522, label %1, label %5" [firmware/nnet_utils/nnet_pooling_stream.h:522]   --->   Operation 118 'br' <Predicate = (icmp_ln500) | (!and_ln498_2)> <Delay = 0.00>
ST_18 : Operation 119 [1/1] (2.55ns)   --->   "%add_ln535 = add nsw i32 %pX_load, 1" [firmware/nnet_utils/nnet_pooling_stream.h:535]   --->   Operation 119 'add' 'add_ln535' <Predicate = (icmp_ln500 & !icmp_ln522) | (!and_ln498_2 & !icmp_ln522)> <Delay = 2.55> <Core = "AddSub">   --->   Core 14 'AddSub' <Latency = 0> <II = 1> <Delay = 2.55> <FuncUnit> <Opcode : 'add' 'sub'> <InPorts = 2> <OutPorts = 1>
ST_18 : Operation 120 [1/1] (1.76ns)   --->   "store i32 %add_ln535, i32* @pX, align 4" [firmware/nnet_utils/nnet_pooling_stream.h:535]   --->   Operation 120 'store' <Predicate = (icmp_ln500 & !icmp_ln522) | (!and_ln498_2 & !icmp_ln522)> <Delay = 1.76>
ST_18 : Operation 121 [1/1] (2.55ns)   --->   "%add_ln537 = add i32 %sX_load, 1" [firmware/nnet_utils/nnet_pooling_stream.h:537]   --->   Operation 121 'add' 'add_ln537' <Predicate = (icmp_ln500 & !icmp_ln522 & !icmp_ln498) | (!and_ln498_2 & !icmp_ln522 & !icmp_ln498)> <Delay = 2.55> <Core = "AddSub">   --->   Core 14 'AddSub' <Latency = 0> <II = 1> <Delay = 2.55> <FuncUnit> <Opcode : 'add' 'sub'> <InPorts = 2> <OutPorts = 1>
ST_18 : Operation 122 [1/1] (0.69ns)   --->   "%select_ln537 = select i1 %icmp_ln498, i32 0, i32 %add_ln537" [firmware/nnet_utils/nnet_pooling_stream.h:537]   --->   Operation 122 'select' 'select_ln537' <Predicate = (icmp_ln500 & !icmp_ln522) | (!and_ln498_2 & !icmp_ln522)> <Delay = 0.69> <Core = "Sel">   --->   Core 26 'Sel' <Latency = 0> <II = 1> <Delay = 0.69> <FuncUnit> <Opcode : 'select'> <InPorts = 3> <OutPorts = 1>
ST_18 : Operation 123 [1/1] (1.76ns)   --->   "store i32 0, i32* @pX, align 4" [firmware/nnet_utils/nnet_pooling_stream.h:524]   --->   Operation 123 'store' <Predicate = (icmp_ln500 & icmp_ln522) | (!and_ln498_2 & icmp_ln522)> <Delay = 1.76>
ST_18 : Operation 124 [1/1] (1.76ns)   --->   "store i32 0, i32* @sX, align 4" [firmware/nnet_utils/nnet_pooling_stream.h:525]   --->   Operation 124 'store' <Predicate = (icmp_ln500 & icmp_ln522) | (!and_ln498_2 & icmp_ln522)> <Delay = 1.76>
ST_18 : Operation 125 [1/1] (2.47ns)   --->   "%icmp_ln526 = icmp eq i32 %pY_load, 55" [firmware/nnet_utils/nnet_pooling_stream.h:526]   --->   Operation 125 'icmp' 'icmp_ln526' <Predicate = (icmp_ln500 & icmp_ln522) | (!and_ln498_2 & icmp_ln522)> <Delay = 2.47> <Core = "Cmp">   --->   Core 25 'Cmp' <Latency = 0> <II = 1> <Delay = 2.47> <FuncUnit> <Opcode : 'icmp'> <InPorts = 2> <OutPorts = 1>
ST_18 : Operation 126 [1/1] (0.00ns)   --->   "br i1 %icmp_ln526, label %2, label %3" [firmware/nnet_utils/nnet_pooling_stream.h:526]   --->   Operation 126 'br' <Predicate = (icmp_ln500 & icmp_ln522) | (!and_ln498_2 & icmp_ln522)> <Delay = 0.00>
ST_18 : Operation 127 [1/1] (2.55ns)   --->   "%add_ln530 = add nsw i32 %pY_load, 1" [firmware/nnet_utils/nnet_pooling_stream.h:530]   --->   Operation 127 'add' 'add_ln530' <Predicate = (icmp_ln500 & icmp_ln522 & !icmp_ln526) | (!and_ln498_2 & icmp_ln522 & !icmp_ln526)> <Delay = 2.55> <Core = "AddSub">   --->   Core 14 'AddSub' <Latency = 0> <II = 1> <Delay = 2.55> <FuncUnit> <Opcode : 'add' 'sub'> <InPorts = 2> <OutPorts = 1>
ST_18 : Operation 128 [1/1] (1.76ns)   --->   "store i32 %add_ln530, i32* @pY, align 4" [firmware/nnet_utils/nnet_pooling_stream.h:530]   --->   Operation 128 'store' <Predicate = (icmp_ln500 & icmp_ln522 & !icmp_ln526) | (!and_ln498_2 & icmp_ln522 & !icmp_ln526)> <Delay = 1.76>
ST_18 : Operation 129 [1/1] (2.55ns)   --->   "%add_ln532 = add i32 %sY_load, 1" [firmware/nnet_utils/nnet_pooling_stream.h:532]   --->   Operation 129 'add' 'add_ln532' <Predicate = (icmp_ln500 & icmp_ln522 & !icmp_ln526 & !icmp_ln498_1) | (!and_ln498_2 & icmp_ln522 & !icmp_ln526 & !icmp_ln498_1)> <Delay = 2.55> <Core = "AddSub">   --->   Core 14 'AddSub' <Latency = 0> <II = 1> <Delay = 2.55> <FuncUnit> <Opcode : 'add' 'sub'> <InPorts = 2> <OutPorts = 1>
ST_18 : Operation 130 [1/1] (0.69ns)   --->   "%select_ln532 = select i1 %icmp_ln498_1, i32 0, i32 %add_ln532" [firmware/nnet_utils/nnet_pooling_stream.h:532]   --->   Operation 130 'select' 'select_ln532' <Predicate = (icmp_ln500 & icmp_ln522 & !icmp_ln526) | (!and_ln498_2 & icmp_ln522 & !icmp_ln526)> <Delay = 0.69> <Core = "Sel">   --->   Core 26 'Sel' <Latency = 0> <II = 1> <Delay = 0.69> <FuncUnit> <Opcode : 'select'> <InPorts = 3> <OutPorts = 1>
ST_18 : Operation 131 [1/1] (1.76ns)   --->   "store i32 0, i32* @pY, align 4" [firmware/nnet_utils/nnet_pooling_stream.h:527]   --->   Operation 131 'store' <Predicate = (icmp_ln500 & icmp_ln522 & icmp_ln526) | (!and_ln498_2 & icmp_ln522 & icmp_ln526)> <Delay = 1.76>
ST_18 : Operation 132 [1/1] (1.76ns)   --->   "br label %4" [firmware/nnet_utils/nnet_pooling_stream.h:529]   --->   Operation 132 'br' <Predicate = (icmp_ln500 & icmp_ln522 & icmp_ln526) | (!and_ln498_2 & icmp_ln522 & icmp_ln526)> <Delay = 1.76>

State 19 <SV = 18> <Delay = 4.17>
ST_19 : Operation 133 [1/1] (0.00ns)   --->   "%zext_ln203_2 = zext i12 %select_ln203_2 to i2048" [firmware/nnet_utils/nnet_pooling_stream.h:508]   --->   Operation 133 'zext' 'zext_ln203_2' <Predicate = true> <Delay = 0.00>
ST_19 : Operation 134 [6/6] (3.89ns)   --->   "%lshr_ln203 = lshr i2048 %select_ln203_1, %zext_ln203_2" [firmware/nnet_utils/nnet_pooling_stream.h:508]   --->   Operation 134 'lshr' 'lshr_ln203' <Predicate = true> <Delay = 3.89> <Core = "ShiftnS">   --->   Core 29 'ShiftnS' <Latency = 5> <II = 1> <Delay = 3.90> <FuncUnit> <Opcode : 'shl' 'lshr' 'ashr'> <InPorts = 2> <OutPorts = 1>
ST_19 : Operation 135 [1/1] (0.00ns)   --->   "%tmp_3 = call i10 @_ssdm_op_BitConcatenate.i10.i5.i5(i5 %xor_ln203, i5 0)" [firmware/nnet_utils/nnet_pooling_stream.h:508]   --->   Operation 135 'bitconcatenate' 'tmp_3' <Predicate = true> <Delay = 0.00>
ST_19 : Operation 136 [1/1] (0.00ns)   --->   "%empty_97 = or i10 %tmp_3, 31" [firmware/nnet_utils/nnet_pooling_stream.h:508]   --->   Operation 136 'or' 'empty_97' <Predicate = true> <Delay = 0.00>
ST_19 : Operation 137 [1/1] (1.77ns)   --->   "%icmp_ln203_1 = icmp ugt i10 %tmp_3, %empty_97" [firmware/nnet_utils/nnet_pooling_stream.h:508]   --->   Operation 137 'icmp' 'icmp_ln203_1' <Predicate = true> <Delay = 1.77> <Core = "Cmp">   --->   Core 25 'Cmp' <Latency = 0> <II = 1> <Delay = 2.47> <FuncUnit> <Opcode : 'icmp'> <InPorts = 2> <OutPorts = 1>
ST_19 : Operation 138 [1/1] (0.00ns)   --->   "%zext_ln203_4 = zext i10 %tmp_3 to i12" [firmware/nnet_utils/nnet_pooling_stream.h:508]   --->   Operation 138 'zext' 'zext_ln203_4' <Predicate = true> <Delay = 0.00>
ST_19 : Operation 139 [1/1] (0.00ns)   --->   "%zext_ln203_5 = zext i10 %empty_97 to i12" [firmware/nnet_utils/nnet_pooling_stream.h:508]   --->   Operation 139 'zext' 'zext_ln203_5' <Predicate = true> <Delay = 0.00>
ST_19 : Operation 140 [1/1] (1.73ns)   --->   "%sub_ln203_3 = sub i12 %zext_ln203_4, %zext_ln203_5" [firmware/nnet_utils/nnet_pooling_stream.h:508]   --->   Operation 140 'sub' 'sub_ln203_3' <Predicate = true> <Delay = 1.73> <Core = "AddSub">   --->   Core 14 'AddSub' <Latency = 0> <II = 1> <Delay = 2.55> <FuncUnit> <Opcode : 'add' 'sub'> <InPorts = 2> <OutPorts = 1>
ST_19 : Operation 141 [1/1] (0.00ns) (grouped into LUT with out node select_ln203_5)   --->   "%xor_ln203_2 = xor i12 %zext_ln203_4, 2047" [firmware/nnet_utils/nnet_pooling_stream.h:508]   --->   Operation 141 'xor' 'xor_ln203_2' <Predicate = true> <Delay = 0.00> <Core = "LogicGate">   --->   Core 27 'LogicGate' <Latency = 0> <II = 1> <Delay = 1.03> <FuncUnit> <Opcode : 'and' 'or' 'xor'> <InPorts = 2> <OutPorts = 1>
ST_19 : Operation 142 [1/1] (1.73ns)   --->   "%sub_ln203_4 = sub i12 %zext_ln203_5, %zext_ln203_4" [firmware/nnet_utils/nnet_pooling_stream.h:508]   --->   Operation 142 'sub' 'sub_ln203_4' <Predicate = true> <Delay = 1.73> <Core = "AddSub">   --->   Core 14 'AddSub' <Latency = 0> <II = 1> <Delay = 2.55> <FuncUnit> <Opcode : 'add' 'sub'> <InPorts = 2> <OutPorts = 1>
ST_19 : Operation 143 [1/1] (0.00ns) (grouped into LUT with out node sub_ln203_5)   --->   "%select_ln203_3 = select i1 %icmp_ln203_1, i12 %sub_ln203_3, i12 %sub_ln203_4" [firmware/nnet_utils/nnet_pooling_stream.h:508]   --->   Operation 143 'select' 'select_ln203_3' <Predicate = true> <Delay = 0.00> <Core = "Sel">   --->   Core 26 'Sel' <Latency = 0> <II = 1> <Delay = 0.69> <FuncUnit> <Opcode : 'select'> <InPorts = 3> <OutPorts = 1>
ST_19 : Operation 144 [1/1] (2.40ns)   --->   "%select_ln203_4 = select i1 %icmp_ln203_1, i2048 %tmp_5, i2048 %layer_in_V_9_load_1" [firmware/nnet_utils/nnet_pooling_stream.h:508]   --->   Operation 144 'select' 'select_ln203_4' <Predicate = true> <Delay = 2.40> <Core = "Sel">   --->   Core 26 'Sel' <Latency = 0> <II = 1> <Delay = 0.69> <FuncUnit> <Opcode : 'select'> <InPorts = 3> <OutPorts = 1>
ST_19 : Operation 145 [1/1] (0.99ns) (out node of the LUT)   --->   "%select_ln203_5 = select i1 %icmp_ln203_1, i12 %xor_ln203_2, i12 %zext_ln203_4" [firmware/nnet_utils/nnet_pooling_stream.h:508]   --->   Operation 145 'select' 'select_ln203_5' <Predicate = true> <Delay = 0.99> <Core = "Sel">   --->   Core 26 'Sel' <Latency = 0> <II = 1> <Delay = 0.69> <FuncUnit> <Opcode : 'select'> <InPorts = 3> <OutPorts = 1>
ST_19 : Operation 146 [1/1] (1.54ns) (out node of the LUT)   --->   "%sub_ln203_5 = sub i12 2047, %select_ln203_3" [firmware/nnet_utils/nnet_pooling_stream.h:508]   --->   Operation 146 'sub' 'sub_ln203_5' <Predicate = true> <Delay = 1.54> <Core = "AddSub">   --->   Core 14 'AddSub' <Latency = 0> <II = 1> <Delay = 2.55> <FuncUnit> <Opcode : 'add' 'sub'> <InPorts = 2> <OutPorts = 1>
ST_19 : Operation 147 [1/1] (0.00ns)   --->   "%zext_ln203_10 = zext i12 %select_ln203_8 to i2048" [firmware/nnet_utils/nnet_pooling_stream.h:508]   --->   Operation 147 'zext' 'zext_ln203_10' <Predicate = true> <Delay = 0.00>
ST_19 : Operation 148 [6/6] (3.89ns)   --->   "%lshr_ln203_4 = lshr i2048 %select_ln203_7, %zext_ln203_10" [firmware/nnet_utils/nnet_pooling_stream.h:508]   --->   Operation 148 'lshr' 'lshr_ln203_4' <Predicate = true> <Delay = 3.89> <Core = "ShiftnS">   --->   Core 29 'ShiftnS' <Latency = 5> <II = 1> <Delay = 3.90> <FuncUnit> <Opcode : 'shl' 'lshr' 'ashr'> <InPorts = 2> <OutPorts = 1>
ST_19 : Operation 149 [1/1] (0.00ns)   --->   "%empty_99 = sext i10 %tmp_3 to i11" [firmware/nnet_utils/nnet_pooling_stream.h:508]   --->   Operation 149 'sext' 'empty_99' <Predicate = true> <Delay = 0.00>
ST_19 : Operation 150 [1/1] (0.00ns)   --->   "%p_cast1 = sext i10 %empty_97 to i11" [firmware/nnet_utils/nnet_pooling_stream.h:508]   --->   Operation 150 'sext' 'p_cast1' <Predicate = true> <Delay = 0.00>
ST_19 : Operation 151 [1/1] (1.77ns)   --->   "%icmp_ln203_3 = icmp ugt i10 %tmp_3, %empty_97" [firmware/nnet_utils/nnet_pooling_stream.h:508]   --->   Operation 151 'icmp' 'icmp_ln203_3' <Predicate = true> <Delay = 1.77> <Core = "Cmp">   --->   Core 25 'Cmp' <Latency = 0> <II = 1> <Delay = 2.47> <FuncUnit> <Opcode : 'icmp'> <InPorts = 2> <OutPorts = 1>
ST_19 : Operation 152 [1/1] (0.00ns)   --->   "%zext_ln203_12 = zext i11 %empty_99 to i12" [firmware/nnet_utils/nnet_pooling_stream.h:508]   --->   Operation 152 'zext' 'zext_ln203_12' <Predicate = true> <Delay = 0.00>
ST_19 : Operation 153 [1/1] (0.00ns)   --->   "%zext_ln203_13 = zext i11 %p_cast1 to i12" [firmware/nnet_utils/nnet_pooling_stream.h:508]   --->   Operation 153 'zext' 'zext_ln203_13' <Predicate = true> <Delay = 0.00>
ST_19 : Operation 154 [1/1] (1.63ns)   --->   "%sub_ln203_9 = sub i12 %zext_ln203_12, %zext_ln203_13" [firmware/nnet_utils/nnet_pooling_stream.h:508]   --->   Operation 154 'sub' 'sub_ln203_9' <Predicate = true> <Delay = 1.63> <Core = "AddSub">   --->   Core 14 'AddSub' <Latency = 0> <II = 1> <Delay = 2.55> <FuncUnit> <Opcode : 'add' 'sub'> <InPorts = 2> <OutPorts = 1>
ST_19 : Operation 155 [1/1] (0.00ns) (grouped into LUT with out node select_ln203_11)   --->   "%xor_ln203_4 = xor i12 %zext_ln203_12, 2047" [firmware/nnet_utils/nnet_pooling_stream.h:508]   --->   Operation 155 'xor' 'xor_ln203_4' <Predicate = true> <Delay = 0.00> <Core = "LogicGate">   --->   Core 27 'LogicGate' <Latency = 0> <II = 1> <Delay = 1.03> <FuncUnit> <Opcode : 'and' 'or' 'xor'> <InPorts = 2> <OutPorts = 1>
ST_19 : Operation 156 [1/1] (1.63ns)   --->   "%sub_ln203_10 = sub i12 %zext_ln203_13, %zext_ln203_12" [firmware/nnet_utils/nnet_pooling_stream.h:508]   --->   Operation 156 'sub' 'sub_ln203_10' <Predicate = true> <Delay = 1.63> <Core = "AddSub">   --->   Core 14 'AddSub' <Latency = 0> <II = 1> <Delay = 2.55> <FuncUnit> <Opcode : 'add' 'sub'> <InPorts = 2> <OutPorts = 1>
ST_19 : Operation 157 [1/1] (0.00ns) (grouped into LUT with out node sub_ln203_11)   --->   "%select_ln203_9 = select i1 %icmp_ln203_3, i12 %sub_ln203_9, i12 %sub_ln203_10" [firmware/nnet_utils/nnet_pooling_stream.h:508]   --->   Operation 157 'select' 'select_ln203_9' <Predicate = true> <Delay = 0.00> <Core = "Sel">   --->   Core 26 'Sel' <Latency = 0> <II = 1> <Delay = 0.69> <FuncUnit> <Opcode : 'select'> <InPorts = 3> <OutPorts = 1>
ST_19 : Operation 158 [1/1] (2.40ns)   --->   "%select_ln203_10 = select i1 %icmp_ln203_3, i2048 %tmp_7, i2048 %layer_in_V_9_load_1" [firmware/nnet_utils/nnet_pooling_stream.h:508]   --->   Operation 158 'select' 'select_ln203_10' <Predicate = true> <Delay = 2.40> <Core = "Sel">   --->   Core 26 'Sel' <Latency = 0> <II = 1> <Delay = 0.69> <FuncUnit> <Opcode : 'select'> <InPorts = 3> <OutPorts = 1>
ST_19 : Operation 159 [1/1] (0.99ns) (out node of the LUT)   --->   "%select_ln203_11 = select i1 %icmp_ln203_3, i12 %xor_ln203_4, i12 %zext_ln203_12" [firmware/nnet_utils/nnet_pooling_stream.h:508]   --->   Operation 159 'select' 'select_ln203_11' <Predicate = true> <Delay = 0.99> <Core = "Sel">   --->   Core 26 'Sel' <Latency = 0> <II = 1> <Delay = 0.69> <FuncUnit> <Opcode : 'select'> <InPorts = 3> <OutPorts = 1>
ST_19 : Operation 160 [1/1] (1.54ns) (out node of the LUT)   --->   "%sub_ln203_11 = sub i12 2047, %select_ln203_9" [firmware/nnet_utils/nnet_pooling_stream.h:508]   --->   Operation 160 'sub' 'sub_ln203_11' <Predicate = true> <Delay = 1.54> <Core = "AddSub">   --->   Core 14 'AddSub' <Latency = 0> <II = 1> <Delay = 2.55> <FuncUnit> <Opcode : 'add' 'sub'> <InPorts = 2> <OutPorts = 1>

State 20 <SV = 19> <Delay = 3.89>
ST_20 : Operation 161 [5/6] (3.89ns)   --->   "%lshr_ln203 = lshr i2048 %select_ln203_1, %zext_ln203_2" [firmware/nnet_utils/nnet_pooling_stream.h:508]   --->   Operation 161 'lshr' 'lshr_ln203' <Predicate = true> <Delay = 3.89> <Core = "ShiftnS">   --->   Core 29 'ShiftnS' <Latency = 5> <II = 1> <Delay = 3.90> <FuncUnit> <Opcode : 'shl' 'lshr' 'ashr'> <InPorts = 2> <OutPorts = 1>
ST_20 : Operation 162 [1/1] (0.00ns)   --->   "%zext_ln203_6 = zext i12 %select_ln203_5 to i2048" [firmware/nnet_utils/nnet_pooling_stream.h:508]   --->   Operation 162 'zext' 'zext_ln203_6' <Predicate = true> <Delay = 0.00>
ST_20 : Operation 163 [6/6] (3.89ns)   --->   "%lshr_ln203_2 = lshr i2048 %select_ln203_4, %zext_ln203_6" [firmware/nnet_utils/nnet_pooling_stream.h:508]   --->   Operation 163 'lshr' 'lshr_ln203_2' <Predicate = true> <Delay = 3.89> <Core = "ShiftnS">   --->   Core 29 'ShiftnS' <Latency = 5> <II = 1> <Delay = 3.90> <FuncUnit> <Opcode : 'shl' 'lshr' 'ashr'> <InPorts = 2> <OutPorts = 1>
ST_20 : Operation 164 [5/6] (3.89ns)   --->   "%lshr_ln203_4 = lshr i2048 %select_ln203_7, %zext_ln203_10" [firmware/nnet_utils/nnet_pooling_stream.h:508]   --->   Operation 164 'lshr' 'lshr_ln203_4' <Predicate = true> <Delay = 3.89> <Core = "ShiftnS">   --->   Core 29 'ShiftnS' <Latency = 5> <II = 1> <Delay = 3.90> <FuncUnit> <Opcode : 'shl' 'lshr' 'ashr'> <InPorts = 2> <OutPorts = 1>
ST_20 : Operation 165 [1/1] (0.00ns)   --->   "%zext_ln203_14 = zext i12 %select_ln203_11 to i2048" [firmware/nnet_utils/nnet_pooling_stream.h:508]   --->   Operation 165 'zext' 'zext_ln203_14' <Predicate = true> <Delay = 0.00>
ST_20 : Operation 166 [6/6] (3.89ns)   --->   "%lshr_ln203_6 = lshr i2048 %select_ln203_10, %zext_ln203_14" [firmware/nnet_utils/nnet_pooling_stream.h:508]   --->   Operation 166 'lshr' 'lshr_ln203_6' <Predicate = true> <Delay = 3.89> <Core = "ShiftnS">   --->   Core 29 'ShiftnS' <Latency = 5> <II = 1> <Delay = 3.90> <FuncUnit> <Opcode : 'shl' 'lshr' 'ashr'> <InPorts = 2> <OutPorts = 1>

State 21 <SV = 20> <Delay = 3.89>
ST_21 : Operation 167 [4/6] (3.89ns)   --->   "%lshr_ln203 = lshr i2048 %select_ln203_1, %zext_ln203_2" [firmware/nnet_utils/nnet_pooling_stream.h:508]   --->   Operation 167 'lshr' 'lshr_ln203' <Predicate = true> <Delay = 3.89> <Core = "ShiftnS">   --->   Core 29 'ShiftnS' <Latency = 5> <II = 1> <Delay = 3.90> <FuncUnit> <Opcode : 'shl' 'lshr' 'ashr'> <InPorts = 2> <OutPorts = 1>
ST_21 : Operation 168 [5/6] (3.89ns)   --->   "%lshr_ln203_2 = lshr i2048 %select_ln203_4, %zext_ln203_6" [firmware/nnet_utils/nnet_pooling_stream.h:508]   --->   Operation 168 'lshr' 'lshr_ln203_2' <Predicate = true> <Delay = 3.89> <Core = "ShiftnS">   --->   Core 29 'ShiftnS' <Latency = 5> <II = 1> <Delay = 3.90> <FuncUnit> <Opcode : 'shl' 'lshr' 'ashr'> <InPorts = 2> <OutPorts = 1>
ST_21 : Operation 169 [4/6] (3.89ns)   --->   "%lshr_ln203_4 = lshr i2048 %select_ln203_7, %zext_ln203_10" [firmware/nnet_utils/nnet_pooling_stream.h:508]   --->   Operation 169 'lshr' 'lshr_ln203_4' <Predicate = true> <Delay = 3.89> <Core = "ShiftnS">   --->   Core 29 'ShiftnS' <Latency = 5> <II = 1> <Delay = 3.90> <FuncUnit> <Opcode : 'shl' 'lshr' 'ashr'> <InPorts = 2> <OutPorts = 1>
ST_21 : Operation 170 [5/6] (3.89ns)   --->   "%lshr_ln203_6 = lshr i2048 %select_ln203_10, %zext_ln203_14" [firmware/nnet_utils/nnet_pooling_stream.h:508]   --->   Operation 170 'lshr' 'lshr_ln203_6' <Predicate = true> <Delay = 3.89> <Core = "ShiftnS">   --->   Core 29 'ShiftnS' <Latency = 5> <II = 1> <Delay = 3.90> <FuncUnit> <Opcode : 'shl' 'lshr' 'ashr'> <InPorts = 2> <OutPorts = 1>

State 22 <SV = 21> <Delay = 3.89>
ST_22 : Operation 171 [3/6] (3.89ns)   --->   "%lshr_ln203 = lshr i2048 %select_ln203_1, %zext_ln203_2" [firmware/nnet_utils/nnet_pooling_stream.h:508]   --->   Operation 171 'lshr' 'lshr_ln203' <Predicate = true> <Delay = 3.89> <Core = "ShiftnS">   --->   Core 29 'ShiftnS' <Latency = 5> <II = 1> <Delay = 3.90> <FuncUnit> <Opcode : 'shl' 'lshr' 'ashr'> <InPorts = 2> <OutPorts = 1>
ST_22 : Operation 172 [4/6] (3.89ns)   --->   "%lshr_ln203_2 = lshr i2048 %select_ln203_4, %zext_ln203_6" [firmware/nnet_utils/nnet_pooling_stream.h:508]   --->   Operation 172 'lshr' 'lshr_ln203_2' <Predicate = true> <Delay = 3.89> <Core = "ShiftnS">   --->   Core 29 'ShiftnS' <Latency = 5> <II = 1> <Delay = 3.90> <FuncUnit> <Opcode : 'shl' 'lshr' 'ashr'> <InPorts = 2> <OutPorts = 1>
ST_22 : Operation 173 [3/6] (3.89ns)   --->   "%lshr_ln203_4 = lshr i2048 %select_ln203_7, %zext_ln203_10" [firmware/nnet_utils/nnet_pooling_stream.h:508]   --->   Operation 173 'lshr' 'lshr_ln203_4' <Predicate = true> <Delay = 3.89> <Core = "ShiftnS">   --->   Core 29 'ShiftnS' <Latency = 5> <II = 1> <Delay = 3.90> <FuncUnit> <Opcode : 'shl' 'lshr' 'ashr'> <InPorts = 2> <OutPorts = 1>
ST_22 : Operation 174 [4/6] (3.89ns)   --->   "%lshr_ln203_6 = lshr i2048 %select_ln203_10, %zext_ln203_14" [firmware/nnet_utils/nnet_pooling_stream.h:508]   --->   Operation 174 'lshr' 'lshr_ln203_6' <Predicate = true> <Delay = 3.89> <Core = "ShiftnS">   --->   Core 29 'ShiftnS' <Latency = 5> <II = 1> <Delay = 3.90> <FuncUnit> <Opcode : 'shl' 'lshr' 'ashr'> <InPorts = 2> <OutPorts = 1>

State 23 <SV = 22> <Delay = 3.89>
ST_23 : Operation 175 [2/6] (3.89ns)   --->   "%lshr_ln203 = lshr i2048 %select_ln203_1, %zext_ln203_2" [firmware/nnet_utils/nnet_pooling_stream.h:508]   --->   Operation 175 'lshr' 'lshr_ln203' <Predicate = true> <Delay = 3.89> <Core = "ShiftnS">   --->   Core 29 'ShiftnS' <Latency = 5> <II = 1> <Delay = 3.90> <FuncUnit> <Opcode : 'shl' 'lshr' 'ashr'> <InPorts = 2> <OutPorts = 1>
ST_23 : Operation 176 [3/6] (3.89ns)   --->   "%lshr_ln203_2 = lshr i2048 %select_ln203_4, %zext_ln203_6" [firmware/nnet_utils/nnet_pooling_stream.h:508]   --->   Operation 176 'lshr' 'lshr_ln203_2' <Predicate = true> <Delay = 3.89> <Core = "ShiftnS">   --->   Core 29 'ShiftnS' <Latency = 5> <II = 1> <Delay = 3.90> <FuncUnit> <Opcode : 'shl' 'lshr' 'ashr'> <InPorts = 2> <OutPorts = 1>
ST_23 : Operation 177 [2/6] (3.89ns)   --->   "%lshr_ln203_4 = lshr i2048 %select_ln203_7, %zext_ln203_10" [firmware/nnet_utils/nnet_pooling_stream.h:508]   --->   Operation 177 'lshr' 'lshr_ln203_4' <Predicate = true> <Delay = 3.89> <Core = "ShiftnS">   --->   Core 29 'ShiftnS' <Latency = 5> <II = 1> <Delay = 3.90> <FuncUnit> <Opcode : 'shl' 'lshr' 'ashr'> <InPorts = 2> <OutPorts = 1>
ST_23 : Operation 178 [3/6] (3.89ns)   --->   "%lshr_ln203_6 = lshr i2048 %select_ln203_10, %zext_ln203_14" [firmware/nnet_utils/nnet_pooling_stream.h:508]   --->   Operation 178 'lshr' 'lshr_ln203_6' <Predicate = true> <Delay = 3.89> <Core = "ShiftnS">   --->   Core 29 'ShiftnS' <Latency = 5> <II = 1> <Delay = 3.90> <FuncUnit> <Opcode : 'shl' 'lshr' 'ashr'> <InPorts = 2> <OutPorts = 1>

State 24 <SV = 23> <Delay = 3.89>
ST_24 : Operation 179 [1/6] (3.89ns)   --->   "%lshr_ln203 = lshr i2048 %select_ln203_1, %zext_ln203_2" [firmware/nnet_utils/nnet_pooling_stream.h:508]   --->   Operation 179 'lshr' 'lshr_ln203' <Predicate = true> <Delay = 3.89> <Core = "ShiftnS">   --->   Core 29 'ShiftnS' <Latency = 5> <II = 1> <Delay = 3.90> <FuncUnit> <Opcode : 'shl' 'lshr' 'ashr'> <InPorts = 2> <OutPorts = 1>
ST_24 : Operation 180 [2/6] (3.89ns)   --->   "%lshr_ln203_2 = lshr i2048 %select_ln203_4, %zext_ln203_6" [firmware/nnet_utils/nnet_pooling_stream.h:508]   --->   Operation 180 'lshr' 'lshr_ln203_2' <Predicate = true> <Delay = 3.89> <Core = "ShiftnS">   --->   Core 29 'ShiftnS' <Latency = 5> <II = 1> <Delay = 3.90> <FuncUnit> <Opcode : 'shl' 'lshr' 'ashr'> <InPorts = 2> <OutPorts = 1>
ST_24 : Operation 181 [1/6] (3.89ns)   --->   "%lshr_ln203_4 = lshr i2048 %select_ln203_7, %zext_ln203_10" [firmware/nnet_utils/nnet_pooling_stream.h:508]   --->   Operation 181 'lshr' 'lshr_ln203_4' <Predicate = true> <Delay = 3.89> <Core = "ShiftnS">   --->   Core 29 'ShiftnS' <Latency = 5> <II = 1> <Delay = 3.90> <FuncUnit> <Opcode : 'shl' 'lshr' 'ashr'> <InPorts = 2> <OutPorts = 1>
ST_24 : Operation 182 [2/6] (3.89ns)   --->   "%lshr_ln203_6 = lshr i2048 %select_ln203_10, %zext_ln203_14" [firmware/nnet_utils/nnet_pooling_stream.h:508]   --->   Operation 182 'lshr' 'lshr_ln203_6' <Predicate = true> <Delay = 3.89> <Core = "ShiftnS">   --->   Core 29 'ShiftnS' <Latency = 5> <II = 1> <Delay = 3.90> <FuncUnit> <Opcode : 'shl' 'lshr' 'ashr'> <InPorts = 2> <OutPorts = 1>

State 25 <SV = 24> <Delay = 3.89>
ST_25 : Operation 183 [1/1] (0.00ns) (grouped into LUT with out node and_ln203)   --->   "%zext_ln203_3 = zext i12 %sub_ln203_2 to i2048" [firmware/nnet_utils/nnet_pooling_stream.h:508]   --->   Operation 183 'zext' 'zext_ln203_3' <Predicate = true> <Delay = 0.00>
ST_25 : Operation 184 [1/1] (0.00ns) (grouped into LUT with out node and_ln203)   --->   "%lshr_ln203_1 = lshr i2048 -1, %zext_ln203_3" [firmware/nnet_utils/nnet_pooling_stream.h:508]   --->   Operation 184 'lshr' 'lshr_ln203_1' <Predicate = true> <Delay = 0.00> <Core = "Shift">   --->   Core 28 'Shift' <Latency = 0> <II = 1> <Delay = 3.14> <FuncUnit> <Opcode : 'shl' 'lshr' 'ashr'> <InPorts = 2> <OutPorts = 1>
ST_25 : Operation 185 [1/1] (3.56ns) (out node of the LUT)   --->   "%and_ln203 = and i2048 %lshr_ln203, %lshr_ln203_1" [firmware/nnet_utils/nnet_pooling_stream.h:508]   --->   Operation 185 'and' 'and_ln203' <Predicate = true> <Delay = 3.56> <Core = "LogicGate">   --->   Core 27 'LogicGate' <Latency = 0> <II = 1> <Delay = 1.03> <FuncUnit> <Opcode : 'and' 'or' 'xor'> <InPorts = 2> <OutPorts = 1>
ST_25 : Operation 186 [1/1] (0.00ns)   --->   "%pool_res_V = trunc i2048 %and_ln203 to i32" [firmware/nnet_utils/nnet_pooling_stream.h:508]   --->   Operation 186 'trunc' 'pool_res_V' <Predicate = true> <Delay = 0.00>
ST_25 : Operation 187 [1/6] (3.89ns)   --->   "%lshr_ln203_2 = lshr i2048 %select_ln203_4, %zext_ln203_6" [firmware/nnet_utils/nnet_pooling_stream.h:508]   --->   Operation 187 'lshr' 'lshr_ln203_2' <Predicate = true> <Delay = 3.89> <Core = "ShiftnS">   --->   Core 29 'ShiftnS' <Latency = 5> <II = 1> <Delay = 3.90> <FuncUnit> <Opcode : 'shl' 'lshr' 'ashr'> <InPorts = 2> <OutPorts = 1>
ST_25 : Operation 188 [1/1] (0.00ns) (grouped into LUT with out node and_ln203_2)   --->   "%zext_ln203_11 = zext i12 %sub_ln203_8 to i2048" [firmware/nnet_utils/nnet_pooling_stream.h:508]   --->   Operation 188 'zext' 'zext_ln203_11' <Predicate = true> <Delay = 0.00>
ST_25 : Operation 189 [1/1] (0.00ns) (grouped into LUT with out node and_ln203_2)   --->   "%lshr_ln203_5 = lshr i2048 -1, %zext_ln203_11" [firmware/nnet_utils/nnet_pooling_stream.h:508]   --->   Operation 189 'lshr' 'lshr_ln203_5' <Predicate = true> <Delay = 0.00> <Core = "Shift">   --->   Core 28 'Shift' <Latency = 0> <II = 1> <Delay = 3.14> <FuncUnit> <Opcode : 'shl' 'lshr' 'ashr'> <InPorts = 2> <OutPorts = 1>
ST_25 : Operation 190 [1/1] (3.56ns) (out node of the LUT)   --->   "%and_ln203_2 = and i2048 %lshr_ln203_4, %lshr_ln203_5" [firmware/nnet_utils/nnet_pooling_stream.h:508]   --->   Operation 190 'and' 'and_ln203_2' <Predicate = true> <Delay = 3.56> <Core = "LogicGate">   --->   Core 27 'LogicGate' <Latency = 0> <II = 1> <Delay = 1.03> <FuncUnit> <Opcode : 'and' 'or' 'xor'> <InPorts = 2> <OutPorts = 1>
ST_25 : Operation 191 [1/1] (0.00ns)   --->   "%trunc_ln203_2 = trunc i2048 %and_ln203_2 to i32" [firmware/nnet_utils/nnet_pooling_stream.h:508]   --->   Operation 191 'trunc' 'trunc_ln203_2' <Predicate = true> <Delay = 0.00>
ST_25 : Operation 192 [1/6] (3.89ns)   --->   "%lshr_ln203_6 = lshr i2048 %select_ln203_10, %zext_ln203_14" [firmware/nnet_utils/nnet_pooling_stream.h:508]   --->   Operation 192 'lshr' 'lshr_ln203_6' <Predicate = true> <Delay = 3.89> <Core = "ShiftnS">   --->   Core 29 'ShiftnS' <Latency = 5> <II = 1> <Delay = 3.90> <FuncUnit> <Opcode : 'shl' 'lshr' 'ashr'> <InPorts = 2> <OutPorts = 1>

State 26 <SV = 25> <Delay = 3.56>
ST_26 : Operation 193 [1/1] (0.00ns)   --->   "%tmp = call i32 (...)* @_ssdm_op_SpecRegionBegin([13 x i8]* @p_str178)" [firmware/nnet_utils/nnet_pooling_stream.h:500]   --->   Operation 193 'specregionbegin' 'tmp' <Predicate = true> <Delay = 0.00>
ST_26 : Operation 194 [1/1] (0.00ns) (grouped into LUT with out node and_ln203_1)   --->   "%zext_ln203_7 = zext i12 %sub_ln203_5 to i2048" [firmware/nnet_utils/nnet_pooling_stream.h:508]   --->   Operation 194 'zext' 'zext_ln203_7' <Predicate = true> <Delay = 0.00>
ST_26 : Operation 195 [1/1] (0.00ns) (grouped into LUT with out node and_ln203_1)   --->   "%lshr_ln203_3 = lshr i2048 -1, %zext_ln203_7" [firmware/nnet_utils/nnet_pooling_stream.h:508]   --->   Operation 195 'lshr' 'lshr_ln203_3' <Predicate = true> <Delay = 0.00> <Core = "Shift">   --->   Core 28 'Shift' <Latency = 0> <II = 1> <Delay = 3.14> <FuncUnit> <Opcode : 'shl' 'lshr' 'ashr'> <InPorts = 2> <OutPorts = 1>
ST_26 : Operation 196 [1/1] (3.56ns) (out node of the LUT)   --->   "%and_ln203_1 = and i2048 %lshr_ln203_2, %lshr_ln203_3" [firmware/nnet_utils/nnet_pooling_stream.h:508]   --->   Operation 196 'and' 'and_ln203_1' <Predicate = true> <Delay = 3.56> <Core = "LogicGate">   --->   Core 27 'LogicGate' <Latency = 0> <II = 1> <Delay = 1.03> <FuncUnit> <Opcode : 'and' 'or' 'xor'> <InPorts = 2> <OutPorts = 1>
ST_26 : Operation 197 [1/1] (0.00ns)   --->   "%trunc_ln203_1 = trunc i2048 %and_ln203_1 to i32" [firmware/nnet_utils/nnet_pooling_stream.h:508]   --->   Operation 197 'trunc' 'trunc_ln203_1' <Predicate = true> <Delay = 0.00>
ST_26 : Operation 198 [1/1] (0.00ns) (grouped into LUT with out node and_ln203_3)   --->   "%zext_ln203_15 = zext i12 %sub_ln203_11 to i2048" [firmware/nnet_utils/nnet_pooling_stream.h:508]   --->   Operation 198 'zext' 'zext_ln203_15' <Predicate = true> <Delay = 0.00>
ST_26 : Operation 199 [1/1] (0.00ns) (grouped into LUT with out node and_ln203_3)   --->   "%lshr_ln203_7 = lshr i2048 -1, %zext_ln203_15" [firmware/nnet_utils/nnet_pooling_stream.h:508]   --->   Operation 199 'lshr' 'lshr_ln203_7' <Predicate = true> <Delay = 0.00> <Core = "Shift">   --->   Core 28 'Shift' <Latency = 0> <II = 1> <Delay = 3.14> <FuncUnit> <Opcode : 'shl' 'lshr' 'ashr'> <InPorts = 2> <OutPorts = 1>
ST_26 : Operation 200 [1/1] (3.56ns) (out node of the LUT)   --->   "%and_ln203_3 = and i2048 %lshr_ln203_6, %lshr_ln203_7" [firmware/nnet_utils/nnet_pooling_stream.h:508]   --->   Operation 200 'and' 'and_ln203_3' <Predicate = true> <Delay = 3.56> <Core = "LogicGate">   --->   Core 27 'LogicGate' <Latency = 0> <II = 1> <Delay = 1.03> <FuncUnit> <Opcode : 'and' 'or' 'xor'> <InPorts = 2> <OutPorts = 1>
ST_26 : Operation 201 [1/1] (0.00ns)   --->   "%trunc_ln203_3 = trunc i2048 %and_ln203_3 to i32" [firmware/nnet_utils/nnet_pooling_stream.h:508]   --->   Operation 201 'trunc' 'trunc_ln203_3' <Predicate = true> <Delay = 0.00>
ST_26 : Operation 202 [1/1] (0.00ns)   --->   "%pool_V = call i128 @_ssdm_op_BitConcatenate.i128.i32.i32.i32.i32(i32 %trunc_ln203_3, i32 %trunc_ln203_2, i32 %trunc_ln203_1, i32 %pool_res_V)" [firmware/nnet_utils/nnet_pooling_stream.h:508]   --->   Operation 202 'bitconcatenate' 'pool_V' <Predicate = true> <Delay = 0.00>
ST_26 : Operation 203 [1/1] (1.76ns)   --->   "br label %0" [firmware/nnet_utils/nnet_pooling_stream.h:512]   --->   Operation 203 'br' <Predicate = true> <Delay = 1.76>

State 27 <SV = 26> <Delay = 3.78>
ST_27 : Operation 204 [1/1] (0.00ns)   --->   "%tmp_V = phi i32 [ %pool_res_V, %hls_label_16_begin ], [ %pool_res_V_1, %._crit_edge72 ]"   --->   Operation 204 'phi' 'tmp_V' <Predicate = true> <Delay = 0.00>
ST_27 : Operation 205 [1/1] (0.00ns)   --->   "%i_0 = phi i3 [ 1, %hls_label_16_begin ], [ %i, %._crit_edge72 ]"   --->   Operation 205 'phi' 'i_0' <Predicate = true> <Delay = 0.00>
ST_27 : Operation 206 [1/1] (1.13ns)   --->   "%icmp_ln512 = icmp eq i3 %i_0, -4" [firmware/nnet_utils/nnet_pooling_stream.h:512]   --->   Operation 206 'icmp' 'icmp_ln512' <Predicate = true> <Delay = 1.13> <Core = "Cmp">   --->   Core 25 'Cmp' <Latency = 0> <II = 1> <Delay = 2.47> <FuncUnit> <Opcode : 'icmp'> <InPorts = 2> <OutPorts = 1>
ST_27 : Operation 207 [1/1] (0.00ns)   --->   "%empty_100 = call i32 (...)* @_ssdm_op_SpecLoopTripCount(i64 3, i64 3, i64 3)"   --->   Operation 207 'speclooptripcount' 'empty_100' <Predicate = true> <Delay = 0.00>
ST_27 : Operation 208 [1/1] (0.00ns)   --->   "br i1 %icmp_ln512, label %hls_label_16_end, label %._crit_edge72" [firmware/nnet_utils/nnet_pooling_stream.h:512]   --->   Operation 208 'br' <Predicate = true> <Delay = 0.00>
ST_27 : Operation 209 [1/1] (0.00ns)   --->   "%empty_101 = trunc i3 %i_0 to i2" [firmware/nnet_utils/nnet_pooling_stream.h:512]   --->   Operation 209 'trunc' 'empty_101' <Predicate = (!icmp_ln512)> <Delay = 0.00>
ST_27 : Operation 210 [1/1] (0.00ns)   --->   "%tmp_s = call i7 @_ssdm_op_BitConcatenate.i7.i2.i5(i2 %empty_101, i5 0)" [firmware/nnet_utils/nnet_pooling_stream.h:512]   --->   Operation 210 'bitconcatenate' 'tmp_s' <Predicate = (!icmp_ln512)> <Delay = 0.00>
ST_27 : Operation 211 [1/1] (0.00ns)   --->   "%empty_102 = or i7 %tmp_s, 31" [firmware/nnet_utils/nnet_pooling_stream.h:512]   --->   Operation 211 'or' 'empty_102' <Predicate = (!icmp_ln512)> <Delay = 0.00>
ST_27 : Operation 212 [1/1] (1.48ns)   --->   "%icmp_ln1494_1 = icmp ugt i7 %tmp_s, %empty_102" [firmware/nnet_utils/nnet_pooling_stream.h:513]   --->   Operation 212 'icmp' 'icmp_ln1494_1' <Predicate = (!icmp_ln512)> <Delay = 1.48> <Core = "Cmp">   --->   Core 25 'Cmp' <Latency = 0> <II = 1> <Delay = 2.47> <FuncUnit> <Opcode : 'icmp'> <InPorts = 2> <OutPorts = 1>
ST_27 : Operation 213 [1/1] (0.00ns)   --->   "%zext_ln1494 = zext i7 %tmp_s to i8" [firmware/nnet_utils/nnet_pooling_stream.h:513]   --->   Operation 213 'zext' 'zext_ln1494' <Predicate = (!icmp_ln512)> <Delay = 0.00>
ST_27 : Operation 214 [1/1] (0.00ns)   --->   "%zext_ln1494_1 = zext i7 %empty_102 to i8" [firmware/nnet_utils/nnet_pooling_stream.h:513]   --->   Operation 214 'zext' 'zext_ln1494_1' <Predicate = (!icmp_ln512)> <Delay = 0.00>
ST_27 : Operation 215 [1/1] (0.00ns)   --->   "%tmp_8 = call i128 @llvm.part.select.i128(i128 %pool_V, i32 127, i32 0)" [firmware/nnet_utils/nnet_pooling_stream.h:513]   --->   Operation 215 'partselect' 'tmp_8' <Predicate = (!icmp_ln512)> <Delay = 0.00>
ST_27 : Operation 216 [1/1] (1.87ns)   --->   "%sub_ln1494 = sub i8 %zext_ln1494, %zext_ln1494_1" [firmware/nnet_utils/nnet_pooling_stream.h:513]   --->   Operation 216 'sub' 'sub_ln1494' <Predicate = (!icmp_ln512)> <Delay = 1.87> <Core = "AddSub">   --->   Core 14 'AddSub' <Latency = 0> <II = 1> <Delay = 2.55> <FuncUnit> <Opcode : 'add' 'sub'> <InPorts = 2> <OutPorts = 1>
ST_27 : Operation 217 [1/1] (0.00ns) (grouped into LUT with out node select_ln1494_2)   --->   "%xor_ln1494 = xor i8 %zext_ln1494, 127" [firmware/nnet_utils/nnet_pooling_stream.h:513]   --->   Operation 217 'xor' 'xor_ln1494' <Predicate = (!icmp_ln512)> <Delay = 0.00> <Core = "LogicGate">   --->   Core 27 'LogicGate' <Latency = 0> <II = 1> <Delay = 1.03> <FuncUnit> <Opcode : 'and' 'or' 'xor'> <InPorts = 2> <OutPorts = 1>
ST_27 : Operation 218 [1/1] (1.87ns)   --->   "%sub_ln1494_1 = sub i8 %zext_ln1494_1, %zext_ln1494" [firmware/nnet_utils/nnet_pooling_stream.h:513]   --->   Operation 218 'sub' 'sub_ln1494_1' <Predicate = (!icmp_ln512)> <Delay = 1.87> <Core = "AddSub">   --->   Core 14 'AddSub' <Latency = 0> <II = 1> <Delay = 2.55> <FuncUnit> <Opcode : 'add' 'sub'> <InPorts = 2> <OutPorts = 1>
ST_27 : Operation 219 [1/1] (0.00ns) (grouped into LUT with out node sub_ln1494_2)   --->   "%select_ln1494 = select i1 %icmp_ln1494_1, i8 %sub_ln1494, i8 %sub_ln1494_1" [firmware/nnet_utils/nnet_pooling_stream.h:513]   --->   Operation 219 'select' 'select_ln1494' <Predicate = (!icmp_ln512)> <Delay = 0.00> <Core = "Sel">   --->   Core 26 'Sel' <Latency = 0> <II = 1> <Delay = 0.69> <FuncUnit> <Opcode : 'select'> <InPorts = 3> <OutPorts = 1>
ST_27 : Operation 220 [1/1] (1.92ns)   --->   "%select_ln1494_1 = select i1 %icmp_ln1494_1, i128 %tmp_8, i128 %pool_V" [firmware/nnet_utils/nnet_pooling_stream.h:513]   --->   Operation 220 'select' 'select_ln1494_1' <Predicate = (!icmp_ln512)> <Delay = 1.92> <Core = "Sel">   --->   Core 26 'Sel' <Latency = 0> <II = 1> <Delay = 0.69> <FuncUnit> <Opcode : 'select'> <InPorts = 3> <OutPorts = 1>
ST_27 : Operation 221 [1/1] (1.24ns) (out node of the LUT)   --->   "%select_ln1494_2 = select i1 %icmp_ln1494_1, i8 %xor_ln1494, i8 %zext_ln1494" [firmware/nnet_utils/nnet_pooling_stream.h:513]   --->   Operation 221 'select' 'select_ln1494_2' <Predicate = (!icmp_ln512)> <Delay = 1.24> <Core = "Sel">   --->   Core 26 'Sel' <Latency = 0> <II = 1> <Delay = 0.69> <FuncUnit> <Opcode : 'select'> <InPorts = 3> <OutPorts = 1>
ST_27 : Operation 222 [1/1] (1.91ns) (out node of the LUT)   --->   "%sub_ln1494_2 = sub i8 127, %select_ln1494" [firmware/nnet_utils/nnet_pooling_stream.h:513]   --->   Operation 222 'sub' 'sub_ln1494_2' <Predicate = (!icmp_ln512)> <Delay = 1.91> <Core = "AddSub">   --->   Core 14 'AddSub' <Latency = 0> <II = 1> <Delay = 2.55> <FuncUnit> <Opcode : 'add' 'sub'> <InPorts = 2> <OutPorts = 1>
ST_27 : Operation 223 [1/1] (1.65ns)   --->   "%i = add i3 1, %i_0" [firmware/nnet_utils/nnet_pooling_stream.h:512]   --->   Operation 223 'add' 'i' <Predicate = (!icmp_ln512)> <Delay = 1.65> <Core = "AddSub">   --->   Core 14 'AddSub' <Latency = 0> <II = 1> <Delay = 2.55> <FuncUnit> <Opcode : 'add' 'sub'> <InPorts = 2> <OutPorts = 1>
ST_27 : Operation 224 [1/1] (2.18ns)   --->   "call void @_ssdm_op_Write.ap_fifo.volatile.i32P(i32* %res_V_V, i32 %tmp_V)" [firmware/nnet_utils/nnet_pooling_stream.h:516]   --->   Operation 224 'write' <Predicate = (icmp_ln512)> <Delay = 2.18> <Core = "FIFO">   --->   Core 32 'FIFO' <Latency = 0> <II = 1> <Delay = 3.63> <Storage> <Opcode : 'read' 'write' 'nbread' 'nbwrite'> <Ports = 0> <Width = 32> <Depth = 3> <FIFO>
ST_27 : Operation 225 [1/1] (0.00ns)   --->   "%empty_103 = call i32 (...)* @_ssdm_op_SpecRegionEnd([13 x i8]* @p_str178, i32 %tmp)" [firmware/nnet_utils/nnet_pooling_stream.h:518]   --->   Operation 225 'specregionend' 'empty_103' <Predicate = (icmp_ln512)> <Delay = 0.00>
ST_27 : Operation 226 [1/1] (0.00ns)   --->   "br label %.preheader" [firmware/nnet_utils/nnet_pooling_stream.h:500]   --->   Operation 226 'br' <Predicate = (icmp_ln512)> <Delay = 0.00>

State 28 <SV = 27> <Delay = 3.90>
ST_28 : Operation 227 [1/1] (0.00ns)   --->   "%zext_ln1494_2 = zext i8 %select_ln1494_2 to i128" [firmware/nnet_utils/nnet_pooling_stream.h:513]   --->   Operation 227 'zext' 'zext_ln1494_2' <Predicate = true> <Delay = 0.00>
ST_28 : Operation 228 [6/6] (3.90ns)   --->   "%lshr_ln1494 = lshr i128 %select_ln1494_1, %zext_ln1494_2" [firmware/nnet_utils/nnet_pooling_stream.h:513]   --->   Operation 228 'lshr' 'lshr_ln1494' <Predicate = true> <Delay = 3.90> <Core = "ShiftnS">   --->   Core 29 'ShiftnS' <Latency = 5> <II = 1> <Delay = 3.90> <FuncUnit> <Opcode : 'shl' 'lshr' 'ashr'> <InPorts = 2> <OutPorts = 1>

State 29 <SV = 28> <Delay = 3.90>
ST_29 : Operation 229 [5/6] (3.90ns)   --->   "%lshr_ln1494 = lshr i128 %select_ln1494_1, %zext_ln1494_2" [firmware/nnet_utils/nnet_pooling_stream.h:513]   --->   Operation 229 'lshr' 'lshr_ln1494' <Predicate = true> <Delay = 3.90> <Core = "ShiftnS">   --->   Core 29 'ShiftnS' <Latency = 5> <II = 1> <Delay = 3.90> <FuncUnit> <Opcode : 'shl' 'lshr' 'ashr'> <InPorts = 2> <OutPorts = 1>

State 30 <SV = 29> <Delay = 3.90>
ST_30 : Operation 230 [4/6] (3.90ns)   --->   "%lshr_ln1494 = lshr i128 %select_ln1494_1, %zext_ln1494_2" [firmware/nnet_utils/nnet_pooling_stream.h:513]   --->   Operation 230 'lshr' 'lshr_ln1494' <Predicate = true> <Delay = 3.90> <Core = "ShiftnS">   --->   Core 29 'ShiftnS' <Latency = 5> <II = 1> <Delay = 3.90> <FuncUnit> <Opcode : 'shl' 'lshr' 'ashr'> <InPorts = 2> <OutPorts = 1>

State 31 <SV = 30> <Delay = 3.90>
ST_31 : Operation 231 [3/6] (3.90ns)   --->   "%lshr_ln1494 = lshr i128 %select_ln1494_1, %zext_ln1494_2" [firmware/nnet_utils/nnet_pooling_stream.h:513]   --->   Operation 231 'lshr' 'lshr_ln1494' <Predicate = true> <Delay = 3.90> <Core = "ShiftnS">   --->   Core 29 'ShiftnS' <Latency = 5> <II = 1> <Delay = 3.90> <FuncUnit> <Opcode : 'shl' 'lshr' 'ashr'> <InPorts = 2> <OutPorts = 1>

State 32 <SV = 31> <Delay = 3.90>
ST_32 : Operation 232 [2/6] (3.90ns)   --->   "%lshr_ln1494 = lshr i128 %select_ln1494_1, %zext_ln1494_2" [firmware/nnet_utils/nnet_pooling_stream.h:513]   --->   Operation 232 'lshr' 'lshr_ln1494' <Predicate = true> <Delay = 3.90> <Core = "ShiftnS">   --->   Core 29 'ShiftnS' <Latency = 5> <II = 1> <Delay = 3.90> <FuncUnit> <Opcode : 'shl' 'lshr' 'ashr'> <InPorts = 2> <OutPorts = 1>

State 33 <SV = 32> <Delay = 3.90>
ST_33 : Operation 233 [1/6] (3.90ns)   --->   "%lshr_ln1494 = lshr i128 %select_ln1494_1, %zext_ln1494_2" [firmware/nnet_utils/nnet_pooling_stream.h:513]   --->   Operation 233 'lshr' 'lshr_ln1494' <Predicate = true> <Delay = 3.90> <Core = "ShiftnS">   --->   Core 29 'ShiftnS' <Latency = 5> <II = 1> <Delay = 3.90> <FuncUnit> <Opcode : 'shl' 'lshr' 'ashr'> <InPorts = 2> <OutPorts = 1>

State 34 <SV = 33> <Delay = 3.14>
ST_34 : Operation 234 [1/1] (0.00ns) (grouped into LUT with out node and_ln1494)   --->   "%zext_ln1494_3 = zext i8 %sub_ln1494_2 to i128" [firmware/nnet_utils/nnet_pooling_stream.h:513]   --->   Operation 234 'zext' 'zext_ln1494_3' <Predicate = true> <Delay = 0.00>
ST_34 : Operation 235 [1/1] (0.00ns) (grouped into LUT with out node and_ln1494)   --->   "%lshr_ln1494_1 = lshr i128 -1, %zext_ln1494_3" [firmware/nnet_utils/nnet_pooling_stream.h:513]   --->   Operation 235 'lshr' 'lshr_ln1494_1' <Predicate = true> <Delay = 0.00> <Core = "Shift">   --->   Core 28 'Shift' <Latency = 0> <II = 1> <Delay = 3.14> <FuncUnit> <Opcode : 'shl' 'lshr' 'ashr'> <InPorts = 2> <OutPorts = 1>
ST_34 : Operation 236 [1/1] (3.14ns) (out node of the LUT)   --->   "%and_ln1494 = and i128 %lshr_ln1494, %lshr_ln1494_1" [firmware/nnet_utils/nnet_pooling_stream.h:513]   --->   Operation 236 'and' 'and_ln1494' <Predicate = true> <Delay = 3.14> <Core = "LogicGate">   --->   Core 27 'LogicGate' <Latency = 0> <II = 1> <Delay = 1.03> <FuncUnit> <Opcode : 'and' 'or' 'xor'> <InPorts = 2> <OutPorts = 1>
ST_34 : Operation 237 [1/1] (0.00ns)   --->   "%trunc_ln1494 = trunc i128 %and_ln1494 to i32" [firmware/nnet_utils/nnet_pooling_stream.h:513]   --->   Operation 237 'trunc' 'trunc_ln1494' <Predicate = true> <Delay = 0.00>

State 35 <SV = 34> <Delay = 3.17>
ST_35 : Operation 238 [1/1] (2.47ns)   --->   "%icmp_ln1494 = icmp sgt i32 %trunc_ln1494, %tmp_V" [firmware/nnet_utils/nnet_pooling_stream.h:513]   --->   Operation 238 'icmp' 'icmp_ln1494' <Predicate = true> <Delay = 2.47> <Core = "Cmp">   --->   Core 25 'Cmp' <Latency = 0> <II = 1> <Delay = 2.47> <FuncUnit> <Opcode : 'icmp'> <InPorts = 2> <OutPorts = 1>
ST_35 : Operation 239 [1/1] (0.69ns)   --->   "%pool_res_V_1 = select i1 %icmp_ln1494, i32 %trunc_ln1494, i32 %tmp_V" [firmware/nnet_utils/nnet_pooling_stream.h:513]   --->   Operation 239 'select' 'pool_res_V_1' <Predicate = true> <Delay = 0.69> <Core = "Sel">   --->   Core 26 'Sel' <Latency = 0> <II = 1> <Delay = 0.69> <FuncUnit> <Opcode : 'select'> <InPorts = 3> <OutPorts = 1>
ST_35 : Operation 240 [1/1] (0.00ns)   --->   "br label %0" [firmware/nnet_utils/nnet_pooling_stream.h:512]   --->   Operation 240 'br' <Predicate = true> <Delay = 0.00>

State 36 <SV = 18> <Delay = 1.76>
ST_36 : Operation 241 [1/1] (1.76ns)   --->   "store i32 %select_ln537, i32* @sX, align 4" [firmware/nnet_utils/nnet_pooling_stream.h:537]   --->   Operation 241 'store' <Predicate = true> <Delay = 1.76>
ST_36 : Operation 242 [1/1] (0.00ns)   --->   "br label %6"   --->   Operation 242 'br' <Predicate = true> <Delay = 0.00>

State 37 <SV = 18> <Delay = 1.76>
ST_37 : Operation 243 [1/1] (1.76ns)   --->   "br label %4"   --->   Operation 243 'br' <Predicate = true> <Delay = 1.76>

State 38 <SV = 19> <Delay = 0.00>
ST_38 : Operation 244 [1/1] (0.00ns)   --->   "%storemerge = phi i32 [ %select_ln532, %3 ], [ 0, %2 ]" [firmware/nnet_utils/nnet_pooling_stream.h:532]   --->   Operation 244 'phi' 'storemerge' <Predicate = (icmp_ln522)> <Delay = 0.00>
ST_38 : Operation 245 [1/1] (0.00ns)   --->   "store i32 %storemerge, i32* @sY, align 4" [firmware/nnet_utils/nnet_pooling_stream.h:528]   --->   Operation 245 'store' <Predicate = (icmp_ln522)> <Delay = 0.00>
ST_38 : Operation 246 [1/1] (0.00ns)   --->   "br label %6" [firmware/nnet_utils/nnet_pooling_stream.h:534]   --->   Operation 246 'br' <Predicate = (icmp_ln522)> <Delay = 0.00>
ST_38 : Operation 247 [1/1] (0.00ns)   --->   "br label %.preheader57" [firmware/nnet_utils/nnet_pooling_stream.h:484]   --->   Operation 247 'br' <Predicate = true> <Delay = 0.00>


============================================================
+ Verbose Summary: Timing violations
============================================================
Target clock period: 5ns, clock uncertainty: 0.625ns.

 <State 1>: 1.77ns
The critical path consists of the following:
	multiplexor before 'phi' operation ('i_ih') with incoming values : ('i_ih', firmware/nnet_utils/nnet_pooling_stream.h:484) [31]  (1.77 ns)

 <State 2>: 2.19ns
The critical path consists of the following:
	fifo read on port 'data_V_V' (firmware/nnet_utils/nnet_pooling_stream.h:491) [37]  (2.19 ns)

 <State 3>: 2.19ns
The critical path consists of the following:
	fifo read on port 'data_V_V' (firmware/nnet_utils/nnet_pooling_stream.h:491) [38]  (2.19 ns)

 <State 4>: 2.19ns
The critical path consists of the following:
	fifo read on port 'data_V_V' (firmware/nnet_utils/nnet_pooling_stream.h:491) [39]  (2.19 ns)

 <State 5>: 2.19ns
The critical path consists of the following:
	fifo read on port 'data_V_V' (firmware/nnet_utils/nnet_pooling_stream.h:491) [40]  (2.19 ns)

 <State 6>: 2.19ns
The critical path consists of the following:
	fifo read on port 'data_V_V' (firmware/nnet_utils/nnet_pooling_stream.h:491) [41]  (2.19 ns)

 <State 7>: 2.19ns
The critical path consists of the following:
	fifo read on port 'data_V_V' (firmware/nnet_utils/nnet_pooling_stream.h:491) [42]  (2.19 ns)

 <State 8>: 2.19ns
The critical path consists of the following:
	fifo read on port 'data_V_V' (firmware/nnet_utils/nnet_pooling_stream.h:491) [43]  (2.19 ns)

 <State 9>: 2.19ns
The critical path consists of the following:
	fifo read on port 'data_V_V' (firmware/nnet_utils/nnet_pooling_stream.h:491) [44]  (2.19 ns)

 <State 10>: 2.19ns
The critical path consists of the following:
	fifo read on port 'data_V_V' (firmware/nnet_utils/nnet_pooling_stream.h:491) [45]  (2.19 ns)

 <State 11>: 2.19ns
The critical path consists of the following:
	fifo read on port 'data_V_V' (firmware/nnet_utils/nnet_pooling_stream.h:491) [46]  (2.19 ns)

 <State 12>: 2.19ns
The critical path consists of the following:
	fifo read on port 'data_V_V' (firmware/nnet_utils/nnet_pooling_stream.h:491) [47]  (2.19 ns)

 <State 13>: 2.19ns
The critical path consists of the following:
	fifo read on port 'data_V_V' (firmware/nnet_utils/nnet_pooling_stream.h:491) [48]  (2.19 ns)

 <State 14>: 2.19ns
The critical path consists of the following:
	fifo read on port 'data_V_V' (firmware/nnet_utils/nnet_pooling_stream.h:491) [49]  (2.19 ns)

 <State 15>: 2.19ns
The critical path consists of the following:
	fifo read on port 'data_V_V' (firmware/nnet_utils/nnet_pooling_stream.h:491) [50]  (2.19 ns)

 <State 16>: 2.19ns
The critical path consists of the following:
	fifo read on port 'data_V_V' (firmware/nnet_utils/nnet_pooling_stream.h:491) [51]  (2.19 ns)

 <State 17>: 3.81ns
The critical path consists of the following:
	fifo read on port 'data_V_V' (firmware/nnet_utils/nnet_pooling_stream.h:491) [52]  (2.19 ns)
	'call' operation ('call_ret', firmware/nnet_utils/nnet_pooling_stream.h:491) to 'cnnshift_arr<ap_fixed,ap_fixed<32,16,5,3,0>,config8>' [54]  (1.63 ns)

 <State 18>: 4.32ns
The critical path consists of the following:
	'add' operation ('add_ln535', firmware/nnet_utils/nnet_pooling_stream.h:535) [200]  (2.55 ns)
	'store' operation ('store_ln535', firmware/nnet_utils/nnet_pooling_stream.h:535) of variable 'add_ln535', firmware/nnet_utils/nnet_pooling_stream.h:535 on static variable 'pX' [201]  (1.77 ns)

 <State 19>: 4.17ns
The critical path consists of the following:
	'icmp' operation ('icmp_ln203_1', firmware/nnet_utils/nnet_pooling_stream.h:508) [102]  (1.77 ns)
	'select' operation ('select_ln203_4', firmware/nnet_utils/nnet_pooling_stream.h:508) [110]  (2.4 ns)

 <State 20>: 3.89ns
The critical path consists of the following:
	'lshr' operation ('lshr_ln203', firmware/nnet_utils/nnet_pooling_stream.h:508) [95]  (3.89 ns)

 <State 21>: 3.89ns
The critical path consists of the following:
	'lshr' operation ('lshr_ln203', firmware/nnet_utils/nnet_pooling_stream.h:508) [95]  (3.89 ns)

 <State 22>: 3.89ns
The critical path consists of the following:
	'lshr' operation ('lshr_ln203', firmware/nnet_utils/nnet_pooling_stream.h:508) [95]  (3.89 ns)

 <State 23>: 3.89ns
The critical path consists of the following:
	'lshr' operation ('lshr_ln203', firmware/nnet_utils/nnet_pooling_stream.h:508) [95]  (3.89 ns)

 <State 24>: 3.89ns
The critical path consists of the following:
	'lshr' operation ('lshr_ln203', firmware/nnet_utils/nnet_pooling_stream.h:508) [95]  (3.89 ns)

 <State 25>: 3.89ns
The critical path consists of the following:
	'lshr' operation ('lshr_ln203_2', firmware/nnet_utils/nnet_pooling_stream.h:508) [115]  (3.89 ns)

 <State 26>: 3.57ns
The critical path consists of the following:
	'lshr' operation ('lshr_ln203_3', firmware/nnet_utils/nnet_pooling_stream.h:508) [116]  (0 ns)
	'and' operation ('and_ln203_1', firmware/nnet_utils/nnet_pooling_stream.h:508) [117]  (3.57 ns)

 <State 27>: 3.79ns
The critical path consists of the following:
	'phi' operation ('i') with incoming values : ('i', firmware/nnet_utils/nnet_pooling_stream.h:512) [161]  (0 ns)
	'sub' operation ('sub_ln1494_1', firmware/nnet_utils/nnet_pooling_stream.h:513) [175]  (1.87 ns)
	'select' operation ('select_ln1494', firmware/nnet_utils/nnet_pooling_stream.h:513) [176]  (0 ns)
	'sub' operation ('sub_ln1494_2', firmware/nnet_utils/nnet_pooling_stream.h:513) [179]  (1.92 ns)

 <State 28>: 3.9ns
The critical path consists of the following:
	'lshr' operation ('lshr_ln1494', firmware/nnet_utils/nnet_pooling_stream.h:513) [182]  (3.9 ns)

 <State 29>: 3.9ns
The critical path consists of the following:
	'lshr' operation ('lshr_ln1494', firmware/nnet_utils/nnet_pooling_stream.h:513) [182]  (3.9 ns)

 <State 30>: 3.9ns
The critical path consists of the following:
	'lshr' operation ('lshr_ln1494', firmware/nnet_utils/nnet_pooling_stream.h:513) [182]  (3.9 ns)

 <State 31>: 3.9ns
The critical path consists of the following:
	'lshr' operation ('lshr_ln1494', firmware/nnet_utils/nnet_pooling_stream.h:513) [182]  (3.9 ns)

 <State 32>: 3.9ns
The critical path consists of the following:
	'lshr' operation ('lshr_ln1494', firmware/nnet_utils/nnet_pooling_stream.h:513) [182]  (3.9 ns)

 <State 33>: 3.9ns
The critical path consists of the following:
	'lshr' operation ('lshr_ln1494', firmware/nnet_utils/nnet_pooling_stream.h:513) [182]  (3.9 ns)

 <State 34>: 3.15ns
The critical path consists of the following:
	'lshr' operation ('lshr_ln1494_1', firmware/nnet_utils/nnet_pooling_stream.h:513) [183]  (0 ns)
	'and' operation ('and_ln1494', firmware/nnet_utils/nnet_pooling_stream.h:513) [184]  (3.15 ns)

 <State 35>: 3.17ns
The critical path consists of the following:
	'icmp' operation ('icmp_ln1494', firmware/nnet_utils/nnet_pooling_stream.h:513) [186]  (2.47 ns)
	'select' operation ('pool_res.V', firmware/nnet_utils/nnet_pooling_stream.h:513) [187]  (0.698 ns)

 <State 36>: 1.77ns
The critical path consists of the following:
	'store' operation ('store_ln537', firmware/nnet_utils/nnet_pooling_stream.h:537) of variable 'select_ln537', firmware/nnet_utils/nnet_pooling_stream.h:537 on static variable 'sX' [204]  (1.77 ns)

 <State 37>: 1.77ns
The critical path consists of the following:
	multiplexor before 'phi' operation ('storemerge', firmware/nnet_utils/nnet_pooling_stream.h:532) with incoming values : ('select_ln532', firmware/nnet_utils/nnet_pooling_stream.h:532) [221]  (1.77 ns)

 <State 38>: 0ns
The critical path consists of the following:


============================================================
+ Verbose Summary: Binding
============================================================
N/A
* FSMD analyzer results:
  - Output states:
 - Input state : 
  - Chain level:
	State 1
	State 2
	State 3
	State 4
	State 5
	State 6
	State 7
	State 8
	State 9
	State 10
	State 11
	State 12
	State 13
	State 14
	State 15
	State 16
	State 17
	State 18
	State 19
	State 20
	State 21
	State 22
	State 23
	State 24
	State 25
	State 26
	State 27
	State 28
	State 29
	State 30
	State 31
	State 32
	State 33
	State 34
	State 35
	State 36
	State 37
	State 38


============================================================
+ Verbose Summary: Datapath Resource usage 
============================================================
N/A
