

================================================================
== Vivado HLS Report for 'product_dense_ap_fixed_ap_fixed_ap_fixed_s'
================================================================
* Date:           Wed Mar 30 22:13:02 2022

* Version:        2019.2 (Build 2704478 on Wed Nov 06 22:10:23 MST 2019)
* Project:        myproject_prj
* Solution:       solution1
* Product family: zynq
* Target device:  xc7z020-clg400-1


================================================================
== Performance Estimates
================================================================
+ Timing: 
    * Summary: 
    +--------+---------+----------+------------+
    |  Clock |  Target | Estimated| Uncertainty|
    +--------+---------+----------+------------+
    |ap_clk  | 5.00 ns | 3.950 ns |   0.62 ns  |
    +--------+---------+----------+------------+

+ Latency: 
    * Summary: 
    +---------+---------+-----------+-----------+-----+-----+---------+
    |  Latency (cycles) |   Latency (absolute)  |  Interval | Pipeline|
    |   min   |   max   |    min    |    max    | min | max |   Type  |
    +---------+---------+-----------+-----------+-----+-----+---------+
    |        4|        4| 20.000 ns | 20.000 ns |    4|    4|   none  |
    +---------+---------+-----------+-----------+-----+-----+---------+

    + Detail: 
        * Instance: 
        N/A

        * Loop: 
        N/A



================================================================
== Utilization Estimates
================================================================
* Summary: 
+-----------------+---------+-------+--------+-------+-----+
|       Name      | BRAM_18K| DSP48E|   FF   |  LUT  | URAM|
+-----------------+---------+-------+--------+-------+-----+
|DSP              |        -|      -|       -|      -|    -|
|Expression       |        -|      -|       -|      -|    -|
|FIFO             |        -|      -|       -|      -|    -|
|Instance         |        -|      4|     215|      1|    -|
|Memory           |        -|      -|       -|      -|    -|
|Multiplexer      |        -|      -|       -|     42|    -|
|Register         |        -|      -|      37|      -|    -|
+-----------------+---------+-------+--------+-------+-----+
|Total            |        0|      4|     252|     43|    0|
+-----------------+---------+-------+--------+-------+-----+
|Available        |      280|    220|  106400|  53200|    0|
+-----------------+---------+-------+--------+-------+-----+
|Utilization (%)  |        0|      1|   ~0   |   ~0  |    0|
+-----------------+---------+-------+--------+-------+-----+

+ Detail: 
    * Instance: 
    +--------------------------------------+----------------------------------+---------+-------+-----+----+-----+
    |               Instance               |              Module              | BRAM_18K| DSP48E|  FF | LUT| URAM|
    +--------------------------------------+----------------------------------+---------+-------+-----+----+-----+
    |myproject_axi_mul_32s_32s_48_5_1_U14  |myproject_axi_mul_32s_32s_48_5_1  |        0|      4|  215|   1|    0|
    +--------------------------------------+----------------------------------+---------+-------+-----+----+-----+
    |Total                                 |                                  |        0|      4|  215|   1|    0|
    +--------------------------------------+----------------------------------+---------+-------+-----+----+-----+

    * DSP48E: 
    N/A

    * Memory: 
    N/A

    * FIFO: 
    N/A

    * Expression: 
    N/A

    * Multiplexer: 
    +-----------+----+-----------+-----+-----------+
    |    Name   | LUT| Input Size| Bits| Total Bits|
    +-----------+----+-----------+-----+-----------+
    |ap_NS_fsm  |  33|          6|    1|          6|
    |ap_return  |   9|          2|   32|         64|
    +-----------+----+-----------+-----+-----------+
    |Total      |  42|          8|   33|         70|
    +-----------+----+-----------+-----+-----------+

    * Register: 
    +----------------+----+----+-----+-----------+
    |      Name      | FF | LUT| Bits| Const Bits|
    +----------------+----+----+-----+-----------+
    |ap_CS_fsm       |   5|   0|    5|          0|
    |ap_return_preg  |  32|   0|   32|          0|
    +----------------+----+----+-----+-----------+
    |Total           |  37|   0|   37|          0|
    +----------------+----+----+-----+-----------+



================================================================
== Interface
================================================================
* Summary: 
+-----------+-----+-----+------------+--------------------------------------------+--------------+
| RTL Ports | Dir | Bits|  Protocol  |                Source Object               |    C Type    |
+-----------+-----+-----+------------+--------------------------------------------+--------------+
|ap_clk     |  in |    1| ap_ctrl_hs | product_dense<ap_fixed,ap_fixed,ap_fixed > | return value |
|ap_rst     |  in |    1| ap_ctrl_hs | product_dense<ap_fixed,ap_fixed,ap_fixed > | return value |
|ap_start   |  in |    1| ap_ctrl_hs | product_dense<ap_fixed,ap_fixed,ap_fixed > | return value |
|ap_done    | out |    1| ap_ctrl_hs | product_dense<ap_fixed,ap_fixed,ap_fixed > | return value |
|ap_idle    | out |    1| ap_ctrl_hs | product_dense<ap_fixed,ap_fixed,ap_fixed > | return value |
|ap_ready   | out |    1| ap_ctrl_hs | product_dense<ap_fixed,ap_fixed,ap_fixed > | return value |
|ap_return  | out |   32| ap_ctrl_hs | product_dense<ap_fixed,ap_fixed,ap_fixed > | return value |
|a_V        |  in |   32|   ap_none  |                     a_V                    |    scalar    |
|w_V        |  in |   32|   ap_none  |                     w_V                    |    scalar    |
+-----------+-----+-----+------------+--------------------------------------------+--------------+

============================================================
+ Verbose Summary: Synthesis Manager
============================================================
InlineROM: 1
ExposeGlobal: 0
============================================================
+ Verbose Summary: CDFG Model
============================================================
IsTopModel: 0
ResetActiveHigh: 1
IsCombinational: 2
IsDatapathOnly: 2
HasWiredReturn: 1
HasMFsm: 0
HasVarLatency: 1
IsPipeline: 0
IsRtlPipelined: 0
IsInstanceOverlapped: 0
IsDontTouch: 0
HasImplIP: 0
IsGatedGlobalClock: 0


============================================================
+ Verbose Summary: Schedule
============================================================
* Number of FSM states : 5
* Pipeline : 0
* Dataflow Pipeline: 0

* FSM state transitions: 
1 --> 2 
2 --> 3 
3 --> 4 
4 --> 5 
5 --> 

* FSM state operations: 

State 1 <SV = 0> <Delay = 3.95>
ST_1 : Operation 6 [1/1] (0.00ns)   --->   "%w_V_read = call i32 @_ssdm_op_Read.ap_auto.i32(i32 %w_V)" [firmware/nnet_utils/nnet_dense_resource.h:290]   --->   Operation 6 'read' 'w_V_read' <Predicate = true> <Delay = 0.00>
ST_1 : Operation 7 [1/1] (0.00ns)   --->   "%a_V_read = call i32 @_ssdm_op_Read.ap_auto.i32(i32 %a_V)" [firmware/nnet_utils/nnet_dense_resource.h:290]   --->   Operation 7 'read' 'a_V_read' <Predicate = true> <Delay = 0.00>
ST_1 : Operation 8 [1/1] (0.00ns)   --->   "%sext_ln1116 = sext i32 %a_V_read to i48" [firmware/nnet_utils/nnet_dense_resource.h:290]   --->   Operation 8 'sext' 'sext_ln1116' <Predicate = true> <Delay = 0.00>
ST_1 : Operation 9 [1/1] (0.00ns)   --->   "%sext_ln1118 = sext i32 %w_V_read to i48" [firmware/nnet_utils/nnet_dense_resource.h:290]   --->   Operation 9 'sext' 'sext_ln1118' <Predicate = true> <Delay = 0.00>
ST_1 : Operation 10 [5/5] (3.95ns)   --->   "%r_V = mul i48 %sext_ln1118, %sext_ln1116" [firmware/nnet_utils/nnet_dense_resource.h:290]   --->   Operation 10 'mul' 'r_V' <Predicate = true> <Delay = 3.95> <Core = "MulnS">   --->   Core 17 'MulnS' <Latency = 4> <II = 1> <Delay = 3.95> <FuncUnit> <Opcode : 'mul'> <InPorts = 2> <OutPorts = 1>

State 2 <SV = 1> <Delay = 3.95>
ST_2 : Operation 11 [4/5] (3.95ns)   --->   "%r_V = mul i48 %sext_ln1118, %sext_ln1116" [firmware/nnet_utils/nnet_dense_resource.h:290]   --->   Operation 11 'mul' 'r_V' <Predicate = true> <Delay = 3.95> <Core = "MulnS">   --->   Core 17 'MulnS' <Latency = 4> <II = 1> <Delay = 3.95> <FuncUnit> <Opcode : 'mul'> <InPorts = 2> <OutPorts = 1>

State 3 <SV = 2> <Delay = 3.95>
ST_3 : Operation 12 [3/5] (3.95ns)   --->   "%r_V = mul i48 %sext_ln1118, %sext_ln1116" [firmware/nnet_utils/nnet_dense_resource.h:290]   --->   Operation 12 'mul' 'r_V' <Predicate = true> <Delay = 3.95> <Core = "MulnS">   --->   Core 17 'MulnS' <Latency = 4> <II = 1> <Delay = 3.95> <FuncUnit> <Opcode : 'mul'> <InPorts = 2> <OutPorts = 1>

State 4 <SV = 3> <Delay = 3.95>
ST_4 : Operation 13 [2/5] (3.95ns)   --->   "%r_V = mul i48 %sext_ln1118, %sext_ln1116" [firmware/nnet_utils/nnet_dense_resource.h:290]   --->   Operation 13 'mul' 'r_V' <Predicate = true> <Delay = 3.95> <Core = "MulnS">   --->   Core 17 'MulnS' <Latency = 4> <II = 1> <Delay = 3.95> <FuncUnit> <Opcode : 'mul'> <InPorts = 2> <OutPorts = 1>

State 5 <SV = 4> <Delay = 3.95>
ST_5 : Operation 14 [1/5] (3.95ns)   --->   "%r_V = mul i48 %sext_ln1118, %sext_ln1116" [firmware/nnet_utils/nnet_dense_resource.h:290]   --->   Operation 14 'mul' 'r_V' <Predicate = true> <Delay = 3.95> <Core = "MulnS">   --->   Core 17 'MulnS' <Latency = 4> <II = 1> <Delay = 3.95> <FuncUnit> <Opcode : 'mul'> <InPorts = 2> <OutPorts = 1>
ST_5 : Operation 15 [1/1] (0.00ns)   --->   "%trunc_ln = call i32 @_ssdm_op_PartSelect.i32.i48.i32.i32(i48 %r_V, i32 16, i32 47)" [firmware/nnet_utils/nnet_dense_resource.h:290]   --->   Operation 15 'partselect' 'trunc_ln' <Predicate = true> <Delay = 0.00>
ST_5 : Operation 16 [1/1] (0.00ns)   --->   "ret i32 %trunc_ln" [firmware/nnet_utils/nnet_dense_resource.h:290]   --->   Operation 16 'ret' <Predicate = true> <Delay = 0.00>


============================================================
+ Verbose Summary: Binding
============================================================
STG Binding: 
---------------- STG Properties BEGIN ----------------
- Is combinational: 0
- Is one-state seq: 0
- Is datapath-only: 0
- Is pipelined: 0
- Is top level: 0
Port [ Return ] is wired: 1; IO mode=ap_ctrl_hs:ce=0
Port [ a_V]:  wired=1; compound=0; hidden=0; nouse=0; global=0; static=0; extern=0; dir=0; type=0; pingpong=0; private_global=0; IO mode=ap_none:ce=0
Port [ w_V]:  wired=1; compound=0; hidden=0; nouse=0; global=0; static=0; extern=0; dir=0; type=0; pingpong=0; private_global=0; IO mode=ap_none:ce=0
---------------- STG Properties END ------------------

---------------- Datapath Model BEGIN ----------------

<LifeTime>
<method=bitvector/>
w_V_read    (read      ) [ 000000]
a_V_read    (read      ) [ 000000]
sext_ln1116 (sext      ) [ 001111]
sext_ln1118 (sext      ) [ 001111]
r_V         (mul       ) [ 000000]
trunc_ln    (partselect) [ 000000]
ret_ln290   (ret       ) [ 000000]
</LifeTime>

<model>

<comp_list>
<comp id="0" class="1000" name="a_V">
<pin_list>
<pin id="1" dir="1" index="0" bw="1" slack="0"/>
</pin_list>
<bind>
<StgValue><ssdm name="a_V"/></StgValue>
</bind>
</comp>

<comp id="2" class="1000" name="w_V">
<pin_list>
<pin id="3" dir="1" index="0" bw="1" slack="0"/>
</pin_list>
<bind>
<StgValue><ssdm name="w_V"/></StgValue>
</bind>
</comp>

<comp id="4" class="1001" name="const_4">
<pin_list>
<pin id="5" dir="1" index="0" bw="1" slack="0"/>
</pin_list>
<bind>
<StgValue><ssdm name="_ssdm_op_Read.ap_auto.i32"/></StgValue>
</bind>
</comp>

<comp id="6" class="1001" name="const_6">
<pin_list>
<pin id="7" dir="1" index="0" bw="1" slack="0"/>
</pin_list>
<bind>
<StgValue><ssdm name="_ssdm_op_PartSelect.i32.i48.i32.i32"/></StgValue>
</bind>
</comp>

<comp id="8" class="1001" name="const_8">
<pin_list>
<pin id="9" dir="1" index="0" bw="1" slack="0"/>
</pin_list>
<bind>
<StgValue><ssdm name=""/></StgValue>
</bind>
</comp>

<comp id="10" class="1001" name="const_10">
<pin_list>
<pin id="11" dir="1" index="0" bw="1" slack="0"/>
</pin_list>
<bind>
<StgValue><ssdm name=""/></StgValue>
</bind>
</comp>

<comp id="12" class="1004" name="w_V_read_read_fu_12">
<pin_list>
<pin id="13" dir="0" index="0" bw="32" slack="0"/>
<pin id="14" dir="0" index="1" bw="32" slack="0"/>
<pin id="15" dir="1" index="2" bw="32" slack="0"/>
</pin_list>
<bind>
<opcode="read(1150) " fcode="read"/>
<opset="w_V_read/1 "/>
</bind>
</comp>

<comp id="18" class="1004" name="a_V_read_read_fu_18">
<pin_list>
<pin id="19" dir="0" index="0" bw="32" slack="0"/>
<pin id="20" dir="0" index="1" bw="32" slack="0"/>
<pin id="21" dir="1" index="2" bw="32" slack="0"/>
</pin_list>
<bind>
<opcode="read(1150) " fcode="read"/>
<opset="a_V_read/1 "/>
</bind>
</comp>

<comp id="24" class="1004" name="sext_ln1116_fu_24">
<pin_list>
<pin id="25" dir="0" index="0" bw="32" slack="0"/>
<pin id="26" dir="1" index="1" bw="48" slack="0"/>
</pin_list>
<bind>
<opcode="sext(35) " fcode="sext"/>
<opset="sext_ln1116/1 "/>
</bind>
</comp>

<comp id="28" class="1004" name="sext_ln1118_fu_28">
<pin_list>
<pin id="29" dir="0" index="0" bw="32" slack="0"/>
<pin id="30" dir="1" index="1" bw="48" slack="0"/>
</pin_list>
<bind>
<opcode="sext(35) " fcode="sext"/>
<opset="sext_ln1118/1 "/>
</bind>
</comp>

<comp id="32" class="1004" name="grp_fu_32">
<pin_list>
<pin id="33" dir="0" index="0" bw="32" slack="0"/>
<pin id="34" dir="0" index="1" bw="32" slack="0"/>
<pin id="35" dir="1" index="2" bw="48" slack="0"/>
</pin_list>
<bind>
<opcode="mul(12) " fcode="mul"/>
<opset="r_V/1 "/>
</bind>
</comp>

<comp id="38" class="1004" name="trunc_ln_fu_38">
<pin_list>
<pin id="39" dir="0" index="0" bw="32" slack="0"/>
<pin id="40" dir="0" index="1" bw="48" slack="0"/>
<pin id="41" dir="0" index="2" bw="6" slack="0"/>
<pin id="42" dir="0" index="3" bw="7" slack="0"/>
<pin id="43" dir="1" index="4" bw="32" slack="2147483647"/>
</pin_list>
<bind>
<opcode="partselect(1002) " fcode="partselect"/>
<opset="trunc_ln/5 "/>
</bind>
</comp>

<comp id="48" class="1005" name="sext_ln1116_reg_48">
<pin_list>
<pin id="49" dir="0" index="0" bw="48" slack="1"/>
<pin id="50" dir="1" index="1" bw="48" slack="1"/>
</pin_list>
<bind>
<opset="sext_ln1116 "/>
</bind>
</comp>

<comp id="53" class="1005" name="sext_ln1118_reg_53">
<pin_list>
<pin id="54" dir="0" index="0" bw="48" slack="1"/>
<pin id="55" dir="1" index="1" bw="48" slack="1"/>
</pin_list>
<bind>
<opset="sext_ln1118 "/>
</bind>
</comp>

</comp_list>

<net_list>
<net id="16"><net_src comp="4" pin="0"/><net_sink comp="12" pin=0"/></net>

<net id="17"><net_src comp="2" pin="0"/><net_sink comp="12" pin=1"/></net>

<net id="22"><net_src comp="4" pin="0"/><net_sink comp="18" pin=0"/></net>

<net id="23"><net_src comp="0" pin="0"/><net_sink comp="18" pin=1"/></net>

<net id="27"><net_src comp="18" pin="2"/><net_sink comp="24" pin=0"/></net>

<net id="31"><net_src comp="12" pin="2"/><net_sink comp="28" pin=0"/></net>

<net id="36"><net_src comp="28" pin="1"/><net_sink comp="32" pin=0"/></net>

<net id="37"><net_src comp="24" pin="1"/><net_sink comp="32" pin=1"/></net>

<net id="44"><net_src comp="6" pin="0"/><net_sink comp="38" pin=0"/></net>

<net id="45"><net_src comp="32" pin="2"/><net_sink comp="38" pin=1"/></net>

<net id="46"><net_src comp="8" pin="0"/><net_sink comp="38" pin=2"/></net>

<net id="47"><net_src comp="10" pin="0"/><net_sink comp="38" pin=3"/></net>

<net id="51"><net_src comp="24" pin="1"/><net_sink comp="48" pin=0"/></net>

<net id="52"><net_src comp="48" pin="1"/><net_sink comp="32" pin=1"/></net>

<net id="56"><net_src comp="28" pin="1"/><net_sink comp="53" pin=0"/></net>

<net id="57"><net_src comp="53" pin="1"/><net_sink comp="32" pin=0"/></net>

</net_list>

</model> 
---------------- Datapath Model END ------------------

* FSMD analyzer results:
  - Output states:
 - Input state : 
	Port: product_dense<ap_fixed,ap_fixed,ap_fixed > : a_V | {1 }
	Port: product_dense<ap_fixed,ap_fixed,ap_fixed > : w_V | {1 }
  - Chain level:
	State 1
		r_V : 1
	State 2
	State 3
	State 4
	State 5
		trunc_ln : 1
		ret_ln290 : 2


============================================================
+ Verbose Summary: Datapath Resource usage 
============================================================

* Functional unit list:
|----------|---------------------|---------|---------|---------|
| Operation|   Functional Unit   |  DSP48E |    FF   |   LUT   |
|----------|---------------------|---------|---------|---------|
|    mul   |      grp_fu_32      |    4    |   215   |    1    |
|----------|---------------------|---------|---------|---------|
|   read   | w_V_read_read_fu_12 |    0    |    0    |    0    |
|          | a_V_read_read_fu_18 |    0    |    0    |    0    |
|----------|---------------------|---------|---------|---------|
|   sext   |  sext_ln1116_fu_24  |    0    |    0    |    0    |
|          |  sext_ln1118_fu_28  |    0    |    0    |    0    |
|----------|---------------------|---------|---------|---------|
|partselect|    trunc_ln_fu_38   |    0    |    0    |    0    |
|----------|---------------------|---------|---------|---------|
|   Total  |                     |    4    |   215   |    1    |
|----------|---------------------|---------|---------|---------|

Memories:
N/A

* Register list:
+------------------+--------+
|                  |   FF   |
+------------------+--------+
|sext_ln1116_reg_48|   48   |
|sext_ln1118_reg_53|   48   |
+------------------+--------+
|       Total      |   96   |
+------------------+--------+

* Multiplexer (MUX) list: 
|-----------|------|------|------|--------||---------||---------|
|    Comp   |  Pin | Size |  BW  | S x BW ||  Delay  ||   LUT   |
|-----------|------|------|------|--------||---------||---------|
| grp_fu_32 |  p0  |   2  |  32  |   64   ||    9    |
| grp_fu_32 |  p1  |   2  |  32  |   64   ||    9    |
|-----------|------|------|------|--------||---------||---------|
|   Total   |      |      |      |   128  ||  3.538  ||    18   |
|-----------|------|------|------|--------||---------||---------|



* Summary:
+-----------+--------+--------+--------+--------+
|           | DSP48E |  Delay |   FF   |   LUT  |
+-----------+--------+--------+--------+--------+
|  Function |    4   |    -   |   215  |    1   |
|   Memory  |    -   |    -   |    -   |    -   |
|Multiplexer|    -   |    3   |    -   |   18   |
|  Register |    -   |    -   |   96   |    -   |
+-----------+--------+--------+--------+--------+
|   Total   |    4   |    3   |   311  |   19   |
+-----------+--------+--------+--------+--------+
