

================================================================
== Vivado HLS Report for 'resize_nearest_me_ap_fixed_32_16_5_3_0_config2_s'
================================================================
* Date:           Wed Mar 30 21:21:36 2022

* Version:        2019.2 (Build 2704478 on Wed Nov 06 22:10:23 MST 2019)
* Project:        myproject_prj
* Solution:       solution1
* Product family: zynq
* Target device:  xc7z020-clg400-1


================================================================
== Performance Estimates
================================================================
+ Timing: 
    * Summary: 
    +--------+---------+----------+------------+
    |  Clock |  Target | Estimated| Uncertainty|
    +--------+---------+----------+------------+
    |ap_clk  | 5.00 ns | 4.375 ns |   0.62 ns  |
    +--------+---------+----------+------------+

+ Latency: 
    * Summary: 
    +---------+---------+-----------+-----------+-------+-------+---------+
    |  Latency (cycles) |   Latency (absolute)  |    Interval   | Pipeline|
    |   min   |   max   |    min    |    max    |  min  |  max  |   Type  |
    +---------+---------+-----------+-----------+-------+-------+---------+
    |    12322|    12322| 61.610 us | 61.610 us |  12322|  12322|   none  |
    +---------+---------+-----------+-----------+-------+-------+---------+

    + Detail: 
        * Instance: 
        N/A

        * Loop: 
        +---------------+---------+---------+----------+-----------+-----------+------+----------+
        |               |  Latency (cycles) | Iteration|  Initiation Interval  | Trip |          |
        |   Loop Name   |   min   |   max   |  Latency |  achieved |   target  | Count| Pipelined|
        +---------------+---------+---------+----------+-----------+-----------+------+----------+
        |- ResizeImage  |    12320|    12320|        21|         20|          5|   616|    yes   |
        +---------------+---------+---------+----------+-----------+-----------+------+----------+

============================================================
+ Verbose Summary: Synthesis Manager
============================================================
InlineROM: 1
ExposeGlobal: 0
============================================================
+ Verbose Summary: CDFG Model
============================================================
IsTopModel: 0
ResetActiveHigh: 1
IsCombinational: 2
IsDatapathOnly: 0
HasWiredReturn: 1
HasMFsm: 0
HasVarLatency: 1
IsPipeline: 0
IsRtlPipelined: 0
IsInstanceOverlapped: 0
IsDontTouch: 0
HasImplIP: 0
IsGatedGlobalClock: 0

+ Individual pipeline summary: 
  * Pipeline-0: initiation interval (II) = 20, depth = 21


============================================================
+ Verbose Summary: Schedule
============================================================
* Number of FSM states : 23
* Pipeline : 1
  Pipeline-0 : II = 20, D = 21, States = { 2 3 4 5 6 7 8 9 10 11 12 13 14 15 16 17 18 19 20 21 22 }
* Dataflow Pipeline: 0

* FSM state transitions: 
1 --> 2 
2 --> 23 3 
3 --> 4 
4 --> 5 
5 --> 6 
6 --> 7 
7 --> 8 
8 --> 9 
9 --> 10 
10 --> 11 
11 --> 12 
12 --> 13 
13 --> 14 
14 --> 15 
15 --> 16 
16 --> 17 
17 --> 18 
18 --> 19 
19 --> 20 
20 --> 21 
21 --> 22 
22 --> 2 
23 --> 

* FSM state operations: 

State 1 <SV = 0> <Delay = 1.76>
ST_1 : Operation 24 [1/1] (0.00ns)   --->   "call void (...)* @_ssdm_op_SpecInterface(i32* %resized_V_V, [8 x i8]* @ap_fifo_str, i32 0, i32 0, [1 x i8]* @p_str, i32 0, i32 0, [1 x i8]* @p_str, [1 x i8]* @p_str, [1 x i8]* @p_str, i32 2, i32 2, i32 16, i32 16, [1 x i8]* @p_str, [1 x i8]* @p_str)"   --->   Operation 24 'specinterface' <Predicate = true> <Delay = 0.00>
ST_1 : Operation 25 [1/1] (0.00ns)   --->   "call void (...)* @_ssdm_op_SpecInterface(i32* %image_V_V, [8 x i8]* @ap_fifo_str, i32 0, i32 0, [1 x i8]* @p_str, i32 0, i32 0, [1 x i8]* @p_str, [1 x i8]* @p_str, [1 x i8]* @p_str, i32 2, i32 2, i32 16, i32 16, [1 x i8]* @p_str, [1 x i8]* @p_str)"   --->   Operation 25 'specinterface' <Predicate = true> <Delay = 0.00>
ST_1 : Operation 26 [1/1] (1.76ns)   --->   "br label %.preheader17" [firmware/nnet_utils/nnet_image_stream.h:20]   --->   Operation 26 'br' <Predicate = true> <Delay = 1.76>

State 2 <SV = 1> <Delay = 1.77>
ST_2 : Operation 27 [1/1] (0.00ns)   --->   "%i_0 = phi i10 [ %i, %ResizeImage ], [ 0, %.preheader17.preheader ]"   --->   Operation 27 'phi' 'i_0' <Predicate = true> <Delay = 0.00>
ST_2 : Operation 28 [1/1] (1.77ns)   --->   "%icmp_ln20 = icmp eq i10 %i_0, -408" [firmware/nnet_utils/nnet_image_stream.h:20]   --->   Operation 28 'icmp' 'icmp_ln20' <Predicate = true> <Delay = 1.77> <Core = "Cmp">   --->   Core 25 'Cmp' <Latency = 0> <II = 1> <Delay = 1.77> <FuncUnit> <Opcode : 'icmp'> <InPorts = 2> <OutPorts = 1>
ST_2 : Operation 29 [1/1] (0.00ns)   --->   "%empty = call i32 (...)* @_ssdm_op_SpecLoopTripCount(i64 616, i64 616, i64 616)"   --->   Operation 29 'speclooptripcount' 'empty' <Predicate = true> <Delay = 0.00>
ST_2 : Operation 30 [1/1] (1.73ns)   --->   "%i = add i10 %i_0, 1" [firmware/nnet_utils/nnet_image_stream.h:20]   --->   Operation 30 'add' 'i' <Predicate = true> <Delay = 1.73> <Core = "AddSub">   --->   Core 14 'AddSub' <Latency = 0> <II = 1> <Delay = 1.73> <FuncUnit> <Opcode : 'add' 'sub'> <InPorts = 2> <OutPorts = 1>
ST_2 : Operation 31 [1/1] (0.00ns)   --->   "br i1 %icmp_ln20, label %0, label %ResizeImage" [firmware/nnet_utils/nnet_image_stream.h:20]   --->   Operation 31 'br' <Predicate = true> <Delay = 0.00>

State 3 <SV = 2> <Delay = 4.37>
ST_3 : Operation 32 [1/1] (2.18ns)   --->   "%tmp_V_716 = call i32 @_ssdm_op_Read.ap_fifo.volatile.i32P(i32* %image_V_V)" [firmware/nnet_utils/nnet_image_stream.h:24]   --->   Operation 32 'read' 'tmp_V_716' <Predicate = (!icmp_ln20)> <Delay = 2.18> <Core = "FIFO">   --->   Core 32 'FIFO' <Latency = 0> <II = 1> <Delay = 3.63> <Storage> <Opcode : 'read' 'write' 'nbread' 'nbwrite'> <Ports = 0> <Width = 32> <Depth = 3> <FIFO>
ST_3 : Operation 33 [1/1] (2.18ns)   --->   "call void @_ssdm_op_Write.ap_fifo.volatile.i32P(i32* %resized_V_V, i32 %tmp_V_716)" [firmware/nnet_utils/nnet_image_stream.h:36]   --->   Operation 33 'write' <Predicate = (!icmp_ln20)> <Delay = 2.18> <Core = "FIFO">   --->   Core 32 'FIFO' <Latency = 0> <II = 1> <Delay = 3.63> <Storage> <Opcode : 'read' 'write' 'nbread' 'nbwrite'> <Ports = 0> <Width = 32> <Depth = 3> <FIFO>

State 4 <SV = 3> <Delay = 4.37>
ST_4 : Operation 34 [1/1] (2.18ns)   --->   "%tmp_V_717 = call i32 @_ssdm_op_Read.ap_fifo.volatile.i32P(i32* %image_V_V)" [firmware/nnet_utils/nnet_image_stream.h:24]   --->   Operation 34 'read' 'tmp_V_717' <Predicate = (!icmp_ln20)> <Delay = 2.18> <Core = "FIFO">   --->   Core 32 'FIFO' <Latency = 0> <II = 1> <Delay = 3.63> <Storage> <Opcode : 'read' 'write' 'nbread' 'nbwrite'> <Ports = 0> <Width = 32> <Depth = 3> <FIFO>
ST_4 : Operation 35 [1/1] (2.18ns)   --->   "call void @_ssdm_op_Write.ap_fifo.volatile.i32P(i32* %resized_V_V, i32 %tmp_V_717)" [firmware/nnet_utils/nnet_image_stream.h:36]   --->   Operation 35 'write' <Predicate = (!icmp_ln20)> <Delay = 2.18> <Core = "FIFO">   --->   Core 32 'FIFO' <Latency = 0> <II = 1> <Delay = 3.63> <Storage> <Opcode : 'read' 'write' 'nbread' 'nbwrite'> <Ports = 0> <Width = 32> <Depth = 3> <FIFO>

State 5 <SV = 4> <Delay = 4.37>
ST_5 : Operation 36 [1/1] (2.18ns)   --->   "%tmp_V_718 = call i32 @_ssdm_op_Read.ap_fifo.volatile.i32P(i32* %image_V_V)" [firmware/nnet_utils/nnet_image_stream.h:24]   --->   Operation 36 'read' 'tmp_V_718' <Predicate = (!icmp_ln20)> <Delay = 2.18> <Core = "FIFO">   --->   Core 32 'FIFO' <Latency = 0> <II = 1> <Delay = 3.63> <Storage> <Opcode : 'read' 'write' 'nbread' 'nbwrite'> <Ports = 0> <Width = 32> <Depth = 3> <FIFO>
ST_5 : Operation 37 [1/1] (2.18ns)   --->   "call void @_ssdm_op_Write.ap_fifo.volatile.i32P(i32* %resized_V_V, i32 %tmp_V_718)" [firmware/nnet_utils/nnet_image_stream.h:36]   --->   Operation 37 'write' <Predicate = (!icmp_ln20)> <Delay = 2.18> <Core = "FIFO">   --->   Core 32 'FIFO' <Latency = 0> <II = 1> <Delay = 3.63> <Storage> <Opcode : 'read' 'write' 'nbread' 'nbwrite'> <Ports = 0> <Width = 32> <Depth = 3> <FIFO>

State 6 <SV = 5> <Delay = 4.37>
ST_6 : Operation 38 [1/1] (2.18ns)   --->   "%tmp_V = call i32 @_ssdm_op_Read.ap_fifo.volatile.i32P(i32* %image_V_V)" [firmware/nnet_utils/nnet_image_stream.h:24]   --->   Operation 38 'read' 'tmp_V' <Predicate = (!icmp_ln20)> <Delay = 2.18> <Core = "FIFO">   --->   Core 32 'FIFO' <Latency = 0> <II = 1> <Delay = 3.63> <Storage> <Opcode : 'read' 'write' 'nbread' 'nbwrite'> <Ports = 0> <Width = 32> <Depth = 3> <FIFO>
ST_6 : Operation 39 [1/1] (2.18ns)   --->   "call void @_ssdm_op_Write.ap_fifo.volatile.i32P(i32* %resized_V_V, i32 %tmp_V)" [firmware/nnet_utils/nnet_image_stream.h:36]   --->   Operation 39 'write' <Predicate = (!icmp_ln20)> <Delay = 2.18> <Core = "FIFO">   --->   Core 32 'FIFO' <Latency = 0> <II = 1> <Delay = 3.63> <Storage> <Opcode : 'read' 'write' 'nbread' 'nbwrite'> <Ports = 0> <Width = 32> <Depth = 3> <FIFO>

State 7 <SV = 6> <Delay = 2.18>
ST_7 : Operation 40 [1/1] (2.18ns)   --->   "call void @_ssdm_op_Write.ap_fifo.volatile.i32P(i32* %resized_V_V, i32 %tmp_V_716)" [firmware/nnet_utils/nnet_image_stream.h:36]   --->   Operation 40 'write' <Predicate = (!icmp_ln20)> <Delay = 2.18> <Core = "FIFO">   --->   Core 32 'FIFO' <Latency = 0> <II = 1> <Delay = 3.63> <Storage> <Opcode : 'read' 'write' 'nbread' 'nbwrite'> <Ports = 0> <Width = 32> <Depth = 3> <FIFO>

State 8 <SV = 7> <Delay = 2.18>
ST_8 : Operation 41 [1/1] (2.18ns)   --->   "call void @_ssdm_op_Write.ap_fifo.volatile.i32P(i32* %resized_V_V, i32 %tmp_V_717)" [firmware/nnet_utils/nnet_image_stream.h:36]   --->   Operation 41 'write' <Predicate = (!icmp_ln20)> <Delay = 2.18> <Core = "FIFO">   --->   Core 32 'FIFO' <Latency = 0> <II = 1> <Delay = 3.63> <Storage> <Opcode : 'read' 'write' 'nbread' 'nbwrite'> <Ports = 0> <Width = 32> <Depth = 3> <FIFO>

State 9 <SV = 8> <Delay = 2.18>
ST_9 : Operation 42 [1/1] (2.18ns)   --->   "call void @_ssdm_op_Write.ap_fifo.volatile.i32P(i32* %resized_V_V, i32 %tmp_V_718)" [firmware/nnet_utils/nnet_image_stream.h:36]   --->   Operation 42 'write' <Predicate = (!icmp_ln20)> <Delay = 2.18> <Core = "FIFO">   --->   Core 32 'FIFO' <Latency = 0> <II = 1> <Delay = 3.63> <Storage> <Opcode : 'read' 'write' 'nbread' 'nbwrite'> <Ports = 0> <Width = 32> <Depth = 3> <FIFO>

State 10 <SV = 9> <Delay = 2.18>
ST_10 : Operation 43 [1/1] (2.18ns)   --->   "call void @_ssdm_op_Write.ap_fifo.volatile.i32P(i32* %resized_V_V, i32 %tmp_V)" [firmware/nnet_utils/nnet_image_stream.h:36]   --->   Operation 43 'write' <Predicate = (!icmp_ln20)> <Delay = 2.18> <Core = "FIFO">   --->   Core 32 'FIFO' <Latency = 0> <II = 1> <Delay = 3.63> <Storage> <Opcode : 'read' 'write' 'nbread' 'nbwrite'> <Ports = 0> <Width = 32> <Depth = 3> <FIFO>

State 11 <SV = 10> <Delay = 2.18>
ST_11 : Operation 44 [1/1] (2.18ns)   --->   "call void @_ssdm_op_Write.ap_fifo.volatile.i32P(i32* %resized_V_V, i32 %tmp_V_716)" [firmware/nnet_utils/nnet_image_stream.h:36]   --->   Operation 44 'write' <Predicate = (!icmp_ln20)> <Delay = 2.18> <Core = "FIFO">   --->   Core 32 'FIFO' <Latency = 0> <II = 1> <Delay = 3.63> <Storage> <Opcode : 'read' 'write' 'nbread' 'nbwrite'> <Ports = 0> <Width = 32> <Depth = 3> <FIFO>

State 12 <SV = 11> <Delay = 2.18>
ST_12 : Operation 45 [1/1] (2.18ns)   --->   "call void @_ssdm_op_Write.ap_fifo.volatile.i32P(i32* %resized_V_V, i32 %tmp_V_717)" [firmware/nnet_utils/nnet_image_stream.h:36]   --->   Operation 45 'write' <Predicate = (!icmp_ln20)> <Delay = 2.18> <Core = "FIFO">   --->   Core 32 'FIFO' <Latency = 0> <II = 1> <Delay = 3.63> <Storage> <Opcode : 'read' 'write' 'nbread' 'nbwrite'> <Ports = 0> <Width = 32> <Depth = 3> <FIFO>

State 13 <SV = 12> <Delay = 2.18>
ST_13 : Operation 46 [1/1] (2.18ns)   --->   "call void @_ssdm_op_Write.ap_fifo.volatile.i32P(i32* %resized_V_V, i32 %tmp_V_718)" [firmware/nnet_utils/nnet_image_stream.h:36]   --->   Operation 46 'write' <Predicate = (!icmp_ln20)> <Delay = 2.18> <Core = "FIFO">   --->   Core 32 'FIFO' <Latency = 0> <II = 1> <Delay = 3.63> <Storage> <Opcode : 'read' 'write' 'nbread' 'nbwrite'> <Ports = 0> <Width = 32> <Depth = 3> <FIFO>

State 14 <SV = 13> <Delay = 2.18>
ST_14 : Operation 47 [1/1] (2.18ns)   --->   "call void @_ssdm_op_Write.ap_fifo.volatile.i32P(i32* %resized_V_V, i32 %tmp_V)" [firmware/nnet_utils/nnet_image_stream.h:36]   --->   Operation 47 'write' <Predicate = (!icmp_ln20)> <Delay = 2.18> <Core = "FIFO">   --->   Core 32 'FIFO' <Latency = 0> <II = 1> <Delay = 3.63> <Storage> <Opcode : 'read' 'write' 'nbread' 'nbwrite'> <Ports = 0> <Width = 32> <Depth = 3> <FIFO>

State 15 <SV = 14> <Delay = 2.18>
ST_15 : Operation 48 [1/1] (2.18ns)   --->   "call void @_ssdm_op_Write.ap_fifo.volatile.i32P(i32* %resized_V_V, i32 %tmp_V_716)" [firmware/nnet_utils/nnet_image_stream.h:36]   --->   Operation 48 'write' <Predicate = (!icmp_ln20)> <Delay = 2.18> <Core = "FIFO">   --->   Core 32 'FIFO' <Latency = 0> <II = 1> <Delay = 3.63> <Storage> <Opcode : 'read' 'write' 'nbread' 'nbwrite'> <Ports = 0> <Width = 32> <Depth = 3> <FIFO>

State 16 <SV = 15> <Delay = 2.18>
ST_16 : Operation 49 [1/1] (2.18ns)   --->   "call void @_ssdm_op_Write.ap_fifo.volatile.i32P(i32* %resized_V_V, i32 %tmp_V_717)" [firmware/nnet_utils/nnet_image_stream.h:36]   --->   Operation 49 'write' <Predicate = (!icmp_ln20)> <Delay = 2.18> <Core = "FIFO">   --->   Core 32 'FIFO' <Latency = 0> <II = 1> <Delay = 3.63> <Storage> <Opcode : 'read' 'write' 'nbread' 'nbwrite'> <Ports = 0> <Width = 32> <Depth = 3> <FIFO>

State 17 <SV = 16> <Delay = 2.18>
ST_17 : Operation 50 [1/1] (2.18ns)   --->   "call void @_ssdm_op_Write.ap_fifo.volatile.i32P(i32* %resized_V_V, i32 %tmp_V_718)" [firmware/nnet_utils/nnet_image_stream.h:36]   --->   Operation 50 'write' <Predicate = (!icmp_ln20)> <Delay = 2.18> <Core = "FIFO">   --->   Core 32 'FIFO' <Latency = 0> <II = 1> <Delay = 3.63> <Storage> <Opcode : 'read' 'write' 'nbread' 'nbwrite'> <Ports = 0> <Width = 32> <Depth = 3> <FIFO>

State 18 <SV = 17> <Delay = 2.18>
ST_18 : Operation 51 [1/1] (2.18ns)   --->   "call void @_ssdm_op_Write.ap_fifo.volatile.i32P(i32* %resized_V_V, i32 %tmp_V)" [firmware/nnet_utils/nnet_image_stream.h:36]   --->   Operation 51 'write' <Predicate = (!icmp_ln20)> <Delay = 2.18> <Core = "FIFO">   --->   Core 32 'FIFO' <Latency = 0> <II = 1> <Delay = 3.63> <Storage> <Opcode : 'read' 'write' 'nbread' 'nbwrite'> <Ports = 0> <Width = 32> <Depth = 3> <FIFO>

State 19 <SV = 18> <Delay = 2.18>
ST_19 : Operation 52 [1/1] (2.18ns)   --->   "call void @_ssdm_op_Write.ap_fifo.volatile.i32P(i32* %resized_V_V, i32 %tmp_V_716)" [firmware/nnet_utils/nnet_image_stream.h:36]   --->   Operation 52 'write' <Predicate = (!icmp_ln20)> <Delay = 2.18> <Core = "FIFO">   --->   Core 32 'FIFO' <Latency = 0> <II = 1> <Delay = 3.63> <Storage> <Opcode : 'read' 'write' 'nbread' 'nbwrite'> <Ports = 0> <Width = 32> <Depth = 3> <FIFO>

State 20 <SV = 19> <Delay = 2.18>
ST_20 : Operation 53 [1/1] (2.18ns)   --->   "call void @_ssdm_op_Write.ap_fifo.volatile.i32P(i32* %resized_V_V, i32 %tmp_V_717)" [firmware/nnet_utils/nnet_image_stream.h:36]   --->   Operation 53 'write' <Predicate = (!icmp_ln20)> <Delay = 2.18> <Core = "FIFO">   --->   Core 32 'FIFO' <Latency = 0> <II = 1> <Delay = 3.63> <Storage> <Opcode : 'read' 'write' 'nbread' 'nbwrite'> <Ports = 0> <Width = 32> <Depth = 3> <FIFO>

State 21 <SV = 20> <Delay = 2.18>
ST_21 : Operation 54 [1/1] (2.18ns)   --->   "call void @_ssdm_op_Write.ap_fifo.volatile.i32P(i32* %resized_V_V, i32 %tmp_V_718)" [firmware/nnet_utils/nnet_image_stream.h:36]   --->   Operation 54 'write' <Predicate = (!icmp_ln20)> <Delay = 2.18> <Core = "FIFO">   --->   Core 32 'FIFO' <Latency = 0> <II = 1> <Delay = 3.63> <Storage> <Opcode : 'read' 'write' 'nbread' 'nbwrite'> <Ports = 0> <Width = 32> <Depth = 3> <FIFO>

State 22 <SV = 21> <Delay = 2.18>
ST_22 : Operation 55 [1/1] (0.00ns)   --->   "call void (...)* @_ssdm_op_SpecLoopName([12 x i8]* @p_str194) nounwind" [firmware/nnet_utils/nnet_image_stream.h:20]   --->   Operation 55 'specloopname' <Predicate = (!icmp_ln20)> <Delay = 0.00>
ST_22 : Operation 56 [1/1] (0.00ns)   --->   "%tmp = call i32 (...)* @_ssdm_op_SpecRegionBegin([12 x i8]* @p_str194)" [firmware/nnet_utils/nnet_image_stream.h:20]   --->   Operation 56 'specregionbegin' 'tmp' <Predicate = (!icmp_ln20)> <Delay = 0.00>
ST_22 : Operation 57 [1/1] (0.00ns)   --->   "call void (...)* @_ssdm_op_SpecPipeline(i32 5, i32 1, i32 1, i32 0, [1 x i8]* @p_str28) nounwind" [firmware/nnet_utils/nnet_image_stream.h:21]   --->   Operation 57 'specpipeline' <Predicate = (!icmp_ln20)> <Delay = 0.00>
ST_22 : Operation 58 [1/1] (2.18ns)   --->   "call void @_ssdm_op_Write.ap_fifo.volatile.i32P(i32* %resized_V_V, i32 %tmp_V)" [firmware/nnet_utils/nnet_image_stream.h:36]   --->   Operation 58 'write' <Predicate = (!icmp_ln20)> <Delay = 2.18> <Core = "FIFO">   --->   Core 32 'FIFO' <Latency = 0> <II = 1> <Delay = 3.63> <Storage> <Opcode : 'read' 'write' 'nbread' 'nbwrite'> <Ports = 0> <Width = 32> <Depth = 3> <FIFO>
ST_22 : Operation 59 [1/1] (0.00ns)   --->   "%empty_93 = call i32 (...)* @_ssdm_op_SpecRegionEnd([12 x i8]* @p_str194, i32 %tmp)" [firmware/nnet_utils/nnet_image_stream.h:41]   --->   Operation 59 'specregionend' 'empty_93' <Predicate = (!icmp_ln20)> <Delay = 0.00>
ST_22 : Operation 60 [1/1] (0.00ns)   --->   "br label %.preheader17" [firmware/nnet_utils/nnet_image_stream.h:20]   --->   Operation 60 'br' <Predicate = (!icmp_ln20)> <Delay = 0.00>

State 23 <SV = 2> <Delay = 0.00>
ST_23 : Operation 61 [1/1] (0.00ns)   --->   "ret void" [firmware/nnet_utils/nnet_image_stream.h:42]   --->   Operation 61 'ret' <Predicate = true> <Delay = 0.00>


============================================================
+ Verbose Summary: Binding
============================================================
STG Binding: 
---------------- STG Properties BEGIN ----------------
- Is combinational: 0
- Is one-state seq: 0
- Is datapath-only: 0
- Is pipelined: 0
- Is top level: 0
Port [ Return ] is wired: 1; IO mode=ap_ctrl_hs:ce=0
Port [ image_V_V]:  wired=1; compound=1; hidden=0; nouse=0; global=0; static=0; extern=0; dir=0; type=3; pingpong=0; private_global=0; IO mode=ap_fifo:ce=0
Port [ resized_V_V]:  wired=1; compound=1; hidden=0; nouse=0; global=0; static=0; extern=0; dir=1; type=3; pingpong=0; private_global=0; IO mode=ap_fifo:ce=0
---------------- STG Properties END ------------------

---------------- Datapath Model BEGIN ----------------

<LifeTime>
<method=bitvector/>
specinterface_ln0 (specinterface    ) [ 000000000000000000000000]
specinterface_ln0 (specinterface    ) [ 000000000000000000000000]
br_ln20           (br               ) [ 011111111111111111111110]
i_0               (phi              ) [ 001000000000000000000000]
icmp_ln20         (icmp             ) [ 001111111111111111111110]
empty             (speclooptripcount) [ 000000000000000000000000]
i                 (add              ) [ 011111111111111111111110]
br_ln20           (br               ) [ 000000000000000000000000]
tmp_V_716         (read             ) [ 000011111111111111110000]
write_ln36        (write            ) [ 000000000000000000000000]
tmp_V_717         (read             ) [ 000001111111111111111000]
write_ln36        (write            ) [ 000000000000000000000000]
tmp_V_718         (read             ) [ 000000111111111111111100]
write_ln36        (write            ) [ 000000000000000000000000]
tmp_V             (read             ) [ 001000011111111111111110]
write_ln36        (write            ) [ 000000000000000000000000]
write_ln36        (write            ) [ 000000000000000000000000]
write_ln36        (write            ) [ 000000000000000000000000]
write_ln36        (write            ) [ 000000000000000000000000]
write_ln36        (write            ) [ 000000000000000000000000]
write_ln36        (write            ) [ 000000000000000000000000]
write_ln36        (write            ) [ 000000000000000000000000]
write_ln36        (write            ) [ 000000000000000000000000]
write_ln36        (write            ) [ 000000000000000000000000]
write_ln36        (write            ) [ 000000000000000000000000]
write_ln36        (write            ) [ 000000000000000000000000]
write_ln36        (write            ) [ 000000000000000000000000]
write_ln36        (write            ) [ 000000000000000000000000]
write_ln36        (write            ) [ 000000000000000000000000]
write_ln36        (write            ) [ 000000000000000000000000]
write_ln36        (write            ) [ 000000000000000000000000]
specloopname_ln20 (specloopname     ) [ 000000000000000000000000]
tmp               (specregionbegin  ) [ 000000000000000000000000]
specpipeline_ln21 (specpipeline     ) [ 000000000000000000000000]
write_ln36        (write            ) [ 000000000000000000000000]
empty_93          (specregionend    ) [ 000000000000000000000000]
br_ln20           (br               ) [ 011111111111111111111110]
ret_ln42          (ret              ) [ 000000000000000000000000]
</LifeTime>

<model>

<comp_list>
<comp id="0" class="1000" name="image_V_V">
<pin_list>
<pin id="1" dir="1" index="0" bw="1" slack="0"/>
</pin_list>
<bind>
<StgValue><ssdm name="image_V_V"/></StgValue>
</bind>
</comp>

<comp id="2" class="1000" name="resized_V_V">
<pin_list>
<pin id="3" dir="1" index="0" bw="1" slack="0"/>
</pin_list>
<bind>
<StgValue><ssdm name="resized_V_V"/></StgValue>
</bind>
</comp>

<comp id="4" class="1001" name="const_4">
<pin_list>
<pin id="5" dir="1" index="0" bw="1" slack="2147483647"/>
</pin_list>
<bind>
<StgValue><ssdm name="_ssdm_op_SpecInterface"/></StgValue>
</bind>
</comp>

<comp id="6" class="1001" name="const_6">
<pin_list>
<pin id="7" dir="1" index="0" bw="1" slack="2147483647"/>
</pin_list>
<bind>
<StgValue><ssdm name="ap_fifo_str"/></StgValue>
</bind>
</comp>

<comp id="8" class="1001" name="const_8">
<pin_list>
<pin id="9" dir="1" index="0" bw="1" slack="2147483647"/>
</pin_list>
<bind>
<StgValue><ssdm name=""/></StgValue>
</bind>
</comp>

<comp id="10" class="1001" name="const_10">
<pin_list>
<pin id="11" dir="1" index="0" bw="1" slack="2147483647"/>
</pin_list>
<bind>
<StgValue><ssdm name="p_str"/></StgValue>
</bind>
</comp>

<comp id="12" class="1001" name="const_12">
<pin_list>
<pin id="13" dir="1" index="0" bw="1" slack="2147483647"/>
</pin_list>
<bind>
<StgValue><ssdm name=""/></StgValue>
</bind>
</comp>

<comp id="14" class="1001" name="const_14">
<pin_list>
<pin id="15" dir="1" index="0" bw="1" slack="2147483647"/>
</pin_list>
<bind>
<StgValue><ssdm name=""/></StgValue>
</bind>
</comp>

<comp id="16" class="1001" name="const_16">
<pin_list>
<pin id="17" dir="1" index="0" bw="1" slack="1"/>
</pin_list>
<bind>
<StgValue><ssdm name=""/></StgValue>
</bind>
</comp>

<comp id="18" class="1001" name="const_18">
<pin_list>
<pin id="19" dir="1" index="0" bw="1" slack="0"/>
</pin_list>
<bind>
<StgValue><ssdm name=""/></StgValue>
</bind>
</comp>

<comp id="20" class="1001" name="const_20">
<pin_list>
<pin id="21" dir="1" index="0" bw="1" slack="2147483647"/>
</pin_list>
<bind>
<StgValue><ssdm name="_ssdm_op_SpecLoopTripCount"/></StgValue>
</bind>
</comp>

<comp id="22" class="1001" name="const_22">
<pin_list>
<pin id="23" dir="1" index="0" bw="1" slack="2147483647"/>
</pin_list>
<bind>
<StgValue><ssdm name=""/></StgValue>
</bind>
</comp>

<comp id="24" class="1001" name="const_24">
<pin_list>
<pin id="25" dir="1" index="0" bw="1" slack="0"/>
</pin_list>
<bind>
<StgValue><ssdm name=""/></StgValue>
</bind>
</comp>

<comp id="26" class="1001" name="const_26">
<pin_list>
<pin id="27" dir="1" index="0" bw="1" slack="0"/>
</pin_list>
<bind>
<StgValue><ssdm name="_ssdm_op_Read.ap_fifo.volatile.i32P"/></StgValue>
</bind>
</comp>

<comp id="28" class="1001" name="const_28">
<pin_list>
<pin id="29" dir="1" index="0" bw="1" slack="0"/>
</pin_list>
<bind>
<StgValue><ssdm name="_ssdm_op_Write.ap_fifo.volatile.i32P"/></StgValue>
</bind>
</comp>

<comp id="30" class="1001" name="const_30">
<pin_list>
<pin id="31" dir="1" index="0" bw="1" slack="2147483647"/>
</pin_list>
<bind>
<StgValue><ssdm name="_ssdm_op_SpecLoopName"/></StgValue>
</bind>
</comp>

<comp id="32" class="1001" name="const_32">
<pin_list>
<pin id="33" dir="1" index="0" bw="1" slack="2147483647"/>
</pin_list>
<bind>
<StgValue><ssdm name="p_str194"/></StgValue>
</bind>
</comp>

<comp id="34" class="1001" name="const_34">
<pin_list>
<pin id="35" dir="1" index="0" bw="1" slack="2147483647"/>
</pin_list>
<bind>
<StgValue><ssdm name="_ssdm_op_SpecRegionBegin"/></StgValue>
</bind>
</comp>

<comp id="36" class="1001" name="const_36">
<pin_list>
<pin id="37" dir="1" index="0" bw="1" slack="2147483647"/>
</pin_list>
<bind>
<StgValue><ssdm name="_ssdm_op_SpecPipeline"/></StgValue>
</bind>
</comp>

<comp id="38" class="1001" name="const_38">
<pin_list>
<pin id="39" dir="1" index="0" bw="1" slack="2147483647"/>
</pin_list>
<bind>
<StgValue><ssdm name=""/></StgValue>
</bind>
</comp>

<comp id="40" class="1001" name="const_40">
<pin_list>
<pin id="41" dir="1" index="0" bw="1" slack="2147483647"/>
</pin_list>
<bind>
<StgValue><ssdm name=""/></StgValue>
</bind>
</comp>

<comp id="42" class="1001" name="const_42">
<pin_list>
<pin id="43" dir="1" index="0" bw="1" slack="2147483647"/>
</pin_list>
<bind>
<StgValue><ssdm name="p_str28"/></StgValue>
</bind>
</comp>

<comp id="44" class="1001" name="const_44">
<pin_list>
<pin id="45" dir="1" index="0" bw="1" slack="2147483647"/>
</pin_list>
<bind>
<StgValue><ssdm name="_ssdm_op_SpecRegionEnd"/></StgValue>
</bind>
</comp>

<comp id="46" class="1004" name="grp_read_fu_46">
<pin_list>
<pin id="47" dir="0" index="0" bw="32" slack="0"/>
<pin id="48" dir="0" index="1" bw="32" slack="0"/>
<pin id="49" dir="1" index="2" bw="32" slack="0"/>
</pin_list>
<bind>
<opcode="read(1150) " fcode="read"/>
<opset="tmp_V_716/3 tmp_V_717/4 tmp_V_718/5 tmp_V/6 "/>
</bind>
</comp>

<comp id="52" class="1004" name="grp_write_fu_52">
<pin_list>
<pin id="53" dir="0" index="0" bw="0" slack="0"/>
<pin id="54" dir="0" index="1" bw="32" slack="0"/>
<pin id="55" dir="0" index="2" bw="32" slack="0"/>
<pin id="56" dir="1" index="3" bw="0" slack="2147483647"/>
</pin_list>
<bind>
<opcode="write(1151) " fcode="write"/>
<opset="write_ln36/3 write_ln36/4 write_ln36/5 write_ln36/6 write_ln36/7 write_ln36/8 write_ln36/9 write_ln36/10 write_ln36/11 write_ln36/12 write_ln36/13 write_ln36/14 write_ln36/15 write_ln36/16 write_ln36/17 write_ln36/18 write_ln36/19 write_ln36/20 write_ln36/21 write_ln36/22 "/>
</bind>
</comp>

<comp id="60" class="1005" name="i_0_reg_60">
<pin_list>
<pin id="61" dir="0" index="0" bw="10" slack="1"/>
<pin id="62" dir="1" index="1" bw="10" slack="1"/>
</pin_list>
<bind>
<opset="i_0 (phireg) "/>
</bind>
</comp>

<comp id="64" class="1004" name="i_0_phi_fu_64">
<pin_list>
<pin id="65" dir="0" index="0" bw="10" slack="0"/>
<pin id="66" dir="0" index="1" bw="0" slack="2147483647"/>
<pin id="67" dir="0" index="2" bw="1" slack="1"/>
<pin id="68" dir="0" index="3" bw="0" slack="2147483647"/>
<pin id="69" dir="1" index="4" bw="10" slack="0"/>
</pin_list>
<bind>
<opcode="phi(47) " fcode="phi"/>
<opset="i_0/2 "/>
</bind>
</comp>

<comp id="71" class="1004" name="icmp_ln20_fu_71">
<pin_list>
<pin id="72" dir="0" index="0" bw="10" slack="0"/>
<pin id="73" dir="0" index="1" bw="10" slack="0"/>
<pin id="74" dir="1" index="2" bw="1" slack="1"/>
</pin_list>
<bind>
<opcode="icmp(45) " fcode="icmp"/>
<opset="icmp_ln20/2 "/>
</bind>
</comp>

<comp id="77" class="1004" name="i_fu_77">
<pin_list>
<pin id="78" dir="0" index="0" bw="10" slack="0"/>
<pin id="79" dir="0" index="1" bw="1" slack="0"/>
<pin id="80" dir="1" index="2" bw="10" slack="0"/>
</pin_list>
<bind>
<opcode="add(8) " fcode="add"/>
<opset="i/2 "/>
</bind>
</comp>

<comp id="83" class="1005" name="icmp_ln20_reg_83">
<pin_list>
<pin id="84" dir="0" index="0" bw="1" slack="1"/>
<pin id="85" dir="1" index="1" bw="1" slack="2147483647"/>
</pin_list>
<bind>
<opset="icmp_ln20 "/>
</bind>
</comp>

<comp id="87" class="1005" name="i_reg_87">
<pin_list>
<pin id="88" dir="0" index="0" bw="10" slack="0"/>
<pin id="89" dir="1" index="1" bw="10" slack="0"/>
</pin_list>
<bind>
<opset="i "/>
</bind>
</comp>

<comp id="92" class="1005" name="tmp_V_716_reg_92">
<pin_list>
<pin id="93" dir="0" index="0" bw="32" slack="4"/>
<pin id="94" dir="1" index="1" bw="32" slack="4"/>
</pin_list>
<bind>
<opset="tmp_V_716 "/>
</bind>
</comp>

<comp id="97" class="1005" name="tmp_V_717_reg_97">
<pin_list>
<pin id="98" dir="0" index="0" bw="32" slack="4"/>
<pin id="99" dir="1" index="1" bw="32" slack="4"/>
</pin_list>
<bind>
<opset="tmp_V_717 "/>
</bind>
</comp>

<comp id="102" class="1005" name="tmp_V_718_reg_102">
<pin_list>
<pin id="103" dir="0" index="0" bw="32" slack="4"/>
<pin id="104" dir="1" index="1" bw="32" slack="4"/>
</pin_list>
<bind>
<opset="tmp_V_718 "/>
</bind>
</comp>

<comp id="107" class="1005" name="tmp_V_reg_107">
<pin_list>
<pin id="108" dir="0" index="0" bw="32" slack="4"/>
<pin id="109" dir="1" index="1" bw="32" slack="4"/>
</pin_list>
<bind>
<opset="tmp_V "/>
</bind>
</comp>

</comp_list>

<net_list>
<net id="50"><net_src comp="26" pin="0"/><net_sink comp="46" pin=0"/></net>

<net id="51"><net_src comp="0" pin="0"/><net_sink comp="46" pin=1"/></net>

<net id="57"><net_src comp="28" pin="0"/><net_sink comp="52" pin=0"/></net>

<net id="58"><net_src comp="2" pin="0"/><net_sink comp="52" pin=1"/></net>

<net id="59"><net_src comp="46" pin="2"/><net_sink comp="52" pin=2"/></net>

<net id="63"><net_src comp="16" pin="0"/><net_sink comp="60" pin=0"/></net>

<net id="70"><net_src comp="60" pin="1"/><net_sink comp="64" pin=2"/></net>

<net id="75"><net_src comp="64" pin="4"/><net_sink comp="71" pin=0"/></net>

<net id="76"><net_src comp="18" pin="0"/><net_sink comp="71" pin=1"/></net>

<net id="81"><net_src comp="64" pin="4"/><net_sink comp="77" pin=0"/></net>

<net id="82"><net_src comp="24" pin="0"/><net_sink comp="77" pin=1"/></net>

<net id="86"><net_src comp="71" pin="2"/><net_sink comp="83" pin=0"/></net>

<net id="90"><net_src comp="77" pin="2"/><net_sink comp="87" pin=0"/></net>

<net id="91"><net_src comp="87" pin="1"/><net_sink comp="64" pin=0"/></net>

<net id="95"><net_src comp="46" pin="2"/><net_sink comp="92" pin=0"/></net>

<net id="96"><net_src comp="92" pin="1"/><net_sink comp="52" pin=2"/></net>

<net id="100"><net_src comp="46" pin="2"/><net_sink comp="97" pin=0"/></net>

<net id="101"><net_src comp="97" pin="1"/><net_sink comp="52" pin=2"/></net>

<net id="105"><net_src comp="46" pin="2"/><net_sink comp="102" pin=0"/></net>

<net id="106"><net_src comp="102" pin="1"/><net_sink comp="52" pin=2"/></net>

<net id="110"><net_src comp="46" pin="2"/><net_sink comp="107" pin=0"/></net>

<net id="111"><net_src comp="107" pin="1"/><net_sink comp="52" pin=2"/></net>

</net_list>

</model> 
---------------- Datapath Model END ------------------

* FSMD analyzer results:
  - Output states:
	Port: resized_V_V | {3 4 5 6 7 8 9 10 11 12 13 14 15 16 17 18 19 20 21 22 }
 - Input state : 
	Port: resize_nearest_me<ap_fixed<32, 16, 5, 3, 0>, config2> : image_V_V | {3 4 5 6 }
  - Chain level:
	State 1
	State 2
		icmp_ln20 : 1
		i : 1
		br_ln20 : 2
	State 3
	State 4
	State 5
	State 6
	State 7
	State 8
	State 9
	State 10
	State 11
	State 12
	State 13
	State 14
	State 15
	State 16
	State 17
	State 18
	State 19
	State 20
	State 21
	State 22
		empty_93 : 1
	State 23


============================================================
+ Verbose Summary: Datapath Resource usage 
============================================================

* Functional unit list:
|----------|-----------------|---------|---------|
| Operation| Functional Unit |    FF   |   LUT   |
|----------|-----------------|---------|---------|
|    add   |     i_fu_77     |    0    |    14   |
|----------|-----------------|---------|---------|
|   icmp   | icmp_ln20_fu_71 |    0    |    13   |
|----------|-----------------|---------|---------|
|   read   |  grp_read_fu_46 |    0    |    0    |
|----------|-----------------|---------|---------|
|   write  | grp_write_fu_52 |    0    |    0    |
|----------|-----------------|---------|---------|
|   Total  |                 |    0    |    27   |
|----------|-----------------|---------|---------|

Memories:
N/A

* Register list:
+-----------------+--------+
|                 |   FF   |
+-----------------+--------+
|    i_0_reg_60   |   10   |
|     i_reg_87    |   10   |
| icmp_ln20_reg_83|    1   |
| tmp_V_716_reg_92|   32   |
| tmp_V_717_reg_97|   32   |
|tmp_V_718_reg_102|   32   |
|  tmp_V_reg_107  |   32   |
+-----------------+--------+
|      Total      |   149  |
+-----------------+--------+

* Multiplexer (MUX) list: 
|-----------------|------|------|------|--------||---------||---------|
|       Comp      |  Pin | Size |  BW  | S x BW ||  Delay  ||   LUT   |
|-----------------|------|------|------|--------||---------||---------|
| grp_write_fu_52 |  p2  |   5  |  32  |   160  ||    27   |
|-----------------|------|------|------|--------||---------||---------|
|      Total      |      |      |      |   160  || 1.90625 ||    27   |
|-----------------|------|------|------|--------||---------||---------|



* Summary:
+-----------+--------+--------+--------+
|           |  Delay |   FF   |   LUT  |
+-----------+--------+--------+--------+
|  Function |    -   |    0   |   27   |
|   Memory  |    -   |    -   |    -   |
|Multiplexer|    1   |    -   |   27   |
|  Register |    -   |   149  |    -   |
+-----------+--------+--------+--------+
|   Total   |    1   |   149  |   54   |
+-----------+--------+--------+--------+
