

================================================================
== Vivado HLS Report for 'cnnshift_arr_ap_fixed_ap_fixed_32_16_5_3_0_config27_s'
================================================================
* Date:           Wed Mar 30 22:16:02 2022

* Version:        2019.2 (Build 2704478 on Wed Nov 06 22:10:23 MST 2019)
* Project:        myproject_prj
* Solution:       solution1
* Product family: zynq
* Target device:  xc7z020-clg400-1


================================================================
== Performance Estimates
================================================================
+ Timing: 
    * Summary: 
    +--------+---------+----------+------------+
    |  Clock |  Target | Estimated| Uncertainty|
    +--------+---------+----------+------------+
    |ap_clk  | 5.00 ns | 3.254 ns |   0.62 ns  |
    +--------+---------+----------+------------+

+ Latency: 
    * Summary: 
    +---------+---------+----------+----------+-----+-----+---------+
    |  Latency (cycles) |  Latency (absolute) |  Interval | Pipeline|
    |   min   |   max   |    min   |    max   | min | max |   Type  |
    +---------+---------+----------+----------+-----+-----+---------+
    |      383|      383| 1.915 us | 1.915 us |  383|  383|   none  |
    +---------+---------+----------+----------+-----+-----+---------+

    + Detail: 
        * Instance: 
        N/A

        * Loop: 
        N/A



================================================================
== Utilization Estimates
================================================================
* Summary: 
+-----------------+---------+-------+--------+-------+-----+
|       Name      | BRAM_18K| DSP48E|   FF   |  LUT  | URAM|
+-----------------+---------+-------+--------+-------+-----+
|DSP              |        -|      -|       -|      -|    -|
|Expression       |        -|      -|       -|      -|    -|
|FIFO             |        -|      -|       -|      -|    -|
|Instance         |        -|      -|       -|      -|    -|
|Memory           |        0|      -|    8192|   4096|    -|
|Multiplexer      |        -|      -|       -|   7649|    -|
|Register         |        -|      -|   18752|      -|    -|
+-----------------+---------+-------+--------+-------+-----+
|Total            |        0|      0|   26944|  11745|    0|
+-----------------+---------+-------+--------+-------+-----+
|Available        |      280|    220|  106400|  53200|    0|
+-----------------+---------+-------+--------+-------+-----+
|Utilization (%)  |        0|      0|      25|     22|    0|
+-----------------+---------+-------+--------+-------+-----+

+ Detail: 
    * Instance: 
    N/A

    * DSP48E: 
    N/A

    * Memory: 
    +--------------------------------+--------------------------------------------------------------+---------+----+----+-----+------+-----+------+-------------+
    |             Memory             |                            Module                            | BRAM_18K| FF | LUT| URAM| Words| Bits| Banks| W*Bits*Banks|
    +--------------------------------+--------------------------------------------------------------+---------+----+----+-----+------+-----+------+-------------+
    |layer_in_row_Array_V_0_0_U      |cnnshift_arr_ap_fixed_ap_fixed_32_16_5_3_0_config27_s_layg3b  |        0|  64|  32|    0|     8|   32|     1|          256|
    |layer_in_row_Array_V_1583_0_U   |cnnshift_arr_ap_fixed_ap_fixed_32_16_5_3_0_config27_s_layg3b  |        0|  64|  32|    0|     8|   32|     1|          256|
    |layer_in_row_Array_V_0_1_U      |cnnshift_arr_ap_fixed_ap_fixed_32_16_5_3_0_config27_s_layg3b  |        0|  64|  32|    0|     8|   32|     1|          256|
    |layer_in_row_Array_V_1583_1_U   |cnnshift_arr_ap_fixed_ap_fixed_32_16_5_3_0_config27_s_layg3b  |        0|  64|  32|    0|     8|   32|     1|          256|
    |layer_in_row_Array_V_0_2_U      |cnnshift_arr_ap_fixed_ap_fixed_32_16_5_3_0_config27_s_layg3b  |        0|  64|  32|    0|     8|   32|     1|          256|
    |layer_in_row_Array_V_1583_2_U   |cnnshift_arr_ap_fixed_ap_fixed_32_16_5_3_0_config27_s_layg3b  |        0|  64|  32|    0|     8|   32|     1|          256|
    |layer_in_row_Array_V_0_3_U      |cnnshift_arr_ap_fixed_ap_fixed_32_16_5_3_0_config27_s_layg3b  |        0|  64|  32|    0|     8|   32|     1|          256|
    |layer_in_row_Array_V_1583_3_U   |cnnshift_arr_ap_fixed_ap_fixed_32_16_5_3_0_config27_s_layg3b  |        0|  64|  32|    0|     8|   32|     1|          256|
    |layer_in_row_Array_V_0_4_U      |cnnshift_arr_ap_fixed_ap_fixed_32_16_5_3_0_config27_s_layg3b  |        0|  64|  32|    0|     8|   32|     1|          256|
    |layer_in_row_Array_V_1583_4_U   |cnnshift_arr_ap_fixed_ap_fixed_32_16_5_3_0_config27_s_layg3b  |        0|  64|  32|    0|     8|   32|     1|          256|
    |layer_in_row_Array_V_0_5_U      |cnnshift_arr_ap_fixed_ap_fixed_32_16_5_3_0_config27_s_layg3b  |        0|  64|  32|    0|     8|   32|     1|          256|
    |layer_in_row_Array_V_1583_5_U   |cnnshift_arr_ap_fixed_ap_fixed_32_16_5_3_0_config27_s_layg3b  |        0|  64|  32|    0|     8|   32|     1|          256|
    |layer_in_row_Array_V_0_6_U      |cnnshift_arr_ap_fixed_ap_fixed_32_16_5_3_0_config27_s_layg3b  |        0|  64|  32|    0|     8|   32|     1|          256|
    |layer_in_row_Array_V_1583_6_U   |cnnshift_arr_ap_fixed_ap_fixed_32_16_5_3_0_config27_s_layg3b  |        0|  64|  32|    0|     8|   32|     1|          256|
    |layer_in_row_Array_V_0_7_U      |cnnshift_arr_ap_fixed_ap_fixed_32_16_5_3_0_config27_s_layg3b  |        0|  64|  32|    0|     8|   32|     1|          256|
    |layer_in_row_Array_V_1583_7_U   |cnnshift_arr_ap_fixed_ap_fixed_32_16_5_3_0_config27_s_layg3b  |        0|  64|  32|    0|     8|   32|     1|          256|
    |layer_in_row_Array_V_0_8_U      |cnnshift_arr_ap_fixed_ap_fixed_32_16_5_3_0_config27_s_layg3b  |        0|  64|  32|    0|     8|   32|     1|          256|
    |layer_in_row_Array_V_1583_8_U   |cnnshift_arr_ap_fixed_ap_fixed_32_16_5_3_0_config27_s_layg3b  |        0|  64|  32|    0|     8|   32|     1|          256|
    |layer_in_row_Array_V_0_9_U      |cnnshift_arr_ap_fixed_ap_fixed_32_16_5_3_0_config27_s_layg3b  |        0|  64|  32|    0|     8|   32|     1|          256|
    |layer_in_row_Array_V_1583_9_U   |cnnshift_arr_ap_fixed_ap_fixed_32_16_5_3_0_config27_s_layg3b  |        0|  64|  32|    0|     8|   32|     1|          256|
    |layer_in_row_Array_V_0_10_U     |cnnshift_arr_ap_fixed_ap_fixed_32_16_5_3_0_config27_s_layg3b  |        0|  64|  32|    0|     8|   32|     1|          256|
    |layer_in_row_Array_V_1583_10_U  |cnnshift_arr_ap_fixed_ap_fixed_32_16_5_3_0_config27_s_layg3b  |        0|  64|  32|    0|     8|   32|     1|          256|
    |layer_in_row_Array_V_0_11_U     |cnnshift_arr_ap_fixed_ap_fixed_32_16_5_3_0_config27_s_layg3b  |        0|  64|  32|    0|     8|   32|     1|          256|
    |layer_in_row_Array_V_1583_11_U  |cnnshift_arr_ap_fixed_ap_fixed_32_16_5_3_0_config27_s_layg3b  |        0|  64|  32|    0|     8|   32|     1|          256|
    |layer_in_row_Array_V_0_12_U     |cnnshift_arr_ap_fixed_ap_fixed_32_16_5_3_0_config27_s_layg3b  |        0|  64|  32|    0|     8|   32|     1|          256|
    |layer_in_row_Array_V_1583_12_U  |cnnshift_arr_ap_fixed_ap_fixed_32_16_5_3_0_config27_s_layg3b  |        0|  64|  32|    0|     8|   32|     1|          256|
    |layer_in_row_Array_V_0_13_U     |cnnshift_arr_ap_fixed_ap_fixed_32_16_5_3_0_config27_s_layg3b  |        0|  64|  32|    0|     8|   32|     1|          256|
    |layer_in_row_Array_V_1583_13_U  |cnnshift_arr_ap_fixed_ap_fixed_32_16_5_3_0_config27_s_layg3b  |        0|  64|  32|    0|     8|   32|     1|          256|
    |layer_in_row_Array_V_0_14_U     |cnnshift_arr_ap_fixed_ap_fixed_32_16_5_3_0_config27_s_layg3b  |        0|  64|  32|    0|     8|   32|     1|          256|
    |layer_in_row_Array_V_1583_14_U  |cnnshift_arr_ap_fixed_ap_fixed_32_16_5_3_0_config27_s_layg3b  |        0|  64|  32|    0|     8|   32|     1|          256|
    |layer_in_row_Array_V_0_15_U     |cnnshift_arr_ap_fixed_ap_fixed_32_16_5_3_0_config27_s_layg3b  |        0|  64|  32|    0|     8|   32|     1|          256|
    |layer_in_row_Array_V_1583_15_U  |cnnshift_arr_ap_fixed_ap_fixed_32_16_5_3_0_config27_s_layg3b  |        0|  64|  32|    0|     8|   32|     1|          256|
    |layer_in_row_Array_V_0_16_U     |cnnshift_arr_ap_fixed_ap_fixed_32_16_5_3_0_config27_s_layg3b  |        0|  64|  32|    0|     8|   32|     1|          256|
    |layer_in_row_Array_V_1583_16_U  |cnnshift_arr_ap_fixed_ap_fixed_32_16_5_3_0_config27_s_layg3b  |        0|  64|  32|    0|     8|   32|     1|          256|
    |layer_in_row_Array_V_0_17_U     |cnnshift_arr_ap_fixed_ap_fixed_32_16_5_3_0_config27_s_layg3b  |        0|  64|  32|    0|     8|   32|     1|          256|
    |layer_in_row_Array_V_1583_17_U  |cnnshift_arr_ap_fixed_ap_fixed_32_16_5_3_0_config27_s_layg3b  |        0|  64|  32|    0|     8|   32|     1|          256|
    |layer_in_row_Array_V_0_18_U     |cnnshift_arr_ap_fixed_ap_fixed_32_16_5_3_0_config27_s_layg3b  |        0|  64|  32|    0|     8|   32|     1|          256|
    |layer_in_row_Array_V_1583_18_U  |cnnshift_arr_ap_fixed_ap_fixed_32_16_5_3_0_config27_s_layg3b  |        0|  64|  32|    0|     8|   32|     1|          256|
    |layer_in_row_Array_V_0_19_U     |cnnshift_arr_ap_fixed_ap_fixed_32_16_5_3_0_config27_s_layg3b  |        0|  64|  32|    0|     8|   32|     1|          256|
    |layer_in_row_Array_V_1583_19_U  |cnnshift_arr_ap_fixed_ap_fixed_32_16_5_3_0_config27_s_layg3b  |        0|  64|  32|    0|     8|   32|     1|          256|
    |layer_in_row_Array_V_0_20_U     |cnnshift_arr_ap_fixed_ap_fixed_32_16_5_3_0_config27_s_layg3b  |        0|  64|  32|    0|     8|   32|     1|          256|
    |layer_in_row_Array_V_1583_20_U  |cnnshift_arr_ap_fixed_ap_fixed_32_16_5_3_0_config27_s_layg3b  |        0|  64|  32|    0|     8|   32|     1|          256|
    |layer_in_row_Array_V_0_21_U     |cnnshift_arr_ap_fixed_ap_fixed_32_16_5_3_0_config27_s_layg3b  |        0|  64|  32|    0|     8|   32|     1|          256|
    |layer_in_row_Array_V_1583_21_U  |cnnshift_arr_ap_fixed_ap_fixed_32_16_5_3_0_config27_s_layg3b  |        0|  64|  32|    0|     8|   32|     1|          256|
    |layer_in_row_Array_V_0_22_U     |cnnshift_arr_ap_fixed_ap_fixed_32_16_5_3_0_config27_s_layg3b  |        0|  64|  32|    0|     8|   32|     1|          256|
    |layer_in_row_Array_V_1583_22_U  |cnnshift_arr_ap_fixed_ap_fixed_32_16_5_3_0_config27_s_layg3b  |        0|  64|  32|    0|     8|   32|     1|          256|
    |layer_in_row_Array_V_0_23_U     |cnnshift_arr_ap_fixed_ap_fixed_32_16_5_3_0_config27_s_layg3b  |        0|  64|  32|    0|     8|   32|     1|          256|
    |layer_in_row_Array_V_1583_23_U  |cnnshift_arr_ap_fixed_ap_fixed_32_16_5_3_0_config27_s_layg3b  |        0|  64|  32|    0|     8|   32|     1|          256|
    |layer_in_row_Array_V_0_24_U     |cnnshift_arr_ap_fixed_ap_fixed_32_16_5_3_0_config27_s_layg3b  |        0|  64|  32|    0|     8|   32|     1|          256|
    |layer_in_row_Array_V_1583_24_U  |cnnshift_arr_ap_fixed_ap_fixed_32_16_5_3_0_config27_s_layg3b  |        0|  64|  32|    0|     8|   32|     1|          256|
    |layer_in_row_Array_V_0_25_U     |cnnshift_arr_ap_fixed_ap_fixed_32_16_5_3_0_config27_s_layg3b  |        0|  64|  32|    0|     8|   32|     1|          256|
    |layer_in_row_Array_V_1583_25_U  |cnnshift_arr_ap_fixed_ap_fixed_32_16_5_3_0_config27_s_layg3b  |        0|  64|  32|    0|     8|   32|     1|          256|
    |layer_in_row_Array_V_0_26_U     |cnnshift_arr_ap_fixed_ap_fixed_32_16_5_3_0_config27_s_layg3b  |        0|  64|  32|    0|     8|   32|     1|          256|
    |layer_in_row_Array_V_1583_26_U  |cnnshift_arr_ap_fixed_ap_fixed_32_16_5_3_0_config27_s_layg3b  |        0|  64|  32|    0|     8|   32|     1|          256|
    |layer_in_row_Array_V_0_27_U     |cnnshift_arr_ap_fixed_ap_fixed_32_16_5_3_0_config27_s_layg3b  |        0|  64|  32|    0|     8|   32|     1|          256|
    |layer_in_row_Array_V_1583_27_U  |cnnshift_arr_ap_fixed_ap_fixed_32_16_5_3_0_config27_s_layg3b  |        0|  64|  32|    0|     8|   32|     1|          256|
    |layer_in_row_Array_V_0_28_U     |cnnshift_arr_ap_fixed_ap_fixed_32_16_5_3_0_config27_s_layg3b  |        0|  64|  32|    0|     8|   32|     1|          256|
    |layer_in_row_Array_V_1583_28_U  |cnnshift_arr_ap_fixed_ap_fixed_32_16_5_3_0_config27_s_layg3b  |        0|  64|  32|    0|     8|   32|     1|          256|
    |layer_in_row_Array_V_0_29_U     |cnnshift_arr_ap_fixed_ap_fixed_32_16_5_3_0_config27_s_layg3b  |        0|  64|  32|    0|     8|   32|     1|          256|
    |layer_in_row_Array_V_1583_29_U  |cnnshift_arr_ap_fixed_ap_fixed_32_16_5_3_0_config27_s_layg3b  |        0|  64|  32|    0|     8|   32|     1|          256|
    |layer_in_row_Array_V_0_30_U     |cnnshift_arr_ap_fixed_ap_fixed_32_16_5_3_0_config27_s_layg3b  |        0|  64|  32|    0|     8|   32|     1|          256|
    |layer_in_row_Array_V_1583_30_U  |cnnshift_arr_ap_fixed_ap_fixed_32_16_5_3_0_config27_s_layg3b  |        0|  64|  32|    0|     8|   32|     1|          256|
    |layer_in_row_Array_V_0_31_U     |cnnshift_arr_ap_fixed_ap_fixed_32_16_5_3_0_config27_s_layg3b  |        0|  64|  32|    0|     8|   32|     1|          256|
    |layer_in_row_Array_V_1583_31_U  |cnnshift_arr_ap_fixed_ap_fixed_32_16_5_3_0_config27_s_layg3b  |        0|  64|  32|    0|     8|   32|     1|          256|
    |layer_in_row_Array_V_0_32_U     |cnnshift_arr_ap_fixed_ap_fixed_32_16_5_3_0_config27_s_layg3b  |        0|  64|  32|    0|     8|   32|     1|          256|
    |layer_in_row_Array_V_1583_32_U  |cnnshift_arr_ap_fixed_ap_fixed_32_16_5_3_0_config27_s_layg3b  |        0|  64|  32|    0|     8|   32|     1|          256|
    |layer_in_row_Array_V_0_33_U     |cnnshift_arr_ap_fixed_ap_fixed_32_16_5_3_0_config27_s_layg3b  |        0|  64|  32|    0|     8|   32|     1|          256|
    |layer_in_row_Array_V_1583_33_U  |cnnshift_arr_ap_fixed_ap_fixed_32_16_5_3_0_config27_s_layg3b  |        0|  64|  32|    0|     8|   32|     1|          256|
    |layer_in_row_Array_V_0_34_U     |cnnshift_arr_ap_fixed_ap_fixed_32_16_5_3_0_config27_s_layg3b  |        0|  64|  32|    0|     8|   32|     1|          256|
    |layer_in_row_Array_V_1583_34_U  |cnnshift_arr_ap_fixed_ap_fixed_32_16_5_3_0_config27_s_layg3b  |        0|  64|  32|    0|     8|   32|     1|          256|
    |layer_in_row_Array_V_0_35_U     |cnnshift_arr_ap_fixed_ap_fixed_32_16_5_3_0_config27_s_layg3b  |        0|  64|  32|    0|     8|   32|     1|          256|
    |layer_in_row_Array_V_1583_35_U  |cnnshift_arr_ap_fixed_ap_fixed_32_16_5_3_0_config27_s_layg3b  |        0|  64|  32|    0|     8|   32|     1|          256|
    |layer_in_row_Array_V_0_36_U     |cnnshift_arr_ap_fixed_ap_fixed_32_16_5_3_0_config27_s_layg3b  |        0|  64|  32|    0|     8|   32|     1|          256|
    |layer_in_row_Array_V_1583_36_U  |cnnshift_arr_ap_fixed_ap_fixed_32_16_5_3_0_config27_s_layg3b  |        0|  64|  32|    0|     8|   32|     1|          256|
    |layer_in_row_Array_V_0_37_U     |cnnshift_arr_ap_fixed_ap_fixed_32_16_5_3_0_config27_s_layg3b  |        0|  64|  32|    0|     8|   32|     1|          256|
    |layer_in_row_Array_V_1583_37_U  |cnnshift_arr_ap_fixed_ap_fixed_32_16_5_3_0_config27_s_layg3b  |        0|  64|  32|    0|     8|   32|     1|          256|
    |layer_in_row_Array_V_0_38_U     |cnnshift_arr_ap_fixed_ap_fixed_32_16_5_3_0_config27_s_layg3b  |        0|  64|  32|    0|     8|   32|     1|          256|
    |layer_in_row_Array_V_1583_38_U  |cnnshift_arr_ap_fixed_ap_fixed_32_16_5_3_0_config27_s_layg3b  |        0|  64|  32|    0|     8|   32|     1|          256|
    |layer_in_row_Array_V_0_39_U     |cnnshift_arr_ap_fixed_ap_fixed_32_16_5_3_0_config27_s_layg3b  |        0|  64|  32|    0|     8|   32|     1|          256|
    |layer_in_row_Array_V_1583_39_U  |cnnshift_arr_ap_fixed_ap_fixed_32_16_5_3_0_config27_s_layg3b  |        0|  64|  32|    0|     8|   32|     1|          256|
    |layer_in_row_Array_V_0_40_U     |cnnshift_arr_ap_fixed_ap_fixed_32_16_5_3_0_config27_s_layg3b  |        0|  64|  32|    0|     8|   32|     1|          256|
    |layer_in_row_Array_V_1583_40_U  |cnnshift_arr_ap_fixed_ap_fixed_32_16_5_3_0_config27_s_layg3b  |        0|  64|  32|    0|     8|   32|     1|          256|
    |layer_in_row_Array_V_0_41_U     |cnnshift_arr_ap_fixed_ap_fixed_32_16_5_3_0_config27_s_layg3b  |        0|  64|  32|    0|     8|   32|     1|          256|
    |layer_in_row_Array_V_1583_41_U  |cnnshift_arr_ap_fixed_ap_fixed_32_16_5_3_0_config27_s_layg3b  |        0|  64|  32|    0|     8|   32|     1|          256|
    |layer_in_row_Array_V_0_42_U     |cnnshift_arr_ap_fixed_ap_fixed_32_16_5_3_0_config27_s_layg3b  |        0|  64|  32|    0|     8|   32|     1|          256|
    |layer_in_row_Array_V_1583_42_U  |cnnshift_arr_ap_fixed_ap_fixed_32_16_5_3_0_config27_s_layg3b  |        0|  64|  32|    0|     8|   32|     1|          256|
    |layer_in_row_Array_V_0_43_U     |cnnshift_arr_ap_fixed_ap_fixed_32_16_5_3_0_config27_s_layg3b  |        0|  64|  32|    0|     8|   32|     1|          256|
    |layer_in_row_Array_V_1583_43_U  |cnnshift_arr_ap_fixed_ap_fixed_32_16_5_3_0_config27_s_layg3b  |        0|  64|  32|    0|     8|   32|     1|          256|
    |layer_in_row_Array_V_0_44_U     |cnnshift_arr_ap_fixed_ap_fixed_32_16_5_3_0_config27_s_layg3b  |        0|  64|  32|    0|     8|   32|     1|          256|
    |layer_in_row_Array_V_1583_44_U  |cnnshift_arr_ap_fixed_ap_fixed_32_16_5_3_0_config27_s_layg3b  |        0|  64|  32|    0|     8|   32|     1|          256|
    |layer_in_row_Array_V_0_45_U     |cnnshift_arr_ap_fixed_ap_fixed_32_16_5_3_0_config27_s_layg3b  |        0|  64|  32|    0|     8|   32|     1|          256|
    |layer_in_row_Array_V_1583_45_U  |cnnshift_arr_ap_fixed_ap_fixed_32_16_5_3_0_config27_s_layg3b  |        0|  64|  32|    0|     8|   32|     1|          256|
    |layer_in_row_Array_V_0_46_U     |cnnshift_arr_ap_fixed_ap_fixed_32_16_5_3_0_config27_s_layg3b  |        0|  64|  32|    0|     8|   32|     1|          256|
    |layer_in_row_Array_V_1583_46_U  |cnnshift_arr_ap_fixed_ap_fixed_32_16_5_3_0_config27_s_layg3b  |        0|  64|  32|    0|     8|   32|     1|          256|
    |layer_in_row_Array_V_0_47_U     |cnnshift_arr_ap_fixed_ap_fixed_32_16_5_3_0_config27_s_layg3b  |        0|  64|  32|    0|     8|   32|     1|          256|
    |layer_in_row_Array_V_1583_47_U  |cnnshift_arr_ap_fixed_ap_fixed_32_16_5_3_0_config27_s_layg3b  |        0|  64|  32|    0|     8|   32|     1|          256|
    |layer_in_row_Array_V_0_48_U     |cnnshift_arr_ap_fixed_ap_fixed_32_16_5_3_0_config27_s_layg3b  |        0|  64|  32|    0|     8|   32|     1|          256|
    |layer_in_row_Array_V_1583_48_U  |cnnshift_arr_ap_fixed_ap_fixed_32_16_5_3_0_config27_s_layg3b  |        0|  64|  32|    0|     8|   32|     1|          256|
    |layer_in_row_Array_V_0_49_U     |cnnshift_arr_ap_fixed_ap_fixed_32_16_5_3_0_config27_s_layg3b  |        0|  64|  32|    0|     8|   32|     1|          256|
    |layer_in_row_Array_V_1583_49_U  |cnnshift_arr_ap_fixed_ap_fixed_32_16_5_3_0_config27_s_layg3b  |        0|  64|  32|    0|     8|   32|     1|          256|
    |layer_in_row_Array_V_0_50_U     |cnnshift_arr_ap_fixed_ap_fixed_32_16_5_3_0_config27_s_layg3b  |        0|  64|  32|    0|     8|   32|     1|          256|
    |layer_in_row_Array_V_1583_50_U  |cnnshift_arr_ap_fixed_ap_fixed_32_16_5_3_0_config27_s_layg3b  |        0|  64|  32|    0|     8|   32|     1|          256|
    |layer_in_row_Array_V_0_51_U     |cnnshift_arr_ap_fixed_ap_fixed_32_16_5_3_0_config27_s_layg3b  |        0|  64|  32|    0|     8|   32|     1|          256|
    |layer_in_row_Array_V_1583_51_U  |cnnshift_arr_ap_fixed_ap_fixed_32_16_5_3_0_config27_s_layg3b  |        0|  64|  32|    0|     8|   32|     1|          256|
    |layer_in_row_Array_V_0_52_U     |cnnshift_arr_ap_fixed_ap_fixed_32_16_5_3_0_config27_s_layg3b  |        0|  64|  32|    0|     8|   32|     1|          256|
    |layer_in_row_Array_V_1583_52_U  |cnnshift_arr_ap_fixed_ap_fixed_32_16_5_3_0_config27_s_layg3b  |        0|  64|  32|    0|     8|   32|     1|          256|
    |layer_in_row_Array_V_0_53_U     |cnnshift_arr_ap_fixed_ap_fixed_32_16_5_3_0_config27_s_layg3b  |        0|  64|  32|    0|     8|   32|     1|          256|
    |layer_in_row_Array_V_1583_53_U  |cnnshift_arr_ap_fixed_ap_fixed_32_16_5_3_0_config27_s_layg3b  |        0|  64|  32|    0|     8|   32|     1|          256|
    |layer_in_row_Array_V_0_54_U     |cnnshift_arr_ap_fixed_ap_fixed_32_16_5_3_0_config27_s_layg3b  |        0|  64|  32|    0|     8|   32|     1|          256|
    |layer_in_row_Array_V_1583_54_U  |cnnshift_arr_ap_fixed_ap_fixed_32_16_5_3_0_config27_s_layg3b  |        0|  64|  32|    0|     8|   32|     1|          256|
    |layer_in_row_Array_V_0_55_U     |cnnshift_arr_ap_fixed_ap_fixed_32_16_5_3_0_config27_s_layg3b  |        0|  64|  32|    0|     8|   32|     1|          256|
    |layer_in_row_Array_V_1583_55_U  |cnnshift_arr_ap_fixed_ap_fixed_32_16_5_3_0_config27_s_layg3b  |        0|  64|  32|    0|     8|   32|     1|          256|
    |layer_in_row_Array_V_0_56_U     |cnnshift_arr_ap_fixed_ap_fixed_32_16_5_3_0_config27_s_layg3b  |        0|  64|  32|    0|     8|   32|     1|          256|
    |layer_in_row_Array_V_1583_56_U  |cnnshift_arr_ap_fixed_ap_fixed_32_16_5_3_0_config27_s_layg3b  |        0|  64|  32|    0|     8|   32|     1|          256|
    |layer_in_row_Array_V_0_57_U     |cnnshift_arr_ap_fixed_ap_fixed_32_16_5_3_0_config27_s_layg3b  |        0|  64|  32|    0|     8|   32|     1|          256|
    |layer_in_row_Array_V_1583_57_U  |cnnshift_arr_ap_fixed_ap_fixed_32_16_5_3_0_config27_s_layg3b  |        0|  64|  32|    0|     8|   32|     1|          256|
    |layer_in_row_Array_V_0_58_U     |cnnshift_arr_ap_fixed_ap_fixed_32_16_5_3_0_config27_s_layg3b  |        0|  64|  32|    0|     8|   32|     1|          256|
    |layer_in_row_Array_V_1583_58_U  |cnnshift_arr_ap_fixed_ap_fixed_32_16_5_3_0_config27_s_layg3b  |        0|  64|  32|    0|     8|   32|     1|          256|
    |layer_in_row_Array_V_0_59_U     |cnnshift_arr_ap_fixed_ap_fixed_32_16_5_3_0_config27_s_layg3b  |        0|  64|  32|    0|     8|   32|     1|          256|
    |layer_in_row_Array_V_1583_59_U  |cnnshift_arr_ap_fixed_ap_fixed_32_16_5_3_0_config27_s_layg3b  |        0|  64|  32|    0|     8|   32|     1|          256|
    |layer_in_row_Array_V_0_60_U     |cnnshift_arr_ap_fixed_ap_fixed_32_16_5_3_0_config27_s_layg3b  |        0|  64|  32|    0|     8|   32|     1|          256|
    |layer_in_row_Array_V_1583_60_U  |cnnshift_arr_ap_fixed_ap_fixed_32_16_5_3_0_config27_s_layg3b  |        0|  64|  32|    0|     8|   32|     1|          256|
    |layer_in_row_Array_V_0_61_U     |cnnshift_arr_ap_fixed_ap_fixed_32_16_5_3_0_config27_s_layg3b  |        0|  64|  32|    0|     8|   32|     1|          256|
    |layer_in_row_Array_V_1583_61_U  |cnnshift_arr_ap_fixed_ap_fixed_32_16_5_3_0_config27_s_layg3b  |        0|  64|  32|    0|     8|   32|     1|          256|
    |layer_in_row_Array_V_0_62_U     |cnnshift_arr_ap_fixed_ap_fixed_32_16_5_3_0_config27_s_layg3b  |        0|  64|  32|    0|     8|   32|     1|          256|
    |layer_in_row_Array_V_1583_62_U  |cnnshift_arr_ap_fixed_ap_fixed_32_16_5_3_0_config27_s_layg3b  |        0|  64|  32|    0|     8|   32|     1|          256|
    |layer_in_row_Array_V_0_63_U     |cnnshift_arr_ap_fixed_ap_fixed_32_16_5_3_0_config27_s_layg3b  |        0|  64|  32|    0|     8|   32|     1|          256|
    |layer_in_row_Array_V_1583_63_U  |cnnshift_arr_ap_fixed_ap_fixed_32_16_5_3_0_config27_s_layg3b  |        0|  64|  32|    0|     8|   32|     1|          256|
    +--------------------------------+--------------------------------------------------------------+---------+----+----+-----+------+-----+------+-------------+
    |Total                           |                                                              |        0|8192|4096|    0|  1024| 4096|   128|        32768|
    +--------------------------------+--------------------------------------------------------------+---------+----+----+-----+------+-----+------+-------------+

    * FIFO: 
    N/A

    * Expression: 
    N/A

    * Multiplexer: 
    +-------------------+------+-----------+-----+-----------+
    |        Name       |  LUT | Input Size| Bits| Total Bits|
    +-------------------+------+-----------+-----+-----------+
    |ap_NS_fsm          |  1685|        385|    1|        385|
    |output_V_address0  |  1685|        385|   10|       3850|
    |output_V_address1  |  1685|        385|   10|       3850|
    |output_V_d0        |  1297|        288|   32|       9216|
    |output_V_d1        |  1297|        288|   32|       9216|
    +-------------------+------+-----------+-----+-----------+
    |Total              |  7649|       1731|   85|      26517|
    +-------------------+------+-----------+-----+-----------+

    * Register: 
    +-------------------------------+-----+----+-----+-----------+
    |              Name             |  FF | LUT| Bits| Const Bits|
    +-------------------------------+-----+----+-----+-----------+
    |DataIn_V_assign_523_reg_10909  |   32|   0|   32|          0|
    |DataIn_V_assign_524_reg_10915  |   32|   0|   32|          0|
    |DataIn_V_assign_525_reg_10921  |   32|   0|   32|          0|
    |DataIn_V_assign_526_reg_10927  |   32|   0|   32|          0|
    |DataIn_V_assign_527_reg_10933  |   32|   0|   32|          0|
    |DataIn_V_assign_528_reg_10939  |   32|   0|   32|          0|
    |DataIn_V_assign_529_reg_10945  |   32|   0|   32|          0|
    |DataIn_V_assign_530_reg_10951  |   32|   0|   32|          0|
    |DataIn_V_assign_531_reg_10957  |   32|   0|   32|          0|
    |DataIn_V_assign_532_reg_10963  |   32|   0|   32|          0|
    |DataIn_V_assign_533_reg_10969  |   32|   0|   32|          0|
    |DataIn_V_assign_534_reg_10975  |   32|   0|   32|          0|
    |DataIn_V_assign_535_reg_10981  |   32|   0|   32|          0|
    |DataIn_V_assign_536_reg_10987  |   32|   0|   32|          0|
    |DataIn_V_assign_537_reg_10993  |   32|   0|   32|          0|
    |DataIn_V_assign_538_reg_10999  |   32|   0|   32|          0|
    |DataIn_V_assign_539_reg_11005  |   32|   0|   32|          0|
    |DataIn_V_assign_540_reg_11011  |   32|   0|   32|          0|
    |DataIn_V_assign_541_reg_11017  |   32|   0|   32|          0|
    |DataIn_V_assign_542_reg_11023  |   32|   0|   32|          0|
    |DataIn_V_assign_543_reg_11029  |   32|   0|   32|          0|
    |DataIn_V_assign_544_reg_11035  |   32|   0|   32|          0|
    |DataIn_V_assign_545_reg_11041  |   32|   0|   32|          0|
    |DataIn_V_assign_546_reg_11047  |   32|   0|   32|          0|
    |DataIn_V_assign_547_reg_11053  |   32|   0|   32|          0|
    |DataIn_V_assign_548_reg_11059  |   32|   0|   32|          0|
    |DataIn_V_assign_549_reg_11065  |   32|   0|   32|          0|
    |DataIn_V_assign_550_reg_11071  |   32|   0|   32|          0|
    |DataIn_V_assign_551_reg_11077  |   32|   0|   32|          0|
    |DataIn_V_assign_552_reg_11083  |   32|   0|   32|          0|
    |DataIn_V_assign_553_reg_11089  |   32|   0|   32|          0|
    |DataIn_V_assign_554_reg_11095  |   32|   0|   32|          0|
    |DataIn_V_assign_555_reg_11101  |   32|   0|   32|          0|
    |DataIn_V_assign_556_reg_11107  |   32|   0|   32|          0|
    |DataIn_V_assign_557_reg_11113  |   32|   0|   32|          0|
    |DataIn_V_assign_558_reg_11119  |   32|   0|   32|          0|
    |DataIn_V_assign_559_reg_11125  |   32|   0|   32|          0|
    |DataIn_V_assign_560_reg_11131  |   32|   0|   32|          0|
    |DataIn_V_assign_561_reg_11137  |   32|   0|   32|          0|
    |DataIn_V_assign_562_reg_11143  |   32|   0|   32|          0|
    |DataIn_V_assign_563_reg_11149  |   32|   0|   32|          0|
    |DataIn_V_assign_564_reg_11155  |   32|   0|   32|          0|
    |DataIn_V_assign_565_reg_11161  |   32|   0|   32|          0|
    |DataIn_V_assign_566_reg_11167  |   32|   0|   32|          0|
    |DataIn_V_assign_567_reg_11173  |   32|   0|   32|          0|
    |DataIn_V_assign_568_reg_11179  |   32|   0|   32|          0|
    |DataIn_V_assign_569_reg_11185  |   32|   0|   32|          0|
    |DataIn_V_assign_570_reg_11191  |   32|   0|   32|          0|
    |DataIn_V_assign_571_reg_11197  |   32|   0|   32|          0|
    |DataIn_V_assign_572_reg_11203  |   32|   0|   32|          0|
    |DataIn_V_assign_573_reg_11209  |   32|   0|   32|          0|
    |DataIn_V_assign_574_reg_11215  |   32|   0|   32|          0|
    |DataIn_V_assign_575_reg_11221  |   32|   0|   32|          0|
    |DataIn_V_assign_576_reg_11227  |   32|   0|   32|          0|
    |DataIn_V_assign_577_reg_11233  |   32|   0|   32|          0|
    |DataIn_V_assign_578_reg_11239  |   32|   0|   32|          0|
    |DataIn_V_assign_579_reg_11245  |   32|   0|   32|          0|
    |DataIn_V_assign_580_reg_11251  |   32|   0|   32|          0|
    |DataIn_V_assign_581_reg_11257  |   32|   0|   32|          0|
    |DataIn_V_assign_582_reg_11263  |   32|   0|   32|          0|
    |DataIn_V_assign_583_reg_11269  |   32|   0|   32|          0|
    |DataIn_V_assign_584_reg_11275  |   32|   0|   32|          0|
    |DataIn_V_assign_s_reg_10894    |   32|   0|   32|          0|
    |DataOut_V1336_reg_12516        |   32|   0|   32|          0|
    |DataOut_V_1210_reg_10884       |   32|   0|   32|          0|
    |DataOut_V_1211_reg_10899       |   32|   0|   32|          0|
    |DataOut_V_1212_reg_10904       |   32|   0|   32|          0|
    |DataOut_V_1213_reg_11301       |   32|   0|   32|          0|
    |DataOut_V_1214_reg_11306       |   32|   0|   32|          0|
    |DataOut_V_1215_reg_11311       |   32|   0|   32|          0|
    |DataOut_V_1216_reg_11316       |   32|   0|   32|          0|
    |DataOut_V_1217_reg_11341       |   32|   0|   32|          0|
    |DataOut_V_1218_reg_11346       |   32|   0|   32|          0|
    |DataOut_V_1219_reg_11351       |   32|   0|   32|          0|
    |DataOut_V_1220_reg_11356       |   32|   0|   32|          0|
    |DataOut_V_1221_reg_11381       |   32|   0|   32|          0|
    |DataOut_V_1222_reg_11386       |   32|   0|   32|          0|
    |DataOut_V_1223_reg_11391       |   32|   0|   32|          0|
    |DataOut_V_1224_reg_11396       |   32|   0|   32|          0|
    |DataOut_V_1225_reg_11421       |   32|   0|   32|          0|
    |DataOut_V_1226_reg_11426       |   32|   0|   32|          0|
    |DataOut_V_1227_reg_11431       |   32|   0|   32|          0|
    |DataOut_V_1228_reg_11436       |   32|   0|   32|          0|
    |DataOut_V_1229_reg_11461       |   32|   0|   32|          0|
    |DataOut_V_1230_reg_11466       |   32|   0|   32|          0|
    |DataOut_V_1231_reg_11471       |   32|   0|   32|          0|
    |DataOut_V_1232_reg_11476       |   32|   0|   32|          0|
    |DataOut_V_1233_reg_11501       |   32|   0|   32|          0|
    |DataOut_V_1234_reg_11506       |   32|   0|   32|          0|
    |DataOut_V_1235_reg_11511       |   32|   0|   32|          0|
    |DataOut_V_1236_reg_11516       |   32|   0|   32|          0|
    |DataOut_V_1237_reg_11541       |   32|   0|   32|          0|
    |DataOut_V_1238_reg_11546       |   32|   0|   32|          0|
    |DataOut_V_1239_reg_11551       |   32|   0|   32|          0|
    |DataOut_V_1240_reg_11556       |   32|   0|   32|          0|
    |DataOut_V_1241_reg_11581       |   32|   0|   32|          0|
    |DataOut_V_1242_reg_11586       |   32|   0|   32|          0|
    |DataOut_V_1243_reg_11591       |   32|   0|   32|          0|
    |DataOut_V_1244_reg_11596       |   32|   0|   32|          0|
    |DataOut_V_1245_reg_11621       |   32|   0|   32|          0|
    |DataOut_V_1246_reg_11626       |   32|   0|   32|          0|
    |DataOut_V_1247_reg_11631       |   32|   0|   32|          0|
    |DataOut_V_1248_reg_11636       |   32|   0|   32|          0|
    |DataOut_V_1249_reg_11661       |   32|   0|   32|          0|
    |DataOut_V_1250_reg_11666       |   32|   0|   32|          0|
    |DataOut_V_1251_reg_11671       |   32|   0|   32|          0|
    |DataOut_V_1252_reg_11676       |   32|   0|   32|          0|
    |DataOut_V_1253_reg_11701       |   32|   0|   32|          0|
    |DataOut_V_1254_reg_11706       |   32|   0|   32|          0|
    |DataOut_V_1255_reg_11711       |   32|   0|   32|          0|
    |DataOut_V_1256_reg_11716       |   32|   0|   32|          0|
    |DataOut_V_1257_reg_11741       |   32|   0|   32|          0|
    |DataOut_V_1258_reg_11746       |   32|   0|   32|          0|
    |DataOut_V_1259_reg_11751       |   32|   0|   32|          0|
    |DataOut_V_1260_reg_11756       |   32|   0|   32|          0|
    |DataOut_V_1261_reg_11781       |   32|   0|   32|          0|
    |DataOut_V_1262_reg_11786       |   32|   0|   32|          0|
    |DataOut_V_1263_reg_11791       |   32|   0|   32|          0|
    |DataOut_V_1264_reg_11796       |   32|   0|   32|          0|
    |DataOut_V_1265_reg_11821       |   32|   0|   32|          0|
    |DataOut_V_1266_reg_11826       |   32|   0|   32|          0|
    |DataOut_V_1267_reg_11831       |   32|   0|   32|          0|
    |DataOut_V_1268_reg_11836       |   32|   0|   32|          0|
    |DataOut_V_1269_reg_11861       |   32|   0|   32|          0|
    |DataOut_V_1270_reg_11866       |   32|   0|   32|          0|
    |DataOut_V_1271_reg_11871       |   32|   0|   32|          0|
    |DataOut_V_1272_reg_11876       |   32|   0|   32|          0|
    |DataOut_V_1273_reg_11901       |   32|   0|   32|          0|
    |DataOut_V_1274_reg_11906       |   32|   0|   32|          0|
    |DataOut_V_1275_reg_11911       |   32|   0|   32|          0|
    |DataOut_V_1276_reg_11916       |   32|   0|   32|          0|
    |DataOut_V_1277_reg_11941       |   32|   0|   32|          0|
    |DataOut_V_1278_reg_11946       |   32|   0|   32|          0|
    |DataOut_V_1279_reg_11951       |   32|   0|   32|          0|
    |DataOut_V_1280_reg_11956       |   32|   0|   32|          0|
    |DataOut_V_1281_reg_11981       |   32|   0|   32|          0|
    |DataOut_V_1282_reg_11986       |   32|   0|   32|          0|
    |DataOut_V_1283_reg_11991       |   32|   0|   32|          0|
    |DataOut_V_1284_reg_11996       |   32|   0|   32|          0|
    |DataOut_V_1285_reg_12021       |   32|   0|   32|          0|
    |DataOut_V_1286_reg_12026       |   32|   0|   32|          0|
    |DataOut_V_1287_reg_12031       |   32|   0|   32|          0|
    |DataOut_V_1288_reg_12036       |   32|   0|   32|          0|
    |DataOut_V_1289_reg_12061       |   32|   0|   32|          0|
    |DataOut_V_1290_reg_12066       |   32|   0|   32|          0|
    |DataOut_V_1291_reg_12071       |   32|   0|   32|          0|
    |DataOut_V_1292_reg_12076       |   32|   0|   32|          0|
    |DataOut_V_1293_reg_12101       |   32|   0|   32|          0|
    |DataOut_V_1294_reg_12106       |   32|   0|   32|          0|
    |DataOut_V_1295_reg_12111       |   32|   0|   32|          0|
    |DataOut_V_1296_reg_12116       |   32|   0|   32|          0|
    |DataOut_V_1297_reg_12141       |   32|   0|   32|          0|
    |DataOut_V_1298_reg_12146       |   32|   0|   32|          0|
    |DataOut_V_1299_reg_12151       |   32|   0|   32|          0|
    |DataOut_V_1300_reg_12156       |   32|   0|   32|          0|
    |DataOut_V_1301_reg_12181       |   32|   0|   32|          0|
    |DataOut_V_1302_reg_12186       |   32|   0|   32|          0|
    |DataOut_V_1303_reg_12191       |   32|   0|   32|          0|
    |DataOut_V_1304_reg_12196       |   32|   0|   32|          0|
    |DataOut_V_1305_reg_12221       |   32|   0|   32|          0|
    |DataOut_V_1306_reg_12226       |   32|   0|   32|          0|
    |DataOut_V_1307_reg_12231       |   32|   0|   32|          0|
    |DataOut_V_1308_reg_12236       |   32|   0|   32|          0|
    |DataOut_V_1309_reg_12261       |   32|   0|   32|          0|
    |DataOut_V_1310_reg_12266       |   32|   0|   32|          0|
    |DataOut_V_1311_reg_12271       |   32|   0|   32|          0|
    |DataOut_V_1312_reg_12276       |   32|   0|   32|          0|
    |DataOut_V_1313_reg_12301       |   32|   0|   32|          0|
    |DataOut_V_1314_reg_12306       |   32|   0|   32|          0|
    |DataOut_V_1315_reg_12311       |   32|   0|   32|          0|
    |DataOut_V_1316_reg_12316       |   32|   0|   32|          0|
    |DataOut_V_1317_reg_12341       |   32|   0|   32|          0|
    |DataOut_V_1318_reg_12346       |   32|   0|   32|          0|
    |DataOut_V_1319_reg_12351       |   32|   0|   32|          0|
    |DataOut_V_1320_reg_12356       |   32|   0|   32|          0|
    |DataOut_V_1321_reg_12381       |   32|   0|   32|          0|
    |DataOut_V_1322_reg_12386       |   32|   0|   32|          0|
    |DataOut_V_1323_reg_12391       |   32|   0|   32|          0|
    |DataOut_V_1324_reg_12396       |   32|   0|   32|          0|
    |DataOut_V_1325_reg_12421       |   32|   0|   32|          0|
    |DataOut_V_1326_reg_12426       |   32|   0|   32|          0|
    |DataOut_V_1327_reg_12431       |   32|   0|   32|          0|
    |DataOut_V_1328_reg_12436       |   32|   0|   32|          0|
    |DataOut_V_1329_reg_12461       |   32|   0|   32|          0|
    |DataOut_V_1330_reg_12466       |   32|   0|   32|          0|
    |DataOut_V_1331_reg_12471       |   32|   0|   32|          0|
    |DataOut_V_1332_reg_12476       |   32|   0|   32|          0|
    |DataOut_V_1333_reg_12501       |   32|   0|   32|          0|
    |DataOut_V_1334_reg_12506       |   32|   0|   32|          0|
    |DataOut_V_1335_reg_12511       |   32|   0|   32|          0|
    |DataOut_V_reg_10889            |   32|   0|   32|          0|
    |ap_CS_fsm                      |  384|   0|  384|          0|
    |output_V_load_3245_reg_9019    |   32|   0|   32|          0|
    |output_V_load_3246_reg_9024    |   32|   0|   32|          0|
    |output_V_load_3247_reg_9039    |   32|   0|   32|          0|
    |output_V_load_3248_reg_9044    |   32|   0|   32|          0|
    |output_V_load_3249_reg_9059    |   32|   0|   32|          0|
    |output_V_load_3250_reg_9064    |   32|   0|   32|          0|
    |output_V_load_3251_reg_9079    |   32|   0|   32|          0|
    |output_V_load_3252_reg_9084    |   32|   0|   32|          0|
    |output_V_load_3253_reg_9099    |   32|   0|   32|          0|
    |output_V_load_3254_reg_9104    |   32|   0|   32|          0|
    |output_V_load_3255_reg_9119    |   32|   0|   32|          0|
    |output_V_load_3256_reg_9124    |   32|   0|   32|          0|
    |output_V_load_3257_reg_9139    |   32|   0|   32|          0|
    |output_V_load_3258_reg_9144    |   32|   0|   32|          0|
    |output_V_load_3259_reg_9159    |   32|   0|   32|          0|
    |output_V_load_3260_reg_9164    |   32|   0|   32|          0|
    |output_V_load_3261_reg_9179    |   32|   0|   32|          0|
    |output_V_load_3262_reg_9184    |   32|   0|   32|          0|
    |output_V_load_3263_reg_9199    |   32|   0|   32|          0|
    |output_V_load_3264_reg_9204    |   32|   0|   32|          0|
    |output_V_load_3265_reg_9219    |   32|   0|   32|          0|
    |output_V_load_3266_reg_9224    |   32|   0|   32|          0|
    |output_V_load_3267_reg_9239    |   32|   0|   32|          0|
    |output_V_load_3268_reg_9244    |   32|   0|   32|          0|
    |output_V_load_3269_reg_9259    |   32|   0|   32|          0|
    |output_V_load_3270_reg_9264    |   32|   0|   32|          0|
    |output_V_load_3271_reg_9279    |   32|   0|   32|          0|
    |output_V_load_3272_reg_9284    |   32|   0|   32|          0|
    |output_V_load_3273_reg_9299    |   32|   0|   32|          0|
    |output_V_load_3274_reg_9304    |   32|   0|   32|          0|
    |output_V_load_3275_reg_9319    |   32|   0|   32|          0|
    |output_V_load_3276_reg_9324    |   32|   0|   32|          0|
    |output_V_load_3277_reg_9339    |   32|   0|   32|          0|
    |output_V_load_3278_reg_9344    |   32|   0|   32|          0|
    |output_V_load_3279_reg_9359    |   32|   0|   32|          0|
    |output_V_load_3280_reg_9364    |   32|   0|   32|          0|
    |output_V_load_3281_reg_9379    |   32|   0|   32|          0|
    |output_V_load_3282_reg_9384    |   32|   0|   32|          0|
    |output_V_load_3283_reg_9399    |   32|   0|   32|          0|
    |output_V_load_3284_reg_9404    |   32|   0|   32|          0|
    |output_V_load_3285_reg_9419    |   32|   0|   32|          0|
    |output_V_load_3286_reg_9424    |   32|   0|   32|          0|
    |output_V_load_3287_reg_9439    |   32|   0|   32|          0|
    |output_V_load_3288_reg_9444    |   32|   0|   32|          0|
    |output_V_load_3289_reg_9459    |   32|   0|   32|          0|
    |output_V_load_3290_reg_9464    |   32|   0|   32|          0|
    |output_V_load_3291_reg_9479    |   32|   0|   32|          0|
    |output_V_load_3292_reg_9484    |   32|   0|   32|          0|
    |output_V_load_3293_reg_9499    |   32|   0|   32|          0|
    |output_V_load_3294_reg_9504    |   32|   0|   32|          0|
    |output_V_load_3295_reg_9519    |   32|   0|   32|          0|
    |output_V_load_3296_reg_9524    |   32|   0|   32|          0|
    |output_V_load_3297_reg_9539    |   32|   0|   32|          0|
    |output_V_load_3298_reg_9544    |   32|   0|   32|          0|
    |output_V_load_3299_reg_9559    |   32|   0|   32|          0|
    |output_V_load_3300_reg_9564    |   32|   0|   32|          0|
    |output_V_load_3301_reg_9579    |   32|   0|   32|          0|
    |output_V_load_3302_reg_9584    |   32|   0|   32|          0|
    |output_V_load_3303_reg_9599    |   32|   0|   32|          0|
    |output_V_load_3304_reg_9604    |   32|   0|   32|          0|
    |output_V_load_3305_reg_9619    |   32|   0|   32|          0|
    |output_V_load_3306_reg_9624    |   32|   0|   32|          0|
    |output_V_load_3307_reg_9639    |   32|   0|   32|          0|
    |output_V_load_3308_reg_9644    |   32|   0|   32|          0|
    |output_V_load_3309_reg_9659    |   32|   0|   32|          0|
    |output_V_load_3310_reg_9664    |   32|   0|   32|          0|
    |output_V_load_3311_reg_9679    |   32|   0|   32|          0|
    |output_V_load_3312_reg_9684    |   32|   0|   32|          0|
    |output_V_load_3313_reg_9699    |   32|   0|   32|          0|
    |output_V_load_3314_reg_9704    |   32|   0|   32|          0|
    |output_V_load_3315_reg_9719    |   32|   0|   32|          0|
    |output_V_load_3316_reg_9724    |   32|   0|   32|          0|
    |output_V_load_3317_reg_9739    |   32|   0|   32|          0|
    |output_V_load_3318_reg_9744    |   32|   0|   32|          0|
    |output_V_load_3319_reg_9759    |   32|   0|   32|          0|
    |output_V_load_3320_reg_9764    |   32|   0|   32|          0|
    |output_V_load_3321_reg_9779    |   32|   0|   32|          0|
    |output_V_load_3322_reg_9784    |   32|   0|   32|          0|
    |output_V_load_3323_reg_9799    |   32|   0|   32|          0|
    |output_V_load_3324_reg_9804    |   32|   0|   32|          0|
    |output_V_load_3325_reg_9819    |   32|   0|   32|          0|
    |output_V_load_3326_reg_9824    |   32|   0|   32|          0|
    |output_V_load_3327_reg_9839    |   32|   0|   32|          0|
    |output_V_load_3328_reg_9844    |   32|   0|   32|          0|
    |output_V_load_3329_reg_9859    |   32|   0|   32|          0|
    |output_V_load_3330_reg_9864    |   32|   0|   32|          0|
    |output_V_load_3331_reg_9879    |   32|   0|   32|          0|
    |output_V_load_3332_reg_9884    |   32|   0|   32|          0|
    |output_V_load_3333_reg_9899    |   32|   0|   32|          0|
    |output_V_load_3334_reg_9904    |   32|   0|   32|          0|
    |output_V_load_3335_reg_9919    |   32|   0|   32|          0|
    |output_V_load_3336_reg_9924    |   32|   0|   32|          0|
    |output_V_load_3337_reg_9939    |   32|   0|   32|          0|
    |output_V_load_3338_reg_9944    |   32|   0|   32|          0|
    |output_V_load_3339_reg_9959    |   32|   0|   32|          0|
    |output_V_load_3340_reg_9964    |   32|   0|   32|          0|
    |output_V_load_3341_reg_9979    |   32|   0|   32|          0|
    |output_V_load_3342_reg_9984    |   32|   0|   32|          0|
    |output_V_load_3343_reg_9999    |   32|   0|   32|          0|
    |output_V_load_3344_reg_10004   |   32|   0|   32|          0|
    |output_V_load_3345_reg_10019   |   32|   0|   32|          0|
    |output_V_load_3346_reg_10024   |   32|   0|   32|          0|
    |output_V_load_3347_reg_10039   |   32|   0|   32|          0|
    |output_V_load_3348_reg_10044   |   32|   0|   32|          0|
    |output_V_load_3349_reg_10059   |   32|   0|   32|          0|
    |output_V_load_3350_reg_10064   |   32|   0|   32|          0|
    |output_V_load_3351_reg_10079   |   32|   0|   32|          0|
    |output_V_load_3352_reg_10084   |   32|   0|   32|          0|
    |output_V_load_3353_reg_10099   |   32|   0|   32|          0|
    |output_V_load_3354_reg_10104   |   32|   0|   32|          0|
    |output_V_load_3355_reg_10119   |   32|   0|   32|          0|
    |output_V_load_3356_reg_10124   |   32|   0|   32|          0|
    |output_V_load_3357_reg_10139   |   32|   0|   32|          0|
    |output_V_load_3358_reg_10144   |   32|   0|   32|          0|
    |output_V_load_3359_reg_10159   |   32|   0|   32|          0|
    |output_V_load_3360_reg_10164   |   32|   0|   32|          0|
    |output_V_load_3361_reg_10179   |   32|   0|   32|          0|
    |output_V_load_3362_reg_10184   |   32|   0|   32|          0|
    |output_V_load_3363_reg_10199   |   32|   0|   32|          0|
    |output_V_load_3364_reg_10204   |   32|   0|   32|          0|
    |output_V_load_3365_reg_10219   |   32|   0|   32|          0|
    |output_V_load_3366_reg_10224   |   32|   0|   32|          0|
    |output_V_load_3367_reg_10239   |   32|   0|   32|          0|
    |output_V_load_3368_reg_10244   |   32|   0|   32|          0|
    |output_V_load_3369_reg_10259   |   32|   0|   32|          0|
    |output_V_load_3370_reg_10264   |   32|   0|   32|          0|
    |output_V_load_3371_reg_10279   |   32|   0|   32|          0|
    |output_V_load_3372_reg_10284   |   32|   0|   32|          0|
    |output_V_load_3373_reg_10299   |   32|   0|   32|          0|
    |output_V_load_3374_reg_10304   |   32|   0|   32|          0|
    |output_V_load_3375_reg_10319   |   32|   0|   32|          0|
    |output_V_load_3376_reg_10324   |   32|   0|   32|          0|
    |output_V_load_3377_reg_10339   |   32|   0|   32|          0|
    |output_V_load_3378_reg_10344   |   32|   0|   32|          0|
    |output_V_load_3379_reg_10359   |   32|   0|   32|          0|
    |output_V_load_3380_reg_10364   |   32|   0|   32|          0|
    |output_V_load_3381_reg_10379   |   32|   0|   32|          0|
    |output_V_load_3382_reg_10384   |   32|   0|   32|          0|
    |output_V_load_3383_reg_10399   |   32|   0|   32|          0|
    |output_V_load_3384_reg_10404   |   32|   0|   32|          0|
    |output_V_load_3385_reg_10419   |   32|   0|   32|          0|
    |output_V_load_3386_reg_10424   |   32|   0|   32|          0|
    |output_V_load_3387_reg_10439   |   32|   0|   32|          0|
    |output_V_load_3388_reg_10444   |   32|   0|   32|          0|
    |output_V_load_3389_reg_10459   |   32|   0|   32|          0|
    |output_V_load_3390_reg_10464   |   32|   0|   32|          0|
    |output_V_load_3391_reg_10479   |   32|   0|   32|          0|
    |output_V_load_3392_reg_10484   |   32|   0|   32|          0|
    |output_V_load_3393_reg_10499   |   32|   0|   32|          0|
    |output_V_load_3394_reg_10504   |   32|   0|   32|          0|
    |output_V_load_3395_reg_10519   |   32|   0|   32|          0|
    |output_V_load_3396_reg_10524   |   32|   0|   32|          0|
    |output_V_load_3397_reg_10539   |   32|   0|   32|          0|
    |output_V_load_3398_reg_10544   |   32|   0|   32|          0|
    |output_V_load_3399_reg_10559   |   32|   0|   32|          0|
    |output_V_load_3400_reg_10564   |   32|   0|   32|          0|
    |output_V_load_3401_reg_10579   |   32|   0|   32|          0|
    |output_V_load_3402_reg_10584   |   32|   0|   32|          0|
    |output_V_load_3403_reg_10599   |   32|   0|   32|          0|
    |output_V_load_3404_reg_10604   |   32|   0|   32|          0|
    |output_V_load_3405_reg_10619   |   32|   0|   32|          0|
    |output_V_load_3406_reg_10624   |   32|   0|   32|          0|
    |output_V_load_3407_reg_10639   |   32|   0|   32|          0|
    |output_V_load_3408_reg_10644   |   32|   0|   32|          0|
    |output_V_load_3409_reg_10659   |   32|   0|   32|          0|
    |output_V_load_3410_reg_10664   |   32|   0|   32|          0|
    |output_V_load_3411_reg_10679   |   32|   0|   32|          0|
    |output_V_load_3412_reg_10684   |   32|   0|   32|          0|
    |output_V_load_3413_reg_10699   |   32|   0|   32|          0|
    |output_V_load_3414_reg_10704   |   32|   0|   32|          0|
    |output_V_load_3415_reg_10719   |   32|   0|   32|          0|
    |output_V_load_3416_reg_10724   |   32|   0|   32|          0|
    |output_V_load_3417_reg_10739   |   32|   0|   32|          0|
    |output_V_load_3418_reg_10744   |   32|   0|   32|          0|
    |output_V_load_3419_reg_10759   |   32|   0|   32|          0|
    |output_V_load_3420_reg_10764   |   32|   0|   32|          0|
    |output_V_load_3421_reg_10779   |   32|   0|   32|          0|
    |output_V_load_3422_reg_10784   |   32|   0|   32|          0|
    |output_V_load_3423_reg_10799   |   32|   0|   32|          0|
    |output_V_load_3424_reg_10804   |   32|   0|   32|          0|
    |output_V_load_3425_reg_10819   |   32|   0|   32|          0|
    |output_V_load_3426_reg_10824   |   32|   0|   32|          0|
    |output_V_load_3427_reg_10839   |   32|   0|   32|          0|
    |output_V_load_3428_reg_10844   |   32|   0|   32|          0|
    |output_V_load_3429_reg_10859   |   32|   0|   32|          0|
    |output_V_load_3430_reg_10864   |   32|   0|   32|          0|
    |output_V_load_3431_reg_11281   |   32|   0|   32|          0|
    |output_V_load_3432_reg_11286   |   32|   0|   32|          0|
    |output_V_load_3433_reg_11321   |   32|   0|   32|          0|
    |output_V_load_3434_reg_11326   |   32|   0|   32|          0|
    |output_V_load_3435_reg_11361   |   32|   0|   32|          0|
    |output_V_load_3436_reg_11366   |   32|   0|   32|          0|
    |output_V_load_3437_reg_11401   |   32|   0|   32|          0|
    |output_V_load_3438_reg_11406   |   32|   0|   32|          0|
    |output_V_load_3439_reg_11441   |   32|   0|   32|          0|
    |output_V_load_3440_reg_11446   |   32|   0|   32|          0|
    |output_V_load_3441_reg_11481   |   32|   0|   32|          0|
    |output_V_load_3442_reg_11486   |   32|   0|   32|          0|
    |output_V_load_3443_reg_11521   |   32|   0|   32|          0|
    |output_V_load_3444_reg_11526   |   32|   0|   32|          0|
    |output_V_load_3445_reg_11561   |   32|   0|   32|          0|
    |output_V_load_3446_reg_11566   |   32|   0|   32|          0|
    |output_V_load_3447_reg_11601   |   32|   0|   32|          0|
    |output_V_load_3448_reg_11606   |   32|   0|   32|          0|
    |output_V_load_3449_reg_11641   |   32|   0|   32|          0|
    |output_V_load_3450_reg_11646   |   32|   0|   32|          0|
    |output_V_load_3451_reg_11681   |   32|   0|   32|          0|
    |output_V_load_3452_reg_11686   |   32|   0|   32|          0|
    |output_V_load_3453_reg_11721   |   32|   0|   32|          0|
    |output_V_load_3454_reg_11726   |   32|   0|   32|          0|
    |output_V_load_3455_reg_11761   |   32|   0|   32|          0|
    |output_V_load_3456_reg_11766   |   32|   0|   32|          0|
    |output_V_load_3457_reg_11801   |   32|   0|   32|          0|
    |output_V_load_3458_reg_11806   |   32|   0|   32|          0|
    |output_V_load_3459_reg_11841   |   32|   0|   32|          0|
    |output_V_load_3460_reg_11846   |   32|   0|   32|          0|
    |output_V_load_3461_reg_11881   |   32|   0|   32|          0|
    |output_V_load_3462_reg_11886   |   32|   0|   32|          0|
    |output_V_load_3463_reg_11921   |   32|   0|   32|          0|
    |output_V_load_3464_reg_11926   |   32|   0|   32|          0|
    |output_V_load_3465_reg_11961   |   32|   0|   32|          0|
    |output_V_load_3466_reg_11966   |   32|   0|   32|          0|
    |output_V_load_3467_reg_12001   |   32|   0|   32|          0|
    |output_V_load_3468_reg_12006   |   32|   0|   32|          0|
    |output_V_load_3469_reg_12041   |   32|   0|   32|          0|
    |output_V_load_3470_reg_12046   |   32|   0|   32|          0|
    |output_V_load_3471_reg_12081   |   32|   0|   32|          0|
    |output_V_load_3472_reg_12086   |   32|   0|   32|          0|
    |output_V_load_3473_reg_12121   |   32|   0|   32|          0|
    |output_V_load_3474_reg_12126   |   32|   0|   32|          0|
    |output_V_load_3475_reg_12161   |   32|   0|   32|          0|
    |output_V_load_3476_reg_12166   |   32|   0|   32|          0|
    |output_V_load_3477_reg_12201   |   32|   0|   32|          0|
    |output_V_load_3478_reg_12206   |   32|   0|   32|          0|
    |output_V_load_3479_reg_12241   |   32|   0|   32|          0|
    |output_V_load_3480_reg_12246   |   32|   0|   32|          0|
    |output_V_load_3481_reg_12281   |   32|   0|   32|          0|
    |output_V_load_3482_reg_12286   |   32|   0|   32|          0|
    |output_V_load_3483_reg_12321   |   32|   0|   32|          0|
    |output_V_load_3484_reg_12326   |   32|   0|   32|          0|
    |output_V_load_3485_reg_12361   |   32|   0|   32|          0|
    |output_V_load_3486_reg_12366   |   32|   0|   32|          0|
    |output_V_load_3487_reg_12401   |   32|   0|   32|          0|
    |output_V_load_3488_reg_12406   |   32|   0|   32|          0|
    |output_V_load_3489_reg_12441   |   32|   0|   32|          0|
    |output_V_load_3490_reg_12446   |   32|   0|   32|          0|
    |output_V_load_3491_reg_12481   |   32|   0|   32|          0|
    |output_V_load_3492_reg_12486   |   32|   0|   32|          0|
    |output_V_load_3493_reg_12521   |   32|   0|   32|          0|
    |output_V_load_3494_reg_12526   |   32|   0|   32|          0|
    |output_V_load_3495_reg_12541   |   32|   0|   32|          0|
    |output_V_load_3496_reg_12546   |   32|   0|   32|          0|
    |output_V_load_3497_reg_12561   |   32|   0|   32|          0|
    |output_V_load_3498_reg_12566   |   32|   0|   32|          0|
    |output_V_load_3499_reg_12581   |   32|   0|   32|          0|
    |output_V_load_3500_reg_12586   |   32|   0|   32|          0|
    |output_V_load_3501_reg_12601   |   32|   0|   32|          0|
    |output_V_load_3502_reg_12606   |   32|   0|   32|          0|
    |output_V_load_3503_reg_12621   |   32|   0|   32|          0|
    |output_V_load_3504_reg_12626   |   32|   0|   32|          0|
    |output_V_load_3505_reg_12641   |   32|   0|   32|          0|
    |output_V_load_3506_reg_12646   |   32|   0|   32|          0|
    |output_V_load_3507_reg_12661   |   32|   0|   32|          0|
    |output_V_load_3508_reg_12666   |   32|   0|   32|          0|
    |output_V_load_3509_reg_12681   |   32|   0|   32|          0|
    |output_V_load_3510_reg_12686   |   32|   0|   32|          0|
    |output_V_load_3511_reg_12701   |   32|   0|   32|          0|
    |output_V_load_3512_reg_12706   |   32|   0|   32|          0|
    |output_V_load_3513_reg_12721   |   32|   0|   32|          0|
    |output_V_load_3514_reg_12726   |   32|   0|   32|          0|
    |output_V_load_3515_reg_12741   |   32|   0|   32|          0|
    |output_V_load_3516_reg_12746   |   32|   0|   32|          0|
    |output_V_load_3517_reg_12761   |   32|   0|   32|          0|
    |output_V_load_3518_reg_12766   |   32|   0|   32|          0|
    |output_V_load_3519_reg_12781   |   32|   0|   32|          0|
    |output_V_load_3520_reg_12786   |   32|   0|   32|          0|
    |output_V_load_3521_reg_12801   |   32|   0|   32|          0|
    |output_V_load_3522_reg_12806   |   32|   0|   32|          0|
    |output_V_load_3523_reg_12821   |   32|   0|   32|          0|
    |output_V_load_3524_reg_12826   |   32|   0|   32|          0|
    |output_V_load_3525_reg_12841   |   32|   0|   32|          0|
    |output_V_load_3526_reg_12846   |   32|   0|   32|          0|
    |output_V_load_3527_reg_12861   |   32|   0|   32|          0|
    |output_V_load_3528_reg_12866   |   32|   0|   32|          0|
    |output_V_load_3529_reg_12881   |   32|   0|   32|          0|
    |output_V_load_3530_reg_12886   |   32|   0|   32|          0|
    |output_V_load_3531_reg_12901   |   32|   0|   32|          0|
    |output_V_load_3532_reg_12906   |   32|   0|   32|          0|
    |output_V_load_3533_reg_12921   |   32|   0|   32|          0|
    |output_V_load_3534_reg_12926   |   32|   0|   32|          0|
    |output_V_load_3535_reg_12941   |   32|   0|   32|          0|
    |output_V_load_3536_reg_12946   |   32|   0|   32|          0|
    |output_V_load_3537_reg_12961   |   32|   0|   32|          0|
    |output_V_load_3538_reg_12966   |   32|   0|   32|          0|
    |output_V_load_3539_reg_12981   |   32|   0|   32|          0|
    |output_V_load_3540_reg_12986   |   32|   0|   32|          0|
    |output_V_load_3541_reg_13001   |   32|   0|   32|          0|
    |output_V_load_3542_reg_13006   |   32|   0|   32|          0|
    |output_V_load_3543_reg_13021   |   32|   0|   32|          0|
    |output_V_load_3544_reg_13026   |   32|   0|   32|          0|
    |output_V_load_3545_reg_13041   |   32|   0|   32|          0|
    |output_V_load_3546_reg_13046   |   32|   0|   32|          0|
    |output_V_load_3547_reg_13061   |   32|   0|   32|          0|
    |output_V_load_3548_reg_13066   |   32|   0|   32|          0|
    |output_V_load_3549_reg_13081   |   32|   0|   32|          0|
    |output_V_load_3550_reg_13086   |   32|   0|   32|          0|
    |output_V_load_3551_reg_13101   |   32|   0|   32|          0|
    |output_V_load_3552_reg_13106   |   32|   0|   32|          0|
    |output_V_load_3553_reg_13121   |   32|   0|   32|          0|
    |output_V_load_3554_reg_13126   |   32|   0|   32|          0|
    |output_V_load_3555_reg_13141   |   32|   0|   32|          0|
    |output_V_load_3556_reg_13146   |   32|   0|   32|          0|
    |output_V_load_3557_reg_13161   |   32|   0|   32|          0|
    |output_V_load_3558_reg_13166   |   32|   0|   32|          0|
    |output_V_load_3559_reg_13181   |   32|   0|   32|          0|
    |output_V_load_3560_reg_13186   |   32|   0|   32|          0|
    |output_V_load_3561_reg_13201   |   32|   0|   32|          0|
    |output_V_load_3562_reg_13206   |   32|   0|   32|          0|
    |output_V_load_3563_reg_13221   |   32|   0|   32|          0|
    |output_V_load_3564_reg_13226   |   32|   0|   32|          0|
    |output_V_load_3565_reg_13241   |   32|   0|   32|          0|
    |output_V_load_3566_reg_13246   |   32|   0|   32|          0|
    |output_V_load_3567_reg_13261   |   32|   0|   32|          0|
    |output_V_load_3568_reg_13266   |   32|   0|   32|          0|
    |output_V_load_3569_reg_13281   |   32|   0|   32|          0|
    |output_V_load_3570_reg_13286   |   32|   0|   32|          0|
    |output_V_load_3571_reg_13301   |   32|   0|   32|          0|
    |output_V_load_3572_reg_13306   |   32|   0|   32|          0|
    |output_V_load_3573_reg_13321   |   32|   0|   32|          0|
    |output_V_load_3574_reg_13326   |   32|   0|   32|          0|
    |output_V_load_3575_reg_13341   |   32|   0|   32|          0|
    |output_V_load_3576_reg_13346   |   32|   0|   32|          0|
    |output_V_load_3577_reg_13361   |   32|   0|   32|          0|
    |output_V_load_3578_reg_13366   |   32|   0|   32|          0|
    |output_V_load_3579_reg_13381   |   32|   0|   32|          0|
    |output_V_load_3580_reg_13386   |   32|   0|   32|          0|
    |output_V_load_3581_reg_13401   |   32|   0|   32|          0|
    |output_V_load_3582_reg_13406   |   32|   0|   32|          0|
    |output_V_load_3583_reg_13421   |   32|   0|   32|          0|
    |output_V_load_3584_reg_13426   |   32|   0|   32|          0|
    |output_V_load_3585_reg_13441   |   32|   0|   32|          0|
    |output_V_load_3586_reg_13446   |   32|   0|   32|          0|
    |output_V_load_3587_reg_13461   |   32|   0|   32|          0|
    |output_V_load_3588_reg_13466   |   32|   0|   32|          0|
    |output_V_load_3589_reg_13481   |   32|   0|   32|          0|
    |output_V_load_3590_reg_13486   |   32|   0|   32|          0|
    |output_V_load_3591_reg_13501   |   32|   0|   32|          0|
    |output_V_load_3592_reg_13506   |   32|   0|   32|          0|
    |output_V_load_3593_reg_13521   |   32|   0|   32|          0|
    |output_V_load_3594_reg_13526   |   32|   0|   32|          0|
    |output_V_load_3595_reg_13541   |   32|   0|   32|          0|
    |output_V_load_3596_reg_13546   |   32|   0|   32|          0|
    |output_V_load_3597_reg_13561   |   32|   0|   32|          0|
    |output_V_load_3598_reg_13566   |   32|   0|   32|          0|
    |output_V_load_3599_reg_13581   |   32|   0|   32|          0|
    |output_V_load_3600_reg_13586   |   32|   0|   32|          0|
    |output_V_load_3601_reg_13601   |   32|   0|   32|          0|
    |output_V_load_3602_reg_13606   |   32|   0|   32|          0|
    |output_V_load_3603_reg_13621   |   32|   0|   32|          0|
    |output_V_load_3604_reg_13626   |   32|   0|   32|          0|
    |output_V_load_3605_reg_13641   |   32|   0|   32|          0|
    |output_V_load_3606_reg_13646   |   32|   0|   32|          0|
    |output_V_load_3607_reg_13661   |   32|   0|   32|          0|
    |output_V_load_3608_reg_13666   |   32|   0|   32|          0|
    |output_V_load_3609_reg_13681   |   32|   0|   32|          0|
    |output_V_load_3610_reg_13686   |   32|   0|   32|          0|
    |output_V_load_3611_reg_13701   |   32|   0|   32|          0|
    |output_V_load_3612_reg_13706   |   32|   0|   32|          0|
    |output_V_load_3613_reg_13721   |   32|   0|   32|          0|
    |output_V_load_3614_reg_13726   |   32|   0|   32|          0|
    |output_V_load_3615_reg_13741   |   32|   0|   32|          0|
    |output_V_load_3616_reg_13746   |   32|   0|   32|          0|
    |output_V_load_3617_reg_13761   |   32|   0|   32|          0|
    |output_V_load_3618_reg_13766   |   32|   0|   32|          0|
    |output_V_load_3619_reg_13781   |   32|   0|   32|          0|
    |output_V_load_3620_reg_13786   |   32|   0|   32|          0|
    |output_V_load_3621_reg_13801   |   32|   0|   32|          0|
    |output_V_load_3622_reg_13806   |   32|   0|   32|          0|
    |output_V_load_3623_reg_13821   |   32|   0|   32|          0|
    |output_V_load_3624_reg_13826   |   32|   0|   32|          0|
    |reg_7137                       |   32|   0|   32|          0|
    |reg_7142                       |   32|   0|   32|          0|
    |trunc_ln203_reg_10879          |   32|   0|   32|          0|
    +-------------------------------+-----+----+-----+-----------+
    |Total                          |18752|   0|18752|          0|
    +-------------------------------+-----+----+-----+-----------+



================================================================
== Interface
================================================================
* Summary: 
+-------------------+-----+------+------------+-------------------------------------------------------+--------------+
|     RTL Ports     | Dir | Bits |  Protocol  |                     Source Object                     |    C Type    |
+-------------------+-----+------+------------+-------------------------------------------------------+--------------+
|ap_clk             |  in |     1| ap_ctrl_hs | cnnshift_arr<ap_fixed,ap_fixed<32,16,5,3,0>,config27> | return value |
|ap_rst             |  in |     1| ap_ctrl_hs | cnnshift_arr<ap_fixed,ap_fixed<32,16,5,3,0>,config27> | return value |
|ap_start           |  in |     1| ap_ctrl_hs | cnnshift_arr<ap_fixed,ap_fixed<32,16,5,3,0>,config27> | return value |
|ap_done            | out |     1| ap_ctrl_hs | cnnshift_arr<ap_fixed,ap_fixed<32,16,5,3,0>,config27> | return value |
|ap_idle            | out |     1| ap_ctrl_hs | cnnshift_arr<ap_fixed,ap_fixed<32,16,5,3,0>,config27> | return value |
|ap_ready           | out |     1| ap_ctrl_hs | cnnshift_arr<ap_fixed,ap_fixed<32,16,5,3,0>,config27> | return value |
|data_V_read        |  in |  2048|   ap_none  |                      data_V_read                      |    scalar    |
|output_V_address0  | out |    10|  ap_memory |                        output_V                       |     array    |
|output_V_ce0       | out |     1|  ap_memory |                        output_V                       |     array    |
|output_V_we0       | out |     1|  ap_memory |                        output_V                       |     array    |
|output_V_d0        | out |    32|  ap_memory |                        output_V                       |     array    |
|output_V_q0        |  in |    32|  ap_memory |                        output_V                       |     array    |
|output_V_address1  | out |    10|  ap_memory |                        output_V                       |     array    |
|output_V_ce1       | out |     1|  ap_memory |                        output_V                       |     array    |
|output_V_we1       | out |     1|  ap_memory |                        output_V                       |     array    |
|output_V_d1        | out |    32|  ap_memory |                        output_V                       |     array    |
|output_V_q1        |  in |    32|  ap_memory |                        output_V                       |     array    |
+-------------------+-----+------+------------+-------------------------------------------------------+--------------+

