

================================================================
== Vivado HLS Report for 'cnnshift_arr_ap_fixed_ap_fixed_32_16_5_3_0_config13_s'
================================================================
* Date:           Wed Mar 30 22:13:45 2022

* Version:        2019.2 (Build 2704478 on Wed Nov 06 22:10:23 MST 2019)
* Project:        myproject_prj
* Solution:       solution1
* Product family: zynq
* Target device:  xc7z020-clg400-1


================================================================
== Performance Estimates
================================================================
+ Timing: 
    * Summary: 
    +--------+---------+----------+------------+
    |  Clock |  Target | Estimated| Uncertainty|
    +--------+---------+----------+------------+
    |ap_clk  | 5.00 ns | 3.256 ns |   0.62 ns  |
    +--------+---------+----------+------------+

+ Latency: 
    * Summary: 
    +---------+---------+----------+----------+-----+-----+----------+
    |  Latency (cycles) |  Latency (absolute) |  Interval | Pipeline |
    |   min   |   max   |    min   |    max   | min | max |   Type   |
    +---------+---------+----------+----------+-----+-----+----------+
    |      191|      191| 0.955 us | 0.955 us |  192|  192| function |
    +---------+---------+----------+----------+-----+-----+----------+

    + Detail: 
        * Instance: 
        N/A

        * Loop: 
        N/A



================================================================
== Utilization Estimates
================================================================
* Summary: 
+-----------------+---------+-------+--------+-------+-----+
|       Name      | BRAM_18K| DSP48E|   FF   |  LUT  | URAM|
+-----------------+---------+-------+--------+-------+-----+
|DSP              |        -|      -|       -|      -|    -|
|Expression       |        -|      -|       -|      -|    -|
|FIFO             |        -|      -|       -|      -|    -|
|Instance         |        -|      -|       -|      -|    -|
|Memory           |        0|      -|    4096|   2048|    -|
|Multiplexer      |        -|      -|       -|   3793|    -|
|Register         |        -|      -|   10368|      -|    -|
+-----------------+---------+-------+--------+-------+-----+
|Total            |        0|      0|   14464|   5841|    0|
+-----------------+---------+-------+--------+-------+-----+
|Available        |      280|    220|  106400|  53200|    0|
+-----------------+---------+-------+--------+-------+-----+
|Utilization (%)  |        0|      0|      13|     10|    0|
+-----------------+---------+-------+--------+-------+-----+

+ Detail: 
    * Instance: 
    N/A

    * DSP48E: 
    N/A

    * Memory: 
    +-------------------------------+--------------------------------------------------------------+---------+----+----+-----+------+-----+------+-------------+
    |             Memory            |                            Module                            | BRAM_18K| FF | LUT| URAM| Words| Bits| Banks| W*Bits*Banks|
    +-------------------------------+--------------------------------------------------------------+---------+----+----+-----+------+-----+------+-------------+
    |layer_in_row_Array_V_8_0_0_U   |cnnshift_arr_ap_fixed_ap_fixed_32_16_5_3_0_config9_s_layeJfO  |        0|  64|  32|    0|    29|   32|     1|          928|
    |layer_in_row_Array_V_8_1_0_U   |cnnshift_arr_ap_fixed_ap_fixed_32_16_5_3_0_config9_s_layeJfO  |        0|  64|  32|    0|    29|   32|     1|          928|
    |layer_in_row_Array_V_8_0_1_U   |cnnshift_arr_ap_fixed_ap_fixed_32_16_5_3_0_config9_s_layeJfO  |        0|  64|  32|    0|    29|   32|     1|          928|
    |layer_in_row_Array_V_8_1_1_U   |cnnshift_arr_ap_fixed_ap_fixed_32_16_5_3_0_config9_s_layeJfO  |        0|  64|  32|    0|    29|   32|     1|          928|
    |layer_in_row_Array_V_8_0_2_U   |cnnshift_arr_ap_fixed_ap_fixed_32_16_5_3_0_config9_s_layeJfO  |        0|  64|  32|    0|    29|   32|     1|          928|
    |layer_in_row_Array_V_8_1_2_U   |cnnshift_arr_ap_fixed_ap_fixed_32_16_5_3_0_config9_s_layeJfO  |        0|  64|  32|    0|    29|   32|     1|          928|
    |layer_in_row_Array_V_8_0_3_U   |cnnshift_arr_ap_fixed_ap_fixed_32_16_5_3_0_config9_s_layeJfO  |        0|  64|  32|    0|    29|   32|     1|          928|
    |layer_in_row_Array_V_8_1_3_U   |cnnshift_arr_ap_fixed_ap_fixed_32_16_5_3_0_config9_s_layeJfO  |        0|  64|  32|    0|    29|   32|     1|          928|
    |layer_in_row_Array_V_8_0_4_U   |cnnshift_arr_ap_fixed_ap_fixed_32_16_5_3_0_config9_s_layeJfO  |        0|  64|  32|    0|    29|   32|     1|          928|
    |layer_in_row_Array_V_8_1_4_U   |cnnshift_arr_ap_fixed_ap_fixed_32_16_5_3_0_config9_s_layeJfO  |        0|  64|  32|    0|    29|   32|     1|          928|
    |layer_in_row_Array_V_8_0_5_U   |cnnshift_arr_ap_fixed_ap_fixed_32_16_5_3_0_config9_s_layeJfO  |        0|  64|  32|    0|    29|   32|     1|          928|
    |layer_in_row_Array_V_8_1_5_U   |cnnshift_arr_ap_fixed_ap_fixed_32_16_5_3_0_config9_s_layeJfO  |        0|  64|  32|    0|    29|   32|     1|          928|
    |layer_in_row_Array_V_8_0_6_U   |cnnshift_arr_ap_fixed_ap_fixed_32_16_5_3_0_config9_s_layeJfO  |        0|  64|  32|    0|    29|   32|     1|          928|
    |layer_in_row_Array_V_8_1_6_U   |cnnshift_arr_ap_fixed_ap_fixed_32_16_5_3_0_config9_s_layeJfO  |        0|  64|  32|    0|    29|   32|     1|          928|
    |layer_in_row_Array_V_8_0_7_U   |cnnshift_arr_ap_fixed_ap_fixed_32_16_5_3_0_config9_s_layeJfO  |        0|  64|  32|    0|    29|   32|     1|          928|
    |layer_in_row_Array_V_8_1_7_U   |cnnshift_arr_ap_fixed_ap_fixed_32_16_5_3_0_config9_s_layeJfO  |        0|  64|  32|    0|    29|   32|     1|          928|
    |layer_in_row_Array_V_8_0_8_U   |cnnshift_arr_ap_fixed_ap_fixed_32_16_5_3_0_config9_s_layeJfO  |        0|  64|  32|    0|    29|   32|     1|          928|
    |layer_in_row_Array_V_8_1_8_U   |cnnshift_arr_ap_fixed_ap_fixed_32_16_5_3_0_config9_s_layeJfO  |        0|  64|  32|    0|    29|   32|     1|          928|
    |layer_in_row_Array_V_8_0_9_U   |cnnshift_arr_ap_fixed_ap_fixed_32_16_5_3_0_config9_s_layeJfO  |        0|  64|  32|    0|    29|   32|     1|          928|
    |layer_in_row_Array_V_8_1_9_U   |cnnshift_arr_ap_fixed_ap_fixed_32_16_5_3_0_config9_s_layeJfO  |        0|  64|  32|    0|    29|   32|     1|          928|
    |layer_in_row_Array_V_8_0_10_U  |cnnshift_arr_ap_fixed_ap_fixed_32_16_5_3_0_config9_s_layeJfO  |        0|  64|  32|    0|    29|   32|     1|          928|
    |layer_in_row_Array_V_8_1_10_U  |cnnshift_arr_ap_fixed_ap_fixed_32_16_5_3_0_config9_s_layeJfO  |        0|  64|  32|    0|    29|   32|     1|          928|
    |layer_in_row_Array_V_8_0_11_U  |cnnshift_arr_ap_fixed_ap_fixed_32_16_5_3_0_config9_s_layeJfO  |        0|  64|  32|    0|    29|   32|     1|          928|
    |layer_in_row_Array_V_8_1_11_U  |cnnshift_arr_ap_fixed_ap_fixed_32_16_5_3_0_config9_s_layeJfO  |        0|  64|  32|    0|    29|   32|     1|          928|
    |layer_in_row_Array_V_8_0_12_U  |cnnshift_arr_ap_fixed_ap_fixed_32_16_5_3_0_config9_s_layeJfO  |        0|  64|  32|    0|    29|   32|     1|          928|
    |layer_in_row_Array_V_8_1_12_U  |cnnshift_arr_ap_fixed_ap_fixed_32_16_5_3_0_config9_s_layeJfO  |        0|  64|  32|    0|    29|   32|     1|          928|
    |layer_in_row_Array_V_8_0_13_U  |cnnshift_arr_ap_fixed_ap_fixed_32_16_5_3_0_config9_s_layeJfO  |        0|  64|  32|    0|    29|   32|     1|          928|
    |layer_in_row_Array_V_8_1_13_U  |cnnshift_arr_ap_fixed_ap_fixed_32_16_5_3_0_config9_s_layeJfO  |        0|  64|  32|    0|    29|   32|     1|          928|
    |layer_in_row_Array_V_8_0_14_U  |cnnshift_arr_ap_fixed_ap_fixed_32_16_5_3_0_config9_s_layeJfO  |        0|  64|  32|    0|    29|   32|     1|          928|
    |layer_in_row_Array_V_8_1_14_U  |cnnshift_arr_ap_fixed_ap_fixed_32_16_5_3_0_config9_s_layeJfO  |        0|  64|  32|    0|    29|   32|     1|          928|
    |layer_in_row_Array_V_8_0_15_U  |cnnshift_arr_ap_fixed_ap_fixed_32_16_5_3_0_config9_s_layeJfO  |        0|  64|  32|    0|    29|   32|     1|          928|
    |layer_in_row_Array_V_8_1_15_U  |cnnshift_arr_ap_fixed_ap_fixed_32_16_5_3_0_config9_s_layeJfO  |        0|  64|  32|    0|    29|   32|     1|          928|
    |layer_in_row_Array_V_8_0_16_U  |cnnshift_arr_ap_fixed_ap_fixed_32_16_5_3_0_config9_s_layeJfO  |        0|  64|  32|    0|    29|   32|     1|          928|
    |layer_in_row_Array_V_8_1_16_U  |cnnshift_arr_ap_fixed_ap_fixed_32_16_5_3_0_config9_s_layeJfO  |        0|  64|  32|    0|    29|   32|     1|          928|
    |layer_in_row_Array_V_8_0_17_U  |cnnshift_arr_ap_fixed_ap_fixed_32_16_5_3_0_config9_s_layeJfO  |        0|  64|  32|    0|    29|   32|     1|          928|
    |layer_in_row_Array_V_8_1_17_U  |cnnshift_arr_ap_fixed_ap_fixed_32_16_5_3_0_config9_s_layeJfO  |        0|  64|  32|    0|    29|   32|     1|          928|
    |layer_in_row_Array_V_8_0_18_U  |cnnshift_arr_ap_fixed_ap_fixed_32_16_5_3_0_config9_s_layeJfO  |        0|  64|  32|    0|    29|   32|     1|          928|
    |layer_in_row_Array_V_8_1_18_U  |cnnshift_arr_ap_fixed_ap_fixed_32_16_5_3_0_config9_s_layeJfO  |        0|  64|  32|    0|    29|   32|     1|          928|
    |layer_in_row_Array_V_8_0_19_U  |cnnshift_arr_ap_fixed_ap_fixed_32_16_5_3_0_config9_s_layeJfO  |        0|  64|  32|    0|    29|   32|     1|          928|
    |layer_in_row_Array_V_8_1_19_U  |cnnshift_arr_ap_fixed_ap_fixed_32_16_5_3_0_config9_s_layeJfO  |        0|  64|  32|    0|    29|   32|     1|          928|
    |layer_in_row_Array_V_8_0_20_U  |cnnshift_arr_ap_fixed_ap_fixed_32_16_5_3_0_config9_s_layeJfO  |        0|  64|  32|    0|    29|   32|     1|          928|
    |layer_in_row_Array_V_8_1_20_U  |cnnshift_arr_ap_fixed_ap_fixed_32_16_5_3_0_config9_s_layeJfO  |        0|  64|  32|    0|    29|   32|     1|          928|
    |layer_in_row_Array_V_8_0_21_U  |cnnshift_arr_ap_fixed_ap_fixed_32_16_5_3_0_config9_s_layeJfO  |        0|  64|  32|    0|    29|   32|     1|          928|
    |layer_in_row_Array_V_8_1_21_U  |cnnshift_arr_ap_fixed_ap_fixed_32_16_5_3_0_config9_s_layeJfO  |        0|  64|  32|    0|    29|   32|     1|          928|
    |layer_in_row_Array_V_8_0_22_U  |cnnshift_arr_ap_fixed_ap_fixed_32_16_5_3_0_config9_s_layeJfO  |        0|  64|  32|    0|    29|   32|     1|          928|
    |layer_in_row_Array_V_8_1_22_U  |cnnshift_arr_ap_fixed_ap_fixed_32_16_5_3_0_config9_s_layeJfO  |        0|  64|  32|    0|    29|   32|     1|          928|
    |layer_in_row_Array_V_8_0_23_U  |cnnshift_arr_ap_fixed_ap_fixed_32_16_5_3_0_config9_s_layeJfO  |        0|  64|  32|    0|    29|   32|     1|          928|
    |layer_in_row_Array_V_8_1_23_U  |cnnshift_arr_ap_fixed_ap_fixed_32_16_5_3_0_config9_s_layeJfO  |        0|  64|  32|    0|    29|   32|     1|          928|
    |layer_in_row_Array_V_8_0_24_U  |cnnshift_arr_ap_fixed_ap_fixed_32_16_5_3_0_config9_s_layeJfO  |        0|  64|  32|    0|    29|   32|     1|          928|
    |layer_in_row_Array_V_8_1_24_U  |cnnshift_arr_ap_fixed_ap_fixed_32_16_5_3_0_config9_s_layeJfO  |        0|  64|  32|    0|    29|   32|     1|          928|
    |layer_in_row_Array_V_8_0_25_U  |cnnshift_arr_ap_fixed_ap_fixed_32_16_5_3_0_config9_s_layeJfO  |        0|  64|  32|    0|    29|   32|     1|          928|
    |layer_in_row_Array_V_8_1_25_U  |cnnshift_arr_ap_fixed_ap_fixed_32_16_5_3_0_config9_s_layeJfO  |        0|  64|  32|    0|    29|   32|     1|          928|
    |layer_in_row_Array_V_8_0_26_U  |cnnshift_arr_ap_fixed_ap_fixed_32_16_5_3_0_config9_s_layeJfO  |        0|  64|  32|    0|    29|   32|     1|          928|
    |layer_in_row_Array_V_8_1_26_U  |cnnshift_arr_ap_fixed_ap_fixed_32_16_5_3_0_config9_s_layeJfO  |        0|  64|  32|    0|    29|   32|     1|          928|
    |layer_in_row_Array_V_8_0_27_U  |cnnshift_arr_ap_fixed_ap_fixed_32_16_5_3_0_config9_s_layeJfO  |        0|  64|  32|    0|    29|   32|     1|          928|
    |layer_in_row_Array_V_8_1_27_U  |cnnshift_arr_ap_fixed_ap_fixed_32_16_5_3_0_config9_s_layeJfO  |        0|  64|  32|    0|    29|   32|     1|          928|
    |layer_in_row_Array_V_8_0_28_U  |cnnshift_arr_ap_fixed_ap_fixed_32_16_5_3_0_config9_s_layeJfO  |        0|  64|  32|    0|    29|   32|     1|          928|
    |layer_in_row_Array_V_8_1_28_U  |cnnshift_arr_ap_fixed_ap_fixed_32_16_5_3_0_config9_s_layeJfO  |        0|  64|  32|    0|    29|   32|     1|          928|
    |layer_in_row_Array_V_8_0_29_U  |cnnshift_arr_ap_fixed_ap_fixed_32_16_5_3_0_config9_s_layeJfO  |        0|  64|  32|    0|    29|   32|     1|          928|
    |layer_in_row_Array_V_8_1_29_U  |cnnshift_arr_ap_fixed_ap_fixed_32_16_5_3_0_config9_s_layeJfO  |        0|  64|  32|    0|    29|   32|     1|          928|
    |layer_in_row_Array_V_8_0_30_U  |cnnshift_arr_ap_fixed_ap_fixed_32_16_5_3_0_config9_s_layeJfO  |        0|  64|  32|    0|    29|   32|     1|          928|
    |layer_in_row_Array_V_8_1_30_U  |cnnshift_arr_ap_fixed_ap_fixed_32_16_5_3_0_config9_s_layeJfO  |        0|  64|  32|    0|    29|   32|     1|          928|
    |layer_in_row_Array_V_8_0_31_U  |cnnshift_arr_ap_fixed_ap_fixed_32_16_5_3_0_config9_s_layeJfO  |        0|  64|  32|    0|    29|   32|     1|          928|
    |layer_in_row_Array_V_8_1_31_U  |cnnshift_arr_ap_fixed_ap_fixed_32_16_5_3_0_config9_s_layeJfO  |        0|  64|  32|    0|    29|   32|     1|          928|
    +-------------------------------+--------------------------------------------------------------+---------+----+----+-----+------+-----+------+-------------+
    |Total                          |                                                              |        0|4096|2048|    0|  1856| 2048|    64|        59392|
    +-------------------------------+--------------------------------------------------------------+---------+----+----+-----+------+-----+------+-------------+

    * FIFO: 
    N/A

    * Expression: 
    N/A

    * Multiplexer: 
    +-------------------+-----+-----------+-----+-----------+
    |        Name       | LUT | Input Size| Bits| Total Bits|
    +-------------------+-----+-----------+-----+-----------+
    |ap_NS_fsm          |  837|        193|    1|        193|
    |output_V_address0  |  837|        193|    9|       1737|
    |output_V_address1  |  837|        193|    9|       1737|
    |output_V_d0        |  641|        144|   32|       4608|
    |output_V_d1        |  641|        144|   32|       4608|
    +-------------------+-----+-----------+-----+-----------+
    |Total              | 3793|        867|   83|      12883|
    +-------------------+-----+-----------+-----+-----------+

    * Register: 
    +------------------------------+------+----+------+-----------+
    |             Name             |  FF  | LUT| Bits | Const Bits|
    +------------------------------+------+----+------+-----------+
    |DataIn_V_assign_677_reg_5469  |    32|   0|    32|          0|
    |DataIn_V_assign_678_reg_5475  |    32|   0|    32|          0|
    |DataIn_V_assign_679_reg_5481  |    32|   0|    32|          0|
    |DataIn_V_assign_680_reg_5487  |    32|   0|    32|          0|
    |DataIn_V_assign_681_reg_5493  |    32|   0|    32|          0|
    |DataIn_V_assign_682_reg_5499  |    32|   0|    32|          0|
    |DataIn_V_assign_683_reg_5505  |    32|   0|    32|          0|
    |DataIn_V_assign_684_reg_5511  |    32|   0|    32|          0|
    |DataIn_V_assign_685_reg_5517  |    32|   0|    32|          0|
    |DataIn_V_assign_686_reg_5523  |    32|   0|    32|          0|
    |DataIn_V_assign_687_reg_5529  |    32|   0|    32|          0|
    |DataIn_V_assign_688_reg_5535  |    32|   0|    32|          0|
    |DataIn_V_assign_689_reg_5541  |    32|   0|    32|          0|
    |DataIn_V_assign_690_reg_5547  |    32|   0|    32|          0|
    |DataIn_V_assign_691_reg_5553  |    32|   0|    32|          0|
    |DataIn_V_assign_692_reg_5559  |    32|   0|    32|          0|
    |DataIn_V_assign_693_reg_5565  |    32|   0|    32|          0|
    |DataIn_V_assign_694_reg_5571  |    32|   0|    32|          0|
    |DataIn_V_assign_695_reg_5577  |    32|   0|    32|          0|
    |DataIn_V_assign_696_reg_5583  |    32|   0|    32|          0|
    |DataIn_V_assign_697_reg_5589  |    32|   0|    32|          0|
    |DataIn_V_assign_698_reg_5595  |    32|   0|    32|          0|
    |DataIn_V_assign_699_reg_5601  |    32|   0|    32|          0|
    |DataIn_V_assign_700_reg_5607  |    32|   0|    32|          0|
    |DataIn_V_assign_701_reg_5613  |    32|   0|    32|          0|
    |DataIn_V_assign_702_reg_5619  |    32|   0|    32|          0|
    |DataIn_V_assign_703_reg_5625  |    32|   0|    32|          0|
    |DataIn_V_assign_704_reg_5631  |    32|   0|    32|          0|
    |DataIn_V_assign_705_reg_5637  |    32|   0|    32|          0|
    |DataIn_V_assign_706_reg_5643  |    32|   0|    32|          0|
    |DataIn_V_assign_s_reg_5454    |    32|   0|    32|          0|
    |DataOut_V1683_reg_6244        |    32|   0|    32|          0|
    |DataOut_V_1621_reg_5444       |    32|   0|    32|          0|
    |DataOut_V_1622_reg_5459       |    32|   0|    32|          0|
    |DataOut_V_1623_reg_5464       |    32|   0|    32|          0|
    |DataOut_V_1624_reg_5669       |    32|   0|    32|          0|
    |DataOut_V_1625_reg_5674       |    32|   0|    32|          0|
    |DataOut_V_1626_reg_5679       |    32|   0|    32|          0|
    |DataOut_V_1627_reg_5684       |    32|   0|    32|          0|
    |DataOut_V_1628_reg_5709       |    32|   0|    32|          0|
    |DataOut_V_1629_reg_5714       |    32|   0|    32|          0|
    |DataOut_V_1630_reg_5719       |    32|   0|    32|          0|
    |DataOut_V_1631_reg_5724       |    32|   0|    32|          0|
    |DataOut_V_1632_reg_5749       |    32|   0|    32|          0|
    |DataOut_V_1633_reg_5754       |    32|   0|    32|          0|
    |DataOut_V_1634_reg_5759       |    32|   0|    32|          0|
    |DataOut_V_1635_reg_5764       |    32|   0|    32|          0|
    |DataOut_V_1636_reg_5789       |    32|   0|    32|          0|
    |DataOut_V_1637_reg_5794       |    32|   0|    32|          0|
    |DataOut_V_1638_reg_5799       |    32|   0|    32|          0|
    |DataOut_V_1639_reg_5804       |    32|   0|    32|          0|
    |DataOut_V_1640_reg_5829       |    32|   0|    32|          0|
    |DataOut_V_1641_reg_5834       |    32|   0|    32|          0|
    |DataOut_V_1642_reg_5839       |    32|   0|    32|          0|
    |DataOut_V_1643_reg_5844       |    32|   0|    32|          0|
    |DataOut_V_1644_reg_5869       |    32|   0|    32|          0|
    |DataOut_V_1645_reg_5874       |    32|   0|    32|          0|
    |DataOut_V_1646_reg_5879       |    32|   0|    32|          0|
    |DataOut_V_1647_reg_5884       |    32|   0|    32|          0|
    |DataOut_V_1648_reg_5909       |    32|   0|    32|          0|
    |DataOut_V_1649_reg_5914       |    32|   0|    32|          0|
    |DataOut_V_1650_reg_5919       |    32|   0|    32|          0|
    |DataOut_V_1651_reg_5924       |    32|   0|    32|          0|
    |DataOut_V_1652_reg_5949       |    32|   0|    32|          0|
    |DataOut_V_1653_reg_5954       |    32|   0|    32|          0|
    |DataOut_V_1654_reg_5959       |    32|   0|    32|          0|
    |DataOut_V_1655_reg_5964       |    32|   0|    32|          0|
    |DataOut_V_1656_reg_5989       |    32|   0|    32|          0|
    |DataOut_V_1657_reg_5994       |    32|   0|    32|          0|
    |DataOut_V_1658_reg_5999       |    32|   0|    32|          0|
    |DataOut_V_1659_reg_6004       |    32|   0|    32|          0|
    |DataOut_V_1660_reg_6029       |    32|   0|    32|          0|
    |DataOut_V_1661_reg_6034       |    32|   0|    32|          0|
    |DataOut_V_1662_reg_6039       |    32|   0|    32|          0|
    |DataOut_V_1663_reg_6044       |    32|   0|    32|          0|
    |DataOut_V_1664_reg_6069       |    32|   0|    32|          0|
    |DataOut_V_1665_reg_6074       |    32|   0|    32|          0|
    |DataOut_V_1666_reg_6079       |    32|   0|    32|          0|
    |DataOut_V_1667_reg_6084       |    32|   0|    32|          0|
    |DataOut_V_1668_reg_6109       |    32|   0|    32|          0|
    |DataOut_V_1669_reg_6114       |    32|   0|    32|          0|
    |DataOut_V_1670_reg_6119       |    32|   0|    32|          0|
    |DataOut_V_1671_reg_6124       |    32|   0|    32|          0|
    |DataOut_V_1672_reg_6149       |    32|   0|    32|          0|
    |DataOut_V_1673_reg_6154       |    32|   0|    32|          0|
    |DataOut_V_1674_reg_6159       |    32|   0|    32|          0|
    |DataOut_V_1675_reg_6164       |    32|   0|    32|          0|
    |DataOut_V_1676_reg_6189       |    32|   0|    32|          0|
    |DataOut_V_1677_reg_6194       |    32|   0|    32|          0|
    |DataOut_V_1678_reg_6199       |    32|   0|    32|          0|
    |DataOut_V_1679_reg_6204       |    32|   0|    32|          0|
    |DataOut_V_1680_reg_6229       |    32|   0|    32|          0|
    |DataOut_V_1681_reg_6234       |    32|   0|    32|          0|
    |DataOut_V_1682_reg_6239       |    32|   0|    32|          0|
    |DataOut_V_reg_5449            |    32|   0|    32|          0|
    |ap_CS_fsm                     |   192|   0|   192|          0|
    |ap_port_reg_data_V_read       |  1024|   0|  1024|          0|
    |output_V_load_4202_reg_4539   |    32|   0|    32|          0|
    |output_V_load_4203_reg_4544   |    32|   0|    32|          0|
    |output_V_load_4204_reg_4559   |    32|   0|    32|          0|
    |output_V_load_4205_reg_4564   |    32|   0|    32|          0|
    |output_V_load_4206_reg_4579   |    32|   0|    32|          0|
    |output_V_load_4207_reg_4584   |    32|   0|    32|          0|
    |output_V_load_4208_reg_4599   |    32|   0|    32|          0|
    |output_V_load_4209_reg_4604   |    32|   0|    32|          0|
    |output_V_load_4210_reg_4619   |    32|   0|    32|          0|
    |output_V_load_4211_reg_4624   |    32|   0|    32|          0|
    |output_V_load_4212_reg_4639   |    32|   0|    32|          0|
    |output_V_load_4213_reg_4644   |    32|   0|    32|          0|
    |output_V_load_4214_reg_4659   |    32|   0|    32|          0|
    |output_V_load_4215_reg_4664   |    32|   0|    32|          0|
    |output_V_load_4216_reg_4679   |    32|   0|    32|          0|
    |output_V_load_4217_reg_4684   |    32|   0|    32|          0|
    |output_V_load_4218_reg_4699   |    32|   0|    32|          0|
    |output_V_load_4219_reg_4704   |    32|   0|    32|          0|
    |output_V_load_4220_reg_4719   |    32|   0|    32|          0|
    |output_V_load_4221_reg_4724   |    32|   0|    32|          0|
    |output_V_load_4222_reg_4739   |    32|   0|    32|          0|
    |output_V_load_4223_reg_4744   |    32|   0|    32|          0|
    |output_V_load_4224_reg_4759   |    32|   0|    32|          0|
    |output_V_load_4225_reg_4764   |    32|   0|    32|          0|
    |output_V_load_4226_reg_4779   |    32|   0|    32|          0|
    |output_V_load_4227_reg_4784   |    32|   0|    32|          0|
    |output_V_load_4228_reg_4799   |    32|   0|    32|          0|
    |output_V_load_4229_reg_4804   |    32|   0|    32|          0|
    |output_V_load_4230_reg_4819   |    32|   0|    32|          0|
    |output_V_load_4231_reg_4824   |    32|   0|    32|          0|
    |output_V_load_4232_reg_4839   |    32|   0|    32|          0|
    |output_V_load_4233_reg_4844   |    32|   0|    32|          0|
    |output_V_load_4234_reg_4859   |    32|   0|    32|          0|
    |output_V_load_4235_reg_4864   |    32|   0|    32|          0|
    |output_V_load_4236_reg_4879   |    32|   0|    32|          0|
    |output_V_load_4237_reg_4884   |    32|   0|    32|          0|
    |output_V_load_4238_reg_4899   |    32|   0|    32|          0|
    |output_V_load_4239_reg_4904   |    32|   0|    32|          0|
    |output_V_load_4240_reg_4919   |    32|   0|    32|          0|
    |output_V_load_4241_reg_4924   |    32|   0|    32|          0|
    |output_V_load_4242_reg_4939   |    32|   0|    32|          0|
    |output_V_load_4243_reg_4944   |    32|   0|    32|          0|
    |output_V_load_4244_reg_4959   |    32|   0|    32|          0|
    |output_V_load_4245_reg_4964   |    32|   0|    32|          0|
    |output_V_load_4246_reg_4979   |    32|   0|    32|          0|
    |output_V_load_4247_reg_4984   |    32|   0|    32|          0|
    |output_V_load_4248_reg_4999   |    32|   0|    32|          0|
    |output_V_load_4249_reg_5004   |    32|   0|    32|          0|
    |output_V_load_4250_reg_5019   |    32|   0|    32|          0|
    |output_V_load_4251_reg_5024   |    32|   0|    32|          0|
    |output_V_load_4252_reg_5039   |    32|   0|    32|          0|
    |output_V_load_4253_reg_5044   |    32|   0|    32|          0|
    |output_V_load_4254_reg_5059   |    32|   0|    32|          0|
    |output_V_load_4255_reg_5064   |    32|   0|    32|          0|
    |output_V_load_4256_reg_5079   |    32|   0|    32|          0|
    |output_V_load_4257_reg_5084   |    32|   0|    32|          0|
    |output_V_load_4258_reg_5099   |    32|   0|    32|          0|
    |output_V_load_4259_reg_5104   |    32|   0|    32|          0|
    |output_V_load_4260_reg_5119   |    32|   0|    32|          0|
    |output_V_load_4261_reg_5124   |    32|   0|    32|          0|
    |output_V_load_4262_reg_5139   |    32|   0|    32|          0|
    |output_V_load_4263_reg_5144   |    32|   0|    32|          0|
    |output_V_load_4264_reg_5159   |    32|   0|    32|          0|
    |output_V_load_4265_reg_5164   |    32|   0|    32|          0|
    |output_V_load_4266_reg_5179   |    32|   0|    32|          0|
    |output_V_load_4267_reg_5184   |    32|   0|    32|          0|
    |output_V_load_4268_reg_5199   |    32|   0|    32|          0|
    |output_V_load_4269_reg_5204   |    32|   0|    32|          0|
    |output_V_load_4270_reg_5219   |    32|   0|    32|          0|
    |output_V_load_4271_reg_5224   |    32|   0|    32|          0|
    |output_V_load_4272_reg_5239   |    32|   0|    32|          0|
    |output_V_load_4273_reg_5244   |    32|   0|    32|          0|
    |output_V_load_4274_reg_5259   |    32|   0|    32|          0|
    |output_V_load_4275_reg_5264   |    32|   0|    32|          0|
    |output_V_load_4276_reg_5279   |    32|   0|    32|          0|
    |output_V_load_4277_reg_5284   |    32|   0|    32|          0|
    |output_V_load_4278_reg_5299   |    32|   0|    32|          0|
    |output_V_load_4279_reg_5304   |    32|   0|    32|          0|
    |output_V_load_4280_reg_5319   |    32|   0|    32|          0|
    |output_V_load_4281_reg_5324   |    32|   0|    32|          0|
    |output_V_load_4282_reg_5339   |    32|   0|    32|          0|
    |output_V_load_4283_reg_5344   |    32|   0|    32|          0|
    |output_V_load_4284_reg_5359   |    32|   0|    32|          0|
    |output_V_load_4285_reg_5364   |    32|   0|    32|          0|
    |output_V_load_4286_reg_5379   |    32|   0|    32|          0|
    |output_V_load_4287_reg_5384   |    32|   0|    32|          0|
    |output_V_load_4288_reg_5399   |    32|   0|    32|          0|
    |output_V_load_4289_reg_5404   |    32|   0|    32|          0|
    |output_V_load_4290_reg_5419   |    32|   0|    32|          0|
    |output_V_load_4291_reg_5424   |    32|   0|    32|          0|
    |output_V_load_4292_reg_5649   |    32|   0|    32|          0|
    |output_V_load_4293_reg_5654   |    32|   0|    32|          0|
    |output_V_load_4294_reg_5689   |    32|   0|    32|          0|
    |output_V_load_4295_reg_5694   |    32|   0|    32|          0|
    |output_V_load_4296_reg_5729   |    32|   0|    32|          0|
    |output_V_load_4297_reg_5734   |    32|   0|    32|          0|
    |output_V_load_4298_reg_5769   |    32|   0|    32|          0|
    |output_V_load_4299_reg_5774   |    32|   0|    32|          0|
    |output_V_load_4300_reg_5809   |    32|   0|    32|          0|
    |output_V_load_4301_reg_5814   |    32|   0|    32|          0|
    |output_V_load_4302_reg_5849   |    32|   0|    32|          0|
    |output_V_load_4303_reg_5854   |    32|   0|    32|          0|
    |output_V_load_4304_reg_5889   |    32|   0|    32|          0|
    |output_V_load_4305_reg_5894   |    32|   0|    32|          0|
    |output_V_load_4306_reg_5929   |    32|   0|    32|          0|
    |output_V_load_4307_reg_5934   |    32|   0|    32|          0|
    |output_V_load_4308_reg_5969   |    32|   0|    32|          0|
    |output_V_load_4309_reg_5974   |    32|   0|    32|          0|
    |output_V_load_4310_reg_6009   |    32|   0|    32|          0|
    |output_V_load_4311_reg_6014   |    32|   0|    32|          0|
    |output_V_load_4312_reg_6049   |    32|   0|    32|          0|
    |output_V_load_4313_reg_6054   |    32|   0|    32|          0|
    |output_V_load_4314_reg_6089   |    32|   0|    32|          0|
    |output_V_load_4315_reg_6094   |    32|   0|    32|          0|
    |output_V_load_4316_reg_6129   |    32|   0|    32|          0|
    |output_V_load_4317_reg_6134   |    32|   0|    32|          0|
    |output_V_load_4318_reg_6169   |    32|   0|    32|          0|
    |output_V_load_4319_reg_6174   |    32|   0|    32|          0|
    |output_V_load_4320_reg_6209   |    32|   0|    32|          0|
    |output_V_load_4321_reg_6214   |    32|   0|    32|          0|
    |output_V_load_4322_reg_6249   |    32|   0|    32|          0|
    |output_V_load_4323_reg_6254   |    32|   0|    32|          0|
    |output_V_load_4324_reg_6269   |    32|   0|    32|          0|
    |output_V_load_4325_reg_6274   |    32|   0|    32|          0|
    |output_V_load_4326_reg_6289   |    32|   0|    32|          0|
    |output_V_load_4327_reg_6294   |    32|   0|    32|          0|
    |output_V_load_4328_reg_6309   |    32|   0|    32|          0|
    |output_V_load_4329_reg_6314   |    32|   0|    32|          0|
    |output_V_load_4330_reg_6329   |    32|   0|    32|          0|
    |output_V_load_4331_reg_6334   |    32|   0|    32|          0|
    |output_V_load_4332_reg_6349   |    32|   0|    32|          0|
    |output_V_load_4333_reg_6354   |    32|   0|    32|          0|
    |output_V_load_4334_reg_6369   |    32|   0|    32|          0|
    |output_V_load_4335_reg_6374   |    32|   0|    32|          0|
    |output_V_load_4336_reg_6389   |    32|   0|    32|          0|
    |output_V_load_4337_reg_6394   |    32|   0|    32|          0|
    |output_V_load_4338_reg_6409   |    32|   0|    32|          0|
    |output_V_load_4339_reg_6414   |    32|   0|    32|          0|
    |output_V_load_4340_reg_6429   |    32|   0|    32|          0|
    |output_V_load_4341_reg_6434   |    32|   0|    32|          0|
    |output_V_load_4342_reg_6449   |    32|   0|    32|          0|
    |output_V_load_4343_reg_6454   |    32|   0|    32|          0|
    |output_V_load_4344_reg_6469   |    32|   0|    32|          0|
    |output_V_load_4345_reg_6474   |    32|   0|    32|          0|
    |output_V_load_4346_reg_6489   |    32|   0|    32|          0|
    |output_V_load_4347_reg_6494   |    32|   0|    32|          0|
    |output_V_load_4348_reg_6509   |    32|   0|    32|          0|
    |output_V_load_4349_reg_6514   |    32|   0|    32|          0|
    |output_V_load_4350_reg_6529   |    32|   0|    32|          0|
    |output_V_load_4351_reg_6534   |    32|   0|    32|          0|
    |output_V_load_4352_reg_6549   |    32|   0|    32|          0|
    |output_V_load_4353_reg_6554   |    32|   0|    32|          0|
    |output_V_load_4354_reg_6569   |    32|   0|    32|          0|
    |output_V_load_4355_reg_6574   |    32|   0|    32|          0|
    |output_V_load_4356_reg_6589   |    32|   0|    32|          0|
    |output_V_load_4357_reg_6594   |    32|   0|    32|          0|
    |output_V_load_4358_reg_6609   |    32|   0|    32|          0|
    |output_V_load_4359_reg_6614   |    32|   0|    32|          0|
    |output_V_load_4360_reg_6629   |    32|   0|    32|          0|
    |output_V_load_4361_reg_6634   |    32|   0|    32|          0|
    |output_V_load_4362_reg_6649   |    32|   0|    32|          0|
    |output_V_load_4363_reg_6654   |    32|   0|    32|          0|
    |output_V_load_4364_reg_6669   |    32|   0|    32|          0|
    |output_V_load_4365_reg_6674   |    32|   0|    32|          0|
    |output_V_load_4366_reg_6689   |    32|   0|    32|          0|
    |output_V_load_4367_reg_6694   |    32|   0|    32|          0|
    |output_V_load_4368_reg_6709   |    32|   0|    32|          0|
    |output_V_load_4369_reg_6714   |    32|   0|    32|          0|
    |output_V_load_4370_reg_6729   |    32|   0|    32|          0|
    |output_V_load_4371_reg_6734   |    32|   0|    32|          0|
    |output_V_load_4372_reg_6749   |    32|   0|    32|          0|
    |output_V_load_4373_reg_6754   |    32|   0|    32|          0|
    |output_V_load_4374_reg_6769   |    32|   0|    32|          0|
    |output_V_load_4375_reg_6774   |    32|   0|    32|          0|
    |output_V_load_4376_reg_6789   |    32|   0|    32|          0|
    |output_V_load_4377_reg_6794   |    32|   0|    32|          0|
    |output_V_load_4378_reg_6809   |    32|   0|    32|          0|
    |output_V_load_4379_reg_6814   |    32|   0|    32|          0|
    |output_V_load_4380_reg_6829   |    32|   0|    32|          0|
    |output_V_load_4381_reg_6834   |    32|   0|    32|          0|
    |output_V_load_4382_reg_6849   |    32|   0|    32|          0|
    |output_V_load_4383_reg_6854   |    32|   0|    32|          0|
    |output_V_load_4384_reg_6869   |    32|   0|    32|          0|
    |output_V_load_4385_reg_6874   |    32|   0|    32|          0|
    |output_V_load_4386_reg_6889   |    32|   0|    32|          0|
    |output_V_load_4387_reg_6894   |    32|   0|    32|          0|
    |output_V_load_4388_reg_6909   |    32|   0|    32|          0|
    |output_V_load_4389_reg_6914   |    32|   0|    32|          0|
    |reg_3585                      |    32|   0|    32|          0|
    |reg_3590                      |    32|   0|    32|          0|
    |trunc_ln203_reg_5439          |    32|   0|    32|          0|
    +------------------------------+------+----+------+-----------+
    |Total                         | 10368|   0| 10368|          0|
    +------------------------------+------+----+------+-----------+



================================================================
== Interface
================================================================
* Summary: 
+-------------------+-----+------+------------+-------------------------------------------------------+--------------+
|     RTL Ports     | Dir | Bits |  Protocol  |                     Source Object                     |    C Type    |
+-------------------+-----+------+------------+-------------------------------------------------------+--------------+
|ap_clk             |  in |     1| ap_ctrl_hs | cnnshift_arr<ap_fixed,ap_fixed<32,16,5,3,0>,config13> | return value |
|ap_rst             |  in |     1| ap_ctrl_hs | cnnshift_arr<ap_fixed,ap_fixed<32,16,5,3,0>,config13> | return value |
|ap_start           |  in |     1| ap_ctrl_hs | cnnshift_arr<ap_fixed,ap_fixed<32,16,5,3,0>,config13> | return value |
|ap_done            | out |     1| ap_ctrl_hs | cnnshift_arr<ap_fixed,ap_fixed<32,16,5,3,0>,config13> | return value |
|ap_idle            | out |     1| ap_ctrl_hs | cnnshift_arr<ap_fixed,ap_fixed<32,16,5,3,0>,config13> | return value |
|ap_ready           | out |     1| ap_ctrl_hs | cnnshift_arr<ap_fixed,ap_fixed<32,16,5,3,0>,config13> | return value |
|data_V_read        |  in |  1024|   ap_none  |                      data_V_read                      |    scalar    |
|output_V_address0  | out |     9|  ap_memory |                        output_V                       |     array    |
|output_V_ce0       | out |     1|  ap_memory |                        output_V                       |     array    |
|output_V_we0       | out |     1|  ap_memory |                        output_V                       |     array    |
|output_V_d0        | out |    32|  ap_memory |                        output_V                       |     array    |
|output_V_q0        |  in |    32|  ap_memory |                        output_V                       |     array    |
|output_V_address1  | out |     9|  ap_memory |                        output_V                       |     array    |
|output_V_ce1       | out |     1|  ap_memory |                        output_V                       |     array    |
|output_V_we1       | out |     1|  ap_memory |                        output_V                       |     array    |
|output_V_d1        | out |    32|  ap_memory |                        output_V                       |     array    |
|output_V_q1        |  in |    32|  ap_memory |                        output_V                       |     array    |
+-------------------+-----+------+------------+-------------------------------------------------------+--------------+

