

================================================================
== Vivado HLS Report for 'cnnshift_arr_ap_fixed_ap_fixed_32_16_5_3_0_config22_s'
================================================================
* Date:           Wed Mar 30 22:14:59 2022

* Version:        2019.2 (Build 2704478 on Wed Nov 06 22:10:23 MST 2019)
* Project:        myproject_prj
* Solution:       solution1
* Product family: zynq
* Target device:  xc7z020-clg400-1


================================================================
== Performance Estimates
================================================================
+ Timing: 
    * Summary: 
    +--------+---------+----------+------------+
    |  Clock |  Target | Estimated| Uncertainty|
    +--------+---------+----------+------------+
    |ap_clk  | 5.00 ns | 3.254 ns |   0.62 ns  |
    +--------+---------+----------+------------+

+ Latency: 
    * Summary: 
    +---------+---------+----------+----------+-----+-----+---------+
    |  Latency (cycles) |  Latency (absolute) |  Interval | Pipeline|
    |   min   |   max   |    min   |    max   | min | max |   Type  |
    +---------+---------+----------+----------+-----+-----+---------+
    |      383|      383| 1.915 us | 1.915 us |  383|  383|   none  |
    +---------+---------+----------+----------+-----+-----+---------+

    + Detail: 
        * Instance: 
        N/A

        * Loop: 
        N/A



================================================================
== Utilization Estimates
================================================================
* Summary: 
+-----------------+---------+-------+--------+-------+-----+
|       Name      | BRAM_18K| DSP48E|   FF   |  LUT  | URAM|
+-----------------+---------+-------+--------+-------+-----+
|DSP              |        -|      -|       -|      -|    -|
|Expression       |        -|      -|       -|      -|    -|
|FIFO             |        -|      -|       -|      -|    -|
|Instance         |        -|      -|       -|      -|    -|
|Memory           |        0|      -|    8192|   4096|    -|
|Multiplexer      |        -|      -|       -|   7649|    -|
|Register         |        -|      -|   18752|      -|    -|
+-----------------+---------+-------+--------+-------+-----+
|Total            |        0|      0|   26944|  11745|    0|
+-----------------+---------+-------+--------+-------+-----+
|Available        |      280|    220|  106400|  53200|    0|
+-----------------+---------+-------+--------+-------+-----+
|Utilization (%)  |        0|      0|      25|     22|    0|
+-----------------+---------+-------+--------+-------+-----+

+ Detail: 
    * Instance: 
    N/A

    * DSP48E: 
    N/A

    * Memory: 
    +--------------------------------+--------------------------------------------------------------+---------+----+----+-----+------+-----+------+-------------+
    |             Memory             |                            Module                            | BRAM_18K| FF | LUT| URAM| Words| Bits| Banks| W*Bits*Banks|
    +--------------------------------+--------------------------------------------------------------+---------+----+----+-----+------+-----+------+-------------+
    |layer_in_row_Array_V_10_0_0_U   |cnnshift_arr_ap_fixed_ap_fixed_32_16_5_3_0_config18_s_laycRA  |        0|  64|  32|    0|    15|   32|     1|          480|
    |layer_in_row_Array_V_10_1_0_U   |cnnshift_arr_ap_fixed_ap_fixed_32_16_5_3_0_config18_s_laycRA  |        0|  64|  32|    0|    15|   32|     1|          480|
    |layer_in_row_Array_V_10_0_1_U   |cnnshift_arr_ap_fixed_ap_fixed_32_16_5_3_0_config18_s_laycRA  |        0|  64|  32|    0|    15|   32|     1|          480|
    |layer_in_row_Array_V_10_1_1_U   |cnnshift_arr_ap_fixed_ap_fixed_32_16_5_3_0_config18_s_laycRA  |        0|  64|  32|    0|    15|   32|     1|          480|
    |layer_in_row_Array_V_10_0_2_U   |cnnshift_arr_ap_fixed_ap_fixed_32_16_5_3_0_config18_s_laycRA  |        0|  64|  32|    0|    15|   32|     1|          480|
    |layer_in_row_Array_V_10_1_2_U   |cnnshift_arr_ap_fixed_ap_fixed_32_16_5_3_0_config18_s_laycRA  |        0|  64|  32|    0|    15|   32|     1|          480|
    |layer_in_row_Array_V_10_0_3_U   |cnnshift_arr_ap_fixed_ap_fixed_32_16_5_3_0_config18_s_laycRA  |        0|  64|  32|    0|    15|   32|     1|          480|
    |layer_in_row_Array_V_10_1_3_U   |cnnshift_arr_ap_fixed_ap_fixed_32_16_5_3_0_config18_s_laycRA  |        0|  64|  32|    0|    15|   32|     1|          480|
    |layer_in_row_Array_V_10_0_4_U   |cnnshift_arr_ap_fixed_ap_fixed_32_16_5_3_0_config18_s_laycRA  |        0|  64|  32|    0|    15|   32|     1|          480|
    |layer_in_row_Array_V_10_1_4_U   |cnnshift_arr_ap_fixed_ap_fixed_32_16_5_3_0_config18_s_laycRA  |        0|  64|  32|    0|    15|   32|     1|          480|
    |layer_in_row_Array_V_10_0_5_U   |cnnshift_arr_ap_fixed_ap_fixed_32_16_5_3_0_config18_s_laycRA  |        0|  64|  32|    0|    15|   32|     1|          480|
    |layer_in_row_Array_V_10_1_5_U   |cnnshift_arr_ap_fixed_ap_fixed_32_16_5_3_0_config18_s_laycRA  |        0|  64|  32|    0|    15|   32|     1|          480|
    |layer_in_row_Array_V_10_0_6_U   |cnnshift_arr_ap_fixed_ap_fixed_32_16_5_3_0_config18_s_laycRA  |        0|  64|  32|    0|    15|   32|     1|          480|
    |layer_in_row_Array_V_10_1_6_U   |cnnshift_arr_ap_fixed_ap_fixed_32_16_5_3_0_config18_s_laycRA  |        0|  64|  32|    0|    15|   32|     1|          480|
    |layer_in_row_Array_V_10_0_7_U   |cnnshift_arr_ap_fixed_ap_fixed_32_16_5_3_0_config18_s_laycRA  |        0|  64|  32|    0|    15|   32|     1|          480|
    |layer_in_row_Array_V_10_1_7_U   |cnnshift_arr_ap_fixed_ap_fixed_32_16_5_3_0_config18_s_laycRA  |        0|  64|  32|    0|    15|   32|     1|          480|
    |layer_in_row_Array_V_10_0_8_U   |cnnshift_arr_ap_fixed_ap_fixed_32_16_5_3_0_config18_s_laycRA  |        0|  64|  32|    0|    15|   32|     1|          480|
    |layer_in_row_Array_V_10_1_8_U   |cnnshift_arr_ap_fixed_ap_fixed_32_16_5_3_0_config18_s_laycRA  |        0|  64|  32|    0|    15|   32|     1|          480|
    |layer_in_row_Array_V_10_0_9_U   |cnnshift_arr_ap_fixed_ap_fixed_32_16_5_3_0_config18_s_laycRA  |        0|  64|  32|    0|    15|   32|     1|          480|
    |layer_in_row_Array_V_10_1_9_U   |cnnshift_arr_ap_fixed_ap_fixed_32_16_5_3_0_config18_s_laycRA  |        0|  64|  32|    0|    15|   32|     1|          480|
    |layer_in_row_Array_V_10_0_10_U  |cnnshift_arr_ap_fixed_ap_fixed_32_16_5_3_0_config18_s_laycRA  |        0|  64|  32|    0|    15|   32|     1|          480|
    |layer_in_row_Array_V_10_1_10_U  |cnnshift_arr_ap_fixed_ap_fixed_32_16_5_3_0_config18_s_laycRA  |        0|  64|  32|    0|    15|   32|     1|          480|
    |layer_in_row_Array_V_10_0_11_U  |cnnshift_arr_ap_fixed_ap_fixed_32_16_5_3_0_config18_s_laycRA  |        0|  64|  32|    0|    15|   32|     1|          480|
    |layer_in_row_Array_V_10_1_11_U  |cnnshift_arr_ap_fixed_ap_fixed_32_16_5_3_0_config18_s_laycRA  |        0|  64|  32|    0|    15|   32|     1|          480|
    |layer_in_row_Array_V_10_0_12_U  |cnnshift_arr_ap_fixed_ap_fixed_32_16_5_3_0_config18_s_laycRA  |        0|  64|  32|    0|    15|   32|     1|          480|
    |layer_in_row_Array_V_10_1_12_U  |cnnshift_arr_ap_fixed_ap_fixed_32_16_5_3_0_config18_s_laycRA  |        0|  64|  32|    0|    15|   32|     1|          480|
    |layer_in_row_Array_V_10_0_13_U  |cnnshift_arr_ap_fixed_ap_fixed_32_16_5_3_0_config18_s_laycRA  |        0|  64|  32|    0|    15|   32|     1|          480|
    |layer_in_row_Array_V_10_1_13_U  |cnnshift_arr_ap_fixed_ap_fixed_32_16_5_3_0_config18_s_laycRA  |        0|  64|  32|    0|    15|   32|     1|          480|
    |layer_in_row_Array_V_10_0_14_U  |cnnshift_arr_ap_fixed_ap_fixed_32_16_5_3_0_config18_s_laycRA  |        0|  64|  32|    0|    15|   32|     1|          480|
    |layer_in_row_Array_V_10_1_14_U  |cnnshift_arr_ap_fixed_ap_fixed_32_16_5_3_0_config18_s_laycRA  |        0|  64|  32|    0|    15|   32|     1|          480|
    |layer_in_row_Array_V_10_0_15_U  |cnnshift_arr_ap_fixed_ap_fixed_32_16_5_3_0_config18_s_laycRA  |        0|  64|  32|    0|    15|   32|     1|          480|
    |layer_in_row_Array_V_10_1_15_U  |cnnshift_arr_ap_fixed_ap_fixed_32_16_5_3_0_config18_s_laycRA  |        0|  64|  32|    0|    15|   32|     1|          480|
    |layer_in_row_Array_V_10_0_16_U  |cnnshift_arr_ap_fixed_ap_fixed_32_16_5_3_0_config18_s_laycRA  |        0|  64|  32|    0|    15|   32|     1|          480|
    |layer_in_row_Array_V_10_1_16_U  |cnnshift_arr_ap_fixed_ap_fixed_32_16_5_3_0_config18_s_laycRA  |        0|  64|  32|    0|    15|   32|     1|          480|
    |layer_in_row_Array_V_10_0_17_U  |cnnshift_arr_ap_fixed_ap_fixed_32_16_5_3_0_config18_s_laycRA  |        0|  64|  32|    0|    15|   32|     1|          480|
    |layer_in_row_Array_V_10_1_17_U  |cnnshift_arr_ap_fixed_ap_fixed_32_16_5_3_0_config18_s_laycRA  |        0|  64|  32|    0|    15|   32|     1|          480|
    |layer_in_row_Array_V_10_0_18_U  |cnnshift_arr_ap_fixed_ap_fixed_32_16_5_3_0_config18_s_laycRA  |        0|  64|  32|    0|    15|   32|     1|          480|
    |layer_in_row_Array_V_10_1_18_U  |cnnshift_arr_ap_fixed_ap_fixed_32_16_5_3_0_config18_s_laycRA  |        0|  64|  32|    0|    15|   32|     1|          480|
    |layer_in_row_Array_V_10_0_19_U  |cnnshift_arr_ap_fixed_ap_fixed_32_16_5_3_0_config18_s_laycRA  |        0|  64|  32|    0|    15|   32|     1|          480|
    |layer_in_row_Array_V_10_1_19_U  |cnnshift_arr_ap_fixed_ap_fixed_32_16_5_3_0_config18_s_laycRA  |        0|  64|  32|    0|    15|   32|     1|          480|
    |layer_in_row_Array_V_10_0_20_U  |cnnshift_arr_ap_fixed_ap_fixed_32_16_5_3_0_config18_s_laycRA  |        0|  64|  32|    0|    15|   32|     1|          480|
    |layer_in_row_Array_V_10_1_20_U  |cnnshift_arr_ap_fixed_ap_fixed_32_16_5_3_0_config18_s_laycRA  |        0|  64|  32|    0|    15|   32|     1|          480|
    |layer_in_row_Array_V_10_0_21_U  |cnnshift_arr_ap_fixed_ap_fixed_32_16_5_3_0_config18_s_laycRA  |        0|  64|  32|    0|    15|   32|     1|          480|
    |layer_in_row_Array_V_10_1_21_U  |cnnshift_arr_ap_fixed_ap_fixed_32_16_5_3_0_config18_s_laycRA  |        0|  64|  32|    0|    15|   32|     1|          480|
    |layer_in_row_Array_V_10_0_22_U  |cnnshift_arr_ap_fixed_ap_fixed_32_16_5_3_0_config18_s_laycRA  |        0|  64|  32|    0|    15|   32|     1|          480|
    |layer_in_row_Array_V_10_1_22_U  |cnnshift_arr_ap_fixed_ap_fixed_32_16_5_3_0_config18_s_laycRA  |        0|  64|  32|    0|    15|   32|     1|          480|
    |layer_in_row_Array_V_10_0_23_U  |cnnshift_arr_ap_fixed_ap_fixed_32_16_5_3_0_config18_s_laycRA  |        0|  64|  32|    0|    15|   32|     1|          480|
    |layer_in_row_Array_V_10_1_23_U  |cnnshift_arr_ap_fixed_ap_fixed_32_16_5_3_0_config18_s_laycRA  |        0|  64|  32|    0|    15|   32|     1|          480|
    |layer_in_row_Array_V_10_0_24_U  |cnnshift_arr_ap_fixed_ap_fixed_32_16_5_3_0_config18_s_laycRA  |        0|  64|  32|    0|    15|   32|     1|          480|
    |layer_in_row_Array_V_10_1_24_U  |cnnshift_arr_ap_fixed_ap_fixed_32_16_5_3_0_config18_s_laycRA  |        0|  64|  32|    0|    15|   32|     1|          480|
    |layer_in_row_Array_V_10_0_25_U  |cnnshift_arr_ap_fixed_ap_fixed_32_16_5_3_0_config18_s_laycRA  |        0|  64|  32|    0|    15|   32|     1|          480|
    |layer_in_row_Array_V_10_1_25_U  |cnnshift_arr_ap_fixed_ap_fixed_32_16_5_3_0_config18_s_laycRA  |        0|  64|  32|    0|    15|   32|     1|          480|
    |layer_in_row_Array_V_10_0_26_U  |cnnshift_arr_ap_fixed_ap_fixed_32_16_5_3_0_config18_s_laycRA  |        0|  64|  32|    0|    15|   32|     1|          480|
    |layer_in_row_Array_V_10_1_26_U  |cnnshift_arr_ap_fixed_ap_fixed_32_16_5_3_0_config18_s_laycRA  |        0|  64|  32|    0|    15|   32|     1|          480|
    |layer_in_row_Array_V_10_0_27_U  |cnnshift_arr_ap_fixed_ap_fixed_32_16_5_3_0_config18_s_laycRA  |        0|  64|  32|    0|    15|   32|     1|          480|
    |layer_in_row_Array_V_10_1_27_U  |cnnshift_arr_ap_fixed_ap_fixed_32_16_5_3_0_config18_s_laycRA  |        0|  64|  32|    0|    15|   32|     1|          480|
    |layer_in_row_Array_V_10_0_28_U  |cnnshift_arr_ap_fixed_ap_fixed_32_16_5_3_0_config18_s_laycRA  |        0|  64|  32|    0|    15|   32|     1|          480|
    |layer_in_row_Array_V_10_1_28_U  |cnnshift_arr_ap_fixed_ap_fixed_32_16_5_3_0_config18_s_laycRA  |        0|  64|  32|    0|    15|   32|     1|          480|
    |layer_in_row_Array_V_10_0_29_U  |cnnshift_arr_ap_fixed_ap_fixed_32_16_5_3_0_config18_s_laycRA  |        0|  64|  32|    0|    15|   32|     1|          480|
    |layer_in_row_Array_V_10_1_29_U  |cnnshift_arr_ap_fixed_ap_fixed_32_16_5_3_0_config18_s_laycRA  |        0|  64|  32|    0|    15|   32|     1|          480|
    |layer_in_row_Array_V_10_0_30_U  |cnnshift_arr_ap_fixed_ap_fixed_32_16_5_3_0_config18_s_laycRA  |        0|  64|  32|    0|    15|   32|     1|          480|
    |layer_in_row_Array_V_10_1_30_U  |cnnshift_arr_ap_fixed_ap_fixed_32_16_5_3_0_config18_s_laycRA  |        0|  64|  32|    0|    15|   32|     1|          480|
    |layer_in_row_Array_V_10_0_31_U  |cnnshift_arr_ap_fixed_ap_fixed_32_16_5_3_0_config18_s_laycRA  |        0|  64|  32|    0|    15|   32|     1|          480|
    |layer_in_row_Array_V_10_1_31_U  |cnnshift_arr_ap_fixed_ap_fixed_32_16_5_3_0_config18_s_laycRA  |        0|  64|  32|    0|    15|   32|     1|          480|
    |layer_in_row_Array_V_10_0_32_U  |cnnshift_arr_ap_fixed_ap_fixed_32_16_5_3_0_config18_s_laycRA  |        0|  64|  32|    0|    15|   32|     1|          480|
    |layer_in_row_Array_V_10_1_32_U  |cnnshift_arr_ap_fixed_ap_fixed_32_16_5_3_0_config18_s_laycRA  |        0|  64|  32|    0|    15|   32|     1|          480|
    |layer_in_row_Array_V_10_0_33_U  |cnnshift_arr_ap_fixed_ap_fixed_32_16_5_3_0_config18_s_laycRA  |        0|  64|  32|    0|    15|   32|     1|          480|
    |layer_in_row_Array_V_10_1_33_U  |cnnshift_arr_ap_fixed_ap_fixed_32_16_5_3_0_config18_s_laycRA  |        0|  64|  32|    0|    15|   32|     1|          480|
    |layer_in_row_Array_V_10_0_34_U  |cnnshift_arr_ap_fixed_ap_fixed_32_16_5_3_0_config18_s_laycRA  |        0|  64|  32|    0|    15|   32|     1|          480|
    |layer_in_row_Array_V_10_1_34_U  |cnnshift_arr_ap_fixed_ap_fixed_32_16_5_3_0_config18_s_laycRA  |        0|  64|  32|    0|    15|   32|     1|          480|
    |layer_in_row_Array_V_10_0_35_U  |cnnshift_arr_ap_fixed_ap_fixed_32_16_5_3_0_config18_s_laycRA  |        0|  64|  32|    0|    15|   32|     1|          480|
    |layer_in_row_Array_V_10_1_35_U  |cnnshift_arr_ap_fixed_ap_fixed_32_16_5_3_0_config18_s_laycRA  |        0|  64|  32|    0|    15|   32|     1|          480|
    |layer_in_row_Array_V_10_0_36_U  |cnnshift_arr_ap_fixed_ap_fixed_32_16_5_3_0_config18_s_laycRA  |        0|  64|  32|    0|    15|   32|     1|          480|
    |layer_in_row_Array_V_10_1_36_U  |cnnshift_arr_ap_fixed_ap_fixed_32_16_5_3_0_config18_s_laycRA  |        0|  64|  32|    0|    15|   32|     1|          480|
    |layer_in_row_Array_V_10_0_37_U  |cnnshift_arr_ap_fixed_ap_fixed_32_16_5_3_0_config18_s_laycRA  |        0|  64|  32|    0|    15|   32|     1|          480|
    |layer_in_row_Array_V_10_1_37_U  |cnnshift_arr_ap_fixed_ap_fixed_32_16_5_3_0_config18_s_laycRA  |        0|  64|  32|    0|    15|   32|     1|          480|
    |layer_in_row_Array_V_10_0_38_U  |cnnshift_arr_ap_fixed_ap_fixed_32_16_5_3_0_config18_s_laycRA  |        0|  64|  32|    0|    15|   32|     1|          480|
    |layer_in_row_Array_V_10_1_38_U  |cnnshift_arr_ap_fixed_ap_fixed_32_16_5_3_0_config18_s_laycRA  |        0|  64|  32|    0|    15|   32|     1|          480|
    |layer_in_row_Array_V_10_0_39_U  |cnnshift_arr_ap_fixed_ap_fixed_32_16_5_3_0_config18_s_laycRA  |        0|  64|  32|    0|    15|   32|     1|          480|
    |layer_in_row_Array_V_10_1_39_U  |cnnshift_arr_ap_fixed_ap_fixed_32_16_5_3_0_config18_s_laycRA  |        0|  64|  32|    0|    15|   32|     1|          480|
    |layer_in_row_Array_V_10_0_40_U  |cnnshift_arr_ap_fixed_ap_fixed_32_16_5_3_0_config18_s_laycRA  |        0|  64|  32|    0|    15|   32|     1|          480|
    |layer_in_row_Array_V_10_1_40_U  |cnnshift_arr_ap_fixed_ap_fixed_32_16_5_3_0_config18_s_laycRA  |        0|  64|  32|    0|    15|   32|     1|          480|
    |layer_in_row_Array_V_10_0_41_U  |cnnshift_arr_ap_fixed_ap_fixed_32_16_5_3_0_config18_s_laycRA  |        0|  64|  32|    0|    15|   32|     1|          480|
    |layer_in_row_Array_V_10_1_41_U  |cnnshift_arr_ap_fixed_ap_fixed_32_16_5_3_0_config18_s_laycRA  |        0|  64|  32|    0|    15|   32|     1|          480|
    |layer_in_row_Array_V_10_0_42_U  |cnnshift_arr_ap_fixed_ap_fixed_32_16_5_3_0_config18_s_laycRA  |        0|  64|  32|    0|    15|   32|     1|          480|
    |layer_in_row_Array_V_10_1_42_U  |cnnshift_arr_ap_fixed_ap_fixed_32_16_5_3_0_config18_s_laycRA  |        0|  64|  32|    0|    15|   32|     1|          480|
    |layer_in_row_Array_V_10_0_43_U  |cnnshift_arr_ap_fixed_ap_fixed_32_16_5_3_0_config18_s_laycRA  |        0|  64|  32|    0|    15|   32|     1|          480|
    |layer_in_row_Array_V_10_1_43_U  |cnnshift_arr_ap_fixed_ap_fixed_32_16_5_3_0_config18_s_laycRA  |        0|  64|  32|    0|    15|   32|     1|          480|
    |layer_in_row_Array_V_10_0_44_U  |cnnshift_arr_ap_fixed_ap_fixed_32_16_5_3_0_config18_s_laycRA  |        0|  64|  32|    0|    15|   32|     1|          480|
    |layer_in_row_Array_V_10_1_44_U  |cnnshift_arr_ap_fixed_ap_fixed_32_16_5_3_0_config18_s_laycRA  |        0|  64|  32|    0|    15|   32|     1|          480|
    |layer_in_row_Array_V_10_0_45_U  |cnnshift_arr_ap_fixed_ap_fixed_32_16_5_3_0_config18_s_laycRA  |        0|  64|  32|    0|    15|   32|     1|          480|
    |layer_in_row_Array_V_10_1_45_U  |cnnshift_arr_ap_fixed_ap_fixed_32_16_5_3_0_config18_s_laycRA  |        0|  64|  32|    0|    15|   32|     1|          480|
    |layer_in_row_Array_V_10_0_46_U  |cnnshift_arr_ap_fixed_ap_fixed_32_16_5_3_0_config18_s_laycRA  |        0|  64|  32|    0|    15|   32|     1|          480|
    |layer_in_row_Array_V_10_1_46_U  |cnnshift_arr_ap_fixed_ap_fixed_32_16_5_3_0_config18_s_laycRA  |        0|  64|  32|    0|    15|   32|     1|          480|
    |layer_in_row_Array_V_10_0_47_U  |cnnshift_arr_ap_fixed_ap_fixed_32_16_5_3_0_config18_s_laycRA  |        0|  64|  32|    0|    15|   32|     1|          480|
    |layer_in_row_Array_V_10_1_47_U  |cnnshift_arr_ap_fixed_ap_fixed_32_16_5_3_0_config18_s_laycRA  |        0|  64|  32|    0|    15|   32|     1|          480|
    |layer_in_row_Array_V_10_0_48_U  |cnnshift_arr_ap_fixed_ap_fixed_32_16_5_3_0_config18_s_laycRA  |        0|  64|  32|    0|    15|   32|     1|          480|
    |layer_in_row_Array_V_10_1_48_U  |cnnshift_arr_ap_fixed_ap_fixed_32_16_5_3_0_config18_s_laycRA  |        0|  64|  32|    0|    15|   32|     1|          480|
    |layer_in_row_Array_V_10_0_49_U  |cnnshift_arr_ap_fixed_ap_fixed_32_16_5_3_0_config18_s_laycRA  |        0|  64|  32|    0|    15|   32|     1|          480|
    |layer_in_row_Array_V_10_1_49_U  |cnnshift_arr_ap_fixed_ap_fixed_32_16_5_3_0_config18_s_laycRA  |        0|  64|  32|    0|    15|   32|     1|          480|
    |layer_in_row_Array_V_10_0_50_U  |cnnshift_arr_ap_fixed_ap_fixed_32_16_5_3_0_config18_s_laycRA  |        0|  64|  32|    0|    15|   32|     1|          480|
    |layer_in_row_Array_V_10_1_50_U  |cnnshift_arr_ap_fixed_ap_fixed_32_16_5_3_0_config18_s_laycRA  |        0|  64|  32|    0|    15|   32|     1|          480|
    |layer_in_row_Array_V_10_0_51_U  |cnnshift_arr_ap_fixed_ap_fixed_32_16_5_3_0_config18_s_laycRA  |        0|  64|  32|    0|    15|   32|     1|          480|
    |layer_in_row_Array_V_10_1_51_U  |cnnshift_arr_ap_fixed_ap_fixed_32_16_5_3_0_config18_s_laycRA  |        0|  64|  32|    0|    15|   32|     1|          480|
    |layer_in_row_Array_V_10_0_52_U  |cnnshift_arr_ap_fixed_ap_fixed_32_16_5_3_0_config18_s_laycRA  |        0|  64|  32|    0|    15|   32|     1|          480|
    |layer_in_row_Array_V_10_1_52_U  |cnnshift_arr_ap_fixed_ap_fixed_32_16_5_3_0_config18_s_laycRA  |        0|  64|  32|    0|    15|   32|     1|          480|
    |layer_in_row_Array_V_10_0_53_U  |cnnshift_arr_ap_fixed_ap_fixed_32_16_5_3_0_config18_s_laycRA  |        0|  64|  32|    0|    15|   32|     1|          480|
    |layer_in_row_Array_V_10_1_53_U  |cnnshift_arr_ap_fixed_ap_fixed_32_16_5_3_0_config18_s_laycRA  |        0|  64|  32|    0|    15|   32|     1|          480|
    |layer_in_row_Array_V_10_0_54_U  |cnnshift_arr_ap_fixed_ap_fixed_32_16_5_3_0_config18_s_laycRA  |        0|  64|  32|    0|    15|   32|     1|          480|
    |layer_in_row_Array_V_10_1_54_U  |cnnshift_arr_ap_fixed_ap_fixed_32_16_5_3_0_config18_s_laycRA  |        0|  64|  32|    0|    15|   32|     1|          480|
    |layer_in_row_Array_V_10_0_55_U  |cnnshift_arr_ap_fixed_ap_fixed_32_16_5_3_0_config18_s_laycRA  |        0|  64|  32|    0|    15|   32|     1|          480|
    |layer_in_row_Array_V_10_1_55_U  |cnnshift_arr_ap_fixed_ap_fixed_32_16_5_3_0_config18_s_laycRA  |        0|  64|  32|    0|    15|   32|     1|          480|
    |layer_in_row_Array_V_10_0_56_U  |cnnshift_arr_ap_fixed_ap_fixed_32_16_5_3_0_config18_s_laycRA  |        0|  64|  32|    0|    15|   32|     1|          480|
    |layer_in_row_Array_V_10_1_56_U  |cnnshift_arr_ap_fixed_ap_fixed_32_16_5_3_0_config18_s_laycRA  |        0|  64|  32|    0|    15|   32|     1|          480|
    |layer_in_row_Array_V_10_0_57_U  |cnnshift_arr_ap_fixed_ap_fixed_32_16_5_3_0_config18_s_laycRA  |        0|  64|  32|    0|    15|   32|     1|          480|
    |layer_in_row_Array_V_10_1_57_U  |cnnshift_arr_ap_fixed_ap_fixed_32_16_5_3_0_config18_s_laycRA  |        0|  64|  32|    0|    15|   32|     1|          480|
    |layer_in_row_Array_V_10_0_58_U  |cnnshift_arr_ap_fixed_ap_fixed_32_16_5_3_0_config18_s_laycRA  |        0|  64|  32|    0|    15|   32|     1|          480|
    |layer_in_row_Array_V_10_1_58_U  |cnnshift_arr_ap_fixed_ap_fixed_32_16_5_3_0_config18_s_laycRA  |        0|  64|  32|    0|    15|   32|     1|          480|
    |layer_in_row_Array_V_10_0_59_U  |cnnshift_arr_ap_fixed_ap_fixed_32_16_5_3_0_config18_s_laycRA  |        0|  64|  32|    0|    15|   32|     1|          480|
    |layer_in_row_Array_V_10_1_59_U  |cnnshift_arr_ap_fixed_ap_fixed_32_16_5_3_0_config18_s_laycRA  |        0|  64|  32|    0|    15|   32|     1|          480|
    |layer_in_row_Array_V_10_0_60_U  |cnnshift_arr_ap_fixed_ap_fixed_32_16_5_3_0_config18_s_laycRA  |        0|  64|  32|    0|    15|   32|     1|          480|
    |layer_in_row_Array_V_10_1_60_U  |cnnshift_arr_ap_fixed_ap_fixed_32_16_5_3_0_config18_s_laycRA  |        0|  64|  32|    0|    15|   32|     1|          480|
    |layer_in_row_Array_V_10_0_61_U  |cnnshift_arr_ap_fixed_ap_fixed_32_16_5_3_0_config18_s_laycRA  |        0|  64|  32|    0|    15|   32|     1|          480|
    |layer_in_row_Array_V_10_1_61_U  |cnnshift_arr_ap_fixed_ap_fixed_32_16_5_3_0_config18_s_laycRA  |        0|  64|  32|    0|    15|   32|     1|          480|
    |layer_in_row_Array_V_10_0_62_U  |cnnshift_arr_ap_fixed_ap_fixed_32_16_5_3_0_config18_s_laycRA  |        0|  64|  32|    0|    15|   32|     1|          480|
    |layer_in_row_Array_V_10_1_62_U  |cnnshift_arr_ap_fixed_ap_fixed_32_16_5_3_0_config18_s_laycRA  |        0|  64|  32|    0|    15|   32|     1|          480|
    |layer_in_row_Array_V_10_0_63_U  |cnnshift_arr_ap_fixed_ap_fixed_32_16_5_3_0_config18_s_laycRA  |        0|  64|  32|    0|    15|   32|     1|          480|
    |layer_in_row_Array_V_10_1_63_U  |cnnshift_arr_ap_fixed_ap_fixed_32_16_5_3_0_config18_s_laycRA  |        0|  64|  32|    0|    15|   32|     1|          480|
    +--------------------------------+--------------------------------------------------------------+---------+----+----+-----+------+-----+------+-------------+
    |Total                           |                                                              |        0|8192|4096|    0|  1920| 4096|   128|        61440|
    +--------------------------------+--------------------------------------------------------------+---------+----+----+-----+------+-----+------+-------------+

    * FIFO: 
    N/A

    * Expression: 
    N/A

    * Multiplexer: 
    +-------------------+------+-----------+-----+-----------+
    |        Name       |  LUT | Input Size| Bits| Total Bits|
    +-------------------+------+-----------+-----+-----------+
    |ap_NS_fsm          |  1685|        385|    1|        385|
    |output_V_address0  |  1685|        385|   10|       3850|
    |output_V_address1  |  1685|        385|   10|       3850|
    |output_V_d0        |  1297|        288|   32|       9216|
    |output_V_d1        |  1297|        288|   32|       9216|
    +-------------------+------+-----------+-----+-----------+
    |Total              |  7649|       1731|   85|      26517|
    +-------------------+------+-----------+-----+-----------+

    * Register: 
    +-------------------------------+-----+----+-----+-----------+
    |              Name             |  FF | LUT| Bits| Const Bits|
    +-------------------------------+-----+----+-----+-----------+
    |DataIn_V_assign_585_reg_10909  |   32|   0|   32|          0|
    |DataIn_V_assign_586_reg_10915  |   32|   0|   32|          0|
    |DataIn_V_assign_587_reg_10921  |   32|   0|   32|          0|
    |DataIn_V_assign_588_reg_10927  |   32|   0|   32|          0|
    |DataIn_V_assign_589_reg_10933  |   32|   0|   32|          0|
    |DataIn_V_assign_590_reg_10939  |   32|   0|   32|          0|
    |DataIn_V_assign_591_reg_10945  |   32|   0|   32|          0|
    |DataIn_V_assign_592_reg_10951  |   32|   0|   32|          0|
    |DataIn_V_assign_593_reg_10957  |   32|   0|   32|          0|
    |DataIn_V_assign_594_reg_10963  |   32|   0|   32|          0|
    |DataIn_V_assign_595_reg_10969  |   32|   0|   32|          0|
    |DataIn_V_assign_596_reg_10975  |   32|   0|   32|          0|
    |DataIn_V_assign_597_reg_10981  |   32|   0|   32|          0|
    |DataIn_V_assign_598_reg_10987  |   32|   0|   32|          0|
    |DataIn_V_assign_599_reg_10993  |   32|   0|   32|          0|
    |DataIn_V_assign_600_reg_10999  |   32|   0|   32|          0|
    |DataIn_V_assign_601_reg_11005  |   32|   0|   32|          0|
    |DataIn_V_assign_602_reg_11011  |   32|   0|   32|          0|
    |DataIn_V_assign_603_reg_11017  |   32|   0|   32|          0|
    |DataIn_V_assign_604_reg_11023  |   32|   0|   32|          0|
    |DataIn_V_assign_605_reg_11029  |   32|   0|   32|          0|
    |DataIn_V_assign_606_reg_11035  |   32|   0|   32|          0|
    |DataIn_V_assign_607_reg_11041  |   32|   0|   32|          0|
    |DataIn_V_assign_608_reg_11047  |   32|   0|   32|          0|
    |DataIn_V_assign_609_reg_11053  |   32|   0|   32|          0|
    |DataIn_V_assign_610_reg_11059  |   32|   0|   32|          0|
    |DataIn_V_assign_611_reg_11065  |   32|   0|   32|          0|
    |DataIn_V_assign_612_reg_11071  |   32|   0|   32|          0|
    |DataIn_V_assign_613_reg_11077  |   32|   0|   32|          0|
    |DataIn_V_assign_614_reg_11083  |   32|   0|   32|          0|
    |DataIn_V_assign_615_reg_11089  |   32|   0|   32|          0|
    |DataIn_V_assign_616_reg_11095  |   32|   0|   32|          0|
    |DataIn_V_assign_617_reg_11101  |   32|   0|   32|          0|
    |DataIn_V_assign_618_reg_11107  |   32|   0|   32|          0|
    |DataIn_V_assign_619_reg_11113  |   32|   0|   32|          0|
    |DataIn_V_assign_620_reg_11119  |   32|   0|   32|          0|
    |DataIn_V_assign_621_reg_11125  |   32|   0|   32|          0|
    |DataIn_V_assign_622_reg_11131  |   32|   0|   32|          0|
    |DataIn_V_assign_623_reg_11137  |   32|   0|   32|          0|
    |DataIn_V_assign_624_reg_11143  |   32|   0|   32|          0|
    |DataIn_V_assign_625_reg_11149  |   32|   0|   32|          0|
    |DataIn_V_assign_626_reg_11155  |   32|   0|   32|          0|
    |DataIn_V_assign_627_reg_11161  |   32|   0|   32|          0|
    |DataIn_V_assign_628_reg_11167  |   32|   0|   32|          0|
    |DataIn_V_assign_629_reg_11173  |   32|   0|   32|          0|
    |DataIn_V_assign_630_reg_11179  |   32|   0|   32|          0|
    |DataIn_V_assign_631_reg_11185  |   32|   0|   32|          0|
    |DataIn_V_assign_632_reg_11191  |   32|   0|   32|          0|
    |DataIn_V_assign_633_reg_11197  |   32|   0|   32|          0|
    |DataIn_V_assign_634_reg_11203  |   32|   0|   32|          0|
    |DataIn_V_assign_635_reg_11209  |   32|   0|   32|          0|
    |DataIn_V_assign_636_reg_11215  |   32|   0|   32|          0|
    |DataIn_V_assign_637_reg_11221  |   32|   0|   32|          0|
    |DataIn_V_assign_638_reg_11227  |   32|   0|   32|          0|
    |DataIn_V_assign_639_reg_11233  |   32|   0|   32|          0|
    |DataIn_V_assign_640_reg_11239  |   32|   0|   32|          0|
    |DataIn_V_assign_641_reg_11245  |   32|   0|   32|          0|
    |DataIn_V_assign_642_reg_11251  |   32|   0|   32|          0|
    |DataIn_V_assign_643_reg_11257  |   32|   0|   32|          0|
    |DataIn_V_assign_644_reg_11263  |   32|   0|   32|          0|
    |DataIn_V_assign_645_reg_11269  |   32|   0|   32|          0|
    |DataIn_V_assign_646_reg_11275  |   32|   0|   32|          0|
    |DataIn_V_assign_s_reg_10894    |   32|   0|   32|          0|
    |DataOut_V1526_reg_12516        |   32|   0|   32|          0|
    |DataOut_V_1400_reg_10884       |   32|   0|   32|          0|
    |DataOut_V_1401_reg_10899       |   32|   0|   32|          0|
    |DataOut_V_1402_reg_10904       |   32|   0|   32|          0|
    |DataOut_V_1403_reg_11301       |   32|   0|   32|          0|
    |DataOut_V_1404_reg_11306       |   32|   0|   32|          0|
    |DataOut_V_1405_reg_11311       |   32|   0|   32|          0|
    |DataOut_V_1406_reg_11316       |   32|   0|   32|          0|
    |DataOut_V_1407_reg_11341       |   32|   0|   32|          0|
    |DataOut_V_1408_reg_11346       |   32|   0|   32|          0|
    |DataOut_V_1409_reg_11351       |   32|   0|   32|          0|
    |DataOut_V_1410_reg_11356       |   32|   0|   32|          0|
    |DataOut_V_1411_reg_11381       |   32|   0|   32|          0|
    |DataOut_V_1412_reg_11386       |   32|   0|   32|          0|
    |DataOut_V_1413_reg_11391       |   32|   0|   32|          0|
    |DataOut_V_1414_reg_11396       |   32|   0|   32|          0|
    |DataOut_V_1415_reg_11421       |   32|   0|   32|          0|
    |DataOut_V_1416_reg_11426       |   32|   0|   32|          0|
    |DataOut_V_1417_reg_11431       |   32|   0|   32|          0|
    |DataOut_V_1418_reg_11436       |   32|   0|   32|          0|
    |DataOut_V_1419_reg_11461       |   32|   0|   32|          0|
    |DataOut_V_1420_reg_11466       |   32|   0|   32|          0|
    |DataOut_V_1421_reg_11471       |   32|   0|   32|          0|
    |DataOut_V_1422_reg_11476       |   32|   0|   32|          0|
    |DataOut_V_1423_reg_11501       |   32|   0|   32|          0|
    |DataOut_V_1424_reg_11506       |   32|   0|   32|          0|
    |DataOut_V_1425_reg_11511       |   32|   0|   32|          0|
    |DataOut_V_1426_reg_11516       |   32|   0|   32|          0|
    |DataOut_V_1427_reg_11541       |   32|   0|   32|          0|
    |DataOut_V_1428_reg_11546       |   32|   0|   32|          0|
    |DataOut_V_1429_reg_11551       |   32|   0|   32|          0|
    |DataOut_V_1430_reg_11556       |   32|   0|   32|          0|
    |DataOut_V_1431_reg_11581       |   32|   0|   32|          0|
    |DataOut_V_1432_reg_11586       |   32|   0|   32|          0|
    |DataOut_V_1433_reg_11591       |   32|   0|   32|          0|
    |DataOut_V_1434_reg_11596       |   32|   0|   32|          0|
    |DataOut_V_1435_reg_11621       |   32|   0|   32|          0|
    |DataOut_V_1436_reg_11626       |   32|   0|   32|          0|
    |DataOut_V_1437_reg_11631       |   32|   0|   32|          0|
    |DataOut_V_1438_reg_11636       |   32|   0|   32|          0|
    |DataOut_V_1439_reg_11661       |   32|   0|   32|          0|
    |DataOut_V_1440_reg_11666       |   32|   0|   32|          0|
    |DataOut_V_1441_reg_11671       |   32|   0|   32|          0|
    |DataOut_V_1442_reg_11676       |   32|   0|   32|          0|
    |DataOut_V_1443_reg_11701       |   32|   0|   32|          0|
    |DataOut_V_1444_reg_11706       |   32|   0|   32|          0|
    |DataOut_V_1445_reg_11711       |   32|   0|   32|          0|
    |DataOut_V_1446_reg_11716       |   32|   0|   32|          0|
    |DataOut_V_1447_reg_11741       |   32|   0|   32|          0|
    |DataOut_V_1448_reg_11746       |   32|   0|   32|          0|
    |DataOut_V_1449_reg_11751       |   32|   0|   32|          0|
    |DataOut_V_1450_reg_11756       |   32|   0|   32|          0|
    |DataOut_V_1451_reg_11781       |   32|   0|   32|          0|
    |DataOut_V_1452_reg_11786       |   32|   0|   32|          0|
    |DataOut_V_1453_reg_11791       |   32|   0|   32|          0|
    |DataOut_V_1454_reg_11796       |   32|   0|   32|          0|
    |DataOut_V_1455_reg_11821       |   32|   0|   32|          0|
    |DataOut_V_1456_reg_11826       |   32|   0|   32|          0|
    |DataOut_V_1457_reg_11831       |   32|   0|   32|          0|
    |DataOut_V_1458_reg_11836       |   32|   0|   32|          0|
    |DataOut_V_1459_reg_11861       |   32|   0|   32|          0|
    |DataOut_V_1460_reg_11866       |   32|   0|   32|          0|
    |DataOut_V_1461_reg_11871       |   32|   0|   32|          0|
    |DataOut_V_1462_reg_11876       |   32|   0|   32|          0|
    |DataOut_V_1463_reg_11901       |   32|   0|   32|          0|
    |DataOut_V_1464_reg_11906       |   32|   0|   32|          0|
    |DataOut_V_1465_reg_11911       |   32|   0|   32|          0|
    |DataOut_V_1466_reg_11916       |   32|   0|   32|          0|
    |DataOut_V_1467_reg_11941       |   32|   0|   32|          0|
    |DataOut_V_1468_reg_11946       |   32|   0|   32|          0|
    |DataOut_V_1469_reg_11951       |   32|   0|   32|          0|
    |DataOut_V_1470_reg_11956       |   32|   0|   32|          0|
    |DataOut_V_1471_reg_11981       |   32|   0|   32|          0|
    |DataOut_V_1472_reg_11986       |   32|   0|   32|          0|
    |DataOut_V_1473_reg_11991       |   32|   0|   32|          0|
    |DataOut_V_1474_reg_11996       |   32|   0|   32|          0|
    |DataOut_V_1475_reg_12021       |   32|   0|   32|          0|
    |DataOut_V_1476_reg_12026       |   32|   0|   32|          0|
    |DataOut_V_1477_reg_12031       |   32|   0|   32|          0|
    |DataOut_V_1478_reg_12036       |   32|   0|   32|          0|
    |DataOut_V_1479_reg_12061       |   32|   0|   32|          0|
    |DataOut_V_1480_reg_12066       |   32|   0|   32|          0|
    |DataOut_V_1481_reg_12071       |   32|   0|   32|          0|
    |DataOut_V_1482_reg_12076       |   32|   0|   32|          0|
    |DataOut_V_1483_reg_12101       |   32|   0|   32|          0|
    |DataOut_V_1484_reg_12106       |   32|   0|   32|          0|
    |DataOut_V_1485_reg_12111       |   32|   0|   32|          0|
    |DataOut_V_1486_reg_12116       |   32|   0|   32|          0|
    |DataOut_V_1487_reg_12141       |   32|   0|   32|          0|
    |DataOut_V_1488_reg_12146       |   32|   0|   32|          0|
    |DataOut_V_1489_reg_12151       |   32|   0|   32|          0|
    |DataOut_V_1490_reg_12156       |   32|   0|   32|          0|
    |DataOut_V_1491_reg_12181       |   32|   0|   32|          0|
    |DataOut_V_1492_reg_12186       |   32|   0|   32|          0|
    |DataOut_V_1493_reg_12191       |   32|   0|   32|          0|
    |DataOut_V_1494_reg_12196       |   32|   0|   32|          0|
    |DataOut_V_1495_reg_12221       |   32|   0|   32|          0|
    |DataOut_V_1496_reg_12226       |   32|   0|   32|          0|
    |DataOut_V_1497_reg_12231       |   32|   0|   32|          0|
    |DataOut_V_1498_reg_12236       |   32|   0|   32|          0|
    |DataOut_V_1499_reg_12261       |   32|   0|   32|          0|
    |DataOut_V_1500_reg_12266       |   32|   0|   32|          0|
    |DataOut_V_1501_reg_12271       |   32|   0|   32|          0|
    |DataOut_V_1502_reg_12276       |   32|   0|   32|          0|
    |DataOut_V_1503_reg_12301       |   32|   0|   32|          0|
    |DataOut_V_1504_reg_12306       |   32|   0|   32|          0|
    |DataOut_V_1505_reg_12311       |   32|   0|   32|          0|
    |DataOut_V_1506_reg_12316       |   32|   0|   32|          0|
    |DataOut_V_1507_reg_12341       |   32|   0|   32|          0|
    |DataOut_V_1508_reg_12346       |   32|   0|   32|          0|
    |DataOut_V_1509_reg_12351       |   32|   0|   32|          0|
    |DataOut_V_1510_reg_12356       |   32|   0|   32|          0|
    |DataOut_V_1511_reg_12381       |   32|   0|   32|          0|
    |DataOut_V_1512_reg_12386       |   32|   0|   32|          0|
    |DataOut_V_1513_reg_12391       |   32|   0|   32|          0|
    |DataOut_V_1514_reg_12396       |   32|   0|   32|          0|
    |DataOut_V_1515_reg_12421       |   32|   0|   32|          0|
    |DataOut_V_1516_reg_12426       |   32|   0|   32|          0|
    |DataOut_V_1517_reg_12431       |   32|   0|   32|          0|
    |DataOut_V_1518_reg_12436       |   32|   0|   32|          0|
    |DataOut_V_1519_reg_12461       |   32|   0|   32|          0|
    |DataOut_V_1520_reg_12466       |   32|   0|   32|          0|
    |DataOut_V_1521_reg_12471       |   32|   0|   32|          0|
    |DataOut_V_1522_reg_12476       |   32|   0|   32|          0|
    |DataOut_V_1523_reg_12501       |   32|   0|   32|          0|
    |DataOut_V_1524_reg_12506       |   32|   0|   32|          0|
    |DataOut_V_1525_reg_12511       |   32|   0|   32|          0|
    |DataOut_V_reg_10889            |   32|   0|   32|          0|
    |ap_CS_fsm                      |  384|   0|  384|          0|
    |output_V_load_3628_reg_9019    |   32|   0|   32|          0|
    |output_V_load_3629_reg_9024    |   32|   0|   32|          0|
    |output_V_load_3630_reg_9039    |   32|   0|   32|          0|
    |output_V_load_3631_reg_9044    |   32|   0|   32|          0|
    |output_V_load_3632_reg_9059    |   32|   0|   32|          0|
    |output_V_load_3633_reg_9064    |   32|   0|   32|          0|
    |output_V_load_3634_reg_9079    |   32|   0|   32|          0|
    |output_V_load_3635_reg_9084    |   32|   0|   32|          0|
    |output_V_load_3636_reg_9099    |   32|   0|   32|          0|
    |output_V_load_3637_reg_9104    |   32|   0|   32|          0|
    |output_V_load_3638_reg_9119    |   32|   0|   32|          0|
    |output_V_load_3639_reg_9124    |   32|   0|   32|          0|
    |output_V_load_3640_reg_9139    |   32|   0|   32|          0|
    |output_V_load_3641_reg_9144    |   32|   0|   32|          0|
    |output_V_load_3642_reg_9159    |   32|   0|   32|          0|
    |output_V_load_3643_reg_9164    |   32|   0|   32|          0|
    |output_V_load_3644_reg_9179    |   32|   0|   32|          0|
    |output_V_load_3645_reg_9184    |   32|   0|   32|          0|
    |output_V_load_3646_reg_9199    |   32|   0|   32|          0|
    |output_V_load_3647_reg_9204    |   32|   0|   32|          0|
    |output_V_load_3648_reg_9219    |   32|   0|   32|          0|
    |output_V_load_3649_reg_9224    |   32|   0|   32|          0|
    |output_V_load_3650_reg_9239    |   32|   0|   32|          0|
    |output_V_load_3651_reg_9244    |   32|   0|   32|          0|
    |output_V_load_3652_reg_9259    |   32|   0|   32|          0|
    |output_V_load_3653_reg_9264    |   32|   0|   32|          0|
    |output_V_load_3654_reg_9279    |   32|   0|   32|          0|
    |output_V_load_3655_reg_9284    |   32|   0|   32|          0|
    |output_V_load_3656_reg_9299    |   32|   0|   32|          0|
    |output_V_load_3657_reg_9304    |   32|   0|   32|          0|
    |output_V_load_3658_reg_9319    |   32|   0|   32|          0|
    |output_V_load_3659_reg_9324    |   32|   0|   32|          0|
    |output_V_load_3660_reg_9339    |   32|   0|   32|          0|
    |output_V_load_3661_reg_9344    |   32|   0|   32|          0|
    |output_V_load_3662_reg_9359    |   32|   0|   32|          0|
    |output_V_load_3663_reg_9364    |   32|   0|   32|          0|
    |output_V_load_3664_reg_9379    |   32|   0|   32|          0|
    |output_V_load_3665_reg_9384    |   32|   0|   32|          0|
    |output_V_load_3666_reg_9399    |   32|   0|   32|          0|
    |output_V_load_3667_reg_9404    |   32|   0|   32|          0|
    |output_V_load_3668_reg_9419    |   32|   0|   32|          0|
    |output_V_load_3669_reg_9424    |   32|   0|   32|          0|
    |output_V_load_3670_reg_9439    |   32|   0|   32|          0|
    |output_V_load_3671_reg_9444    |   32|   0|   32|          0|
    |output_V_load_3672_reg_9459    |   32|   0|   32|          0|
    |output_V_load_3673_reg_9464    |   32|   0|   32|          0|
    |output_V_load_3674_reg_9479    |   32|   0|   32|          0|
    |output_V_load_3675_reg_9484    |   32|   0|   32|          0|
    |output_V_load_3676_reg_9499    |   32|   0|   32|          0|
    |output_V_load_3677_reg_9504    |   32|   0|   32|          0|
    |output_V_load_3678_reg_9519    |   32|   0|   32|          0|
    |output_V_load_3679_reg_9524    |   32|   0|   32|          0|
    |output_V_load_3680_reg_9539    |   32|   0|   32|          0|
    |output_V_load_3681_reg_9544    |   32|   0|   32|          0|
    |output_V_load_3682_reg_9559    |   32|   0|   32|          0|
    |output_V_load_3683_reg_9564    |   32|   0|   32|          0|
    |output_V_load_3684_reg_9579    |   32|   0|   32|          0|
    |output_V_load_3685_reg_9584    |   32|   0|   32|          0|
    |output_V_load_3686_reg_9599    |   32|   0|   32|          0|
    |output_V_load_3687_reg_9604    |   32|   0|   32|          0|
    |output_V_load_3688_reg_9619    |   32|   0|   32|          0|
    |output_V_load_3689_reg_9624    |   32|   0|   32|          0|
    |output_V_load_3690_reg_9639    |   32|   0|   32|          0|
    |output_V_load_3691_reg_9644    |   32|   0|   32|          0|
    |output_V_load_3692_reg_9659    |   32|   0|   32|          0|
    |output_V_load_3693_reg_9664    |   32|   0|   32|          0|
    |output_V_load_3694_reg_9679    |   32|   0|   32|          0|
    |output_V_load_3695_reg_9684    |   32|   0|   32|          0|
    |output_V_load_3696_reg_9699    |   32|   0|   32|          0|
    |output_V_load_3697_reg_9704    |   32|   0|   32|          0|
    |output_V_load_3698_reg_9719    |   32|   0|   32|          0|
    |output_V_load_3699_reg_9724    |   32|   0|   32|          0|
    |output_V_load_3700_reg_9739    |   32|   0|   32|          0|
    |output_V_load_3701_reg_9744    |   32|   0|   32|          0|
    |output_V_load_3702_reg_9759    |   32|   0|   32|          0|
    |output_V_load_3703_reg_9764    |   32|   0|   32|          0|
    |output_V_load_3704_reg_9779    |   32|   0|   32|          0|
    |output_V_load_3705_reg_9784    |   32|   0|   32|          0|
    |output_V_load_3706_reg_9799    |   32|   0|   32|          0|
    |output_V_load_3707_reg_9804    |   32|   0|   32|          0|
    |output_V_load_3708_reg_9819    |   32|   0|   32|          0|
    |output_V_load_3709_reg_9824    |   32|   0|   32|          0|
    |output_V_load_3710_reg_9839    |   32|   0|   32|          0|
    |output_V_load_3711_reg_9844    |   32|   0|   32|          0|
    |output_V_load_3712_reg_9859    |   32|   0|   32|          0|
    |output_V_load_3713_reg_9864    |   32|   0|   32|          0|
    |output_V_load_3714_reg_9879    |   32|   0|   32|          0|
    |output_V_load_3715_reg_9884    |   32|   0|   32|          0|
    |output_V_load_3716_reg_9899    |   32|   0|   32|          0|
    |output_V_load_3717_reg_9904    |   32|   0|   32|          0|
    |output_V_load_3718_reg_9919    |   32|   0|   32|          0|
    |output_V_load_3719_reg_9924    |   32|   0|   32|          0|
    |output_V_load_3720_reg_9939    |   32|   0|   32|          0|
    |output_V_load_3721_reg_9944    |   32|   0|   32|          0|
    |output_V_load_3722_reg_9959    |   32|   0|   32|          0|
    |output_V_load_3723_reg_9964    |   32|   0|   32|          0|
    |output_V_load_3724_reg_9979    |   32|   0|   32|          0|
    |output_V_load_3725_reg_9984    |   32|   0|   32|          0|
    |output_V_load_3726_reg_9999    |   32|   0|   32|          0|
    |output_V_load_3727_reg_10004   |   32|   0|   32|          0|
    |output_V_load_3728_reg_10019   |   32|   0|   32|          0|
    |output_V_load_3729_reg_10024   |   32|   0|   32|          0|
    |output_V_load_3730_reg_10039   |   32|   0|   32|          0|
    |output_V_load_3731_reg_10044   |   32|   0|   32|          0|
    |output_V_load_3732_reg_10059   |   32|   0|   32|          0|
    |output_V_load_3733_reg_10064   |   32|   0|   32|          0|
    |output_V_load_3734_reg_10079   |   32|   0|   32|          0|
    |output_V_load_3735_reg_10084   |   32|   0|   32|          0|
    |output_V_load_3736_reg_10099   |   32|   0|   32|          0|
    |output_V_load_3737_reg_10104   |   32|   0|   32|          0|
    |output_V_load_3738_reg_10119   |   32|   0|   32|          0|
    |output_V_load_3739_reg_10124   |   32|   0|   32|          0|
    |output_V_load_3740_reg_10139   |   32|   0|   32|          0|
    |output_V_load_3741_reg_10144   |   32|   0|   32|          0|
    |output_V_load_3742_reg_10159   |   32|   0|   32|          0|
    |output_V_load_3743_reg_10164   |   32|   0|   32|          0|
    |output_V_load_3744_reg_10179   |   32|   0|   32|          0|
    |output_V_load_3745_reg_10184   |   32|   0|   32|          0|
    |output_V_load_3746_reg_10199   |   32|   0|   32|          0|
    |output_V_load_3747_reg_10204   |   32|   0|   32|          0|
    |output_V_load_3748_reg_10219   |   32|   0|   32|          0|
    |output_V_load_3749_reg_10224   |   32|   0|   32|          0|
    |output_V_load_3750_reg_10239   |   32|   0|   32|          0|
    |output_V_load_3751_reg_10244   |   32|   0|   32|          0|
    |output_V_load_3752_reg_10259   |   32|   0|   32|          0|
    |output_V_load_3753_reg_10264   |   32|   0|   32|          0|
    |output_V_load_3754_reg_10279   |   32|   0|   32|          0|
    |output_V_load_3755_reg_10284   |   32|   0|   32|          0|
    |output_V_load_3756_reg_10299   |   32|   0|   32|          0|
    |output_V_load_3757_reg_10304   |   32|   0|   32|          0|
    |output_V_load_3758_reg_10319   |   32|   0|   32|          0|
    |output_V_load_3759_reg_10324   |   32|   0|   32|          0|
    |output_V_load_3760_reg_10339   |   32|   0|   32|          0|
    |output_V_load_3761_reg_10344   |   32|   0|   32|          0|
    |output_V_load_3762_reg_10359   |   32|   0|   32|          0|
    |output_V_load_3763_reg_10364   |   32|   0|   32|          0|
    |output_V_load_3764_reg_10379   |   32|   0|   32|          0|
    |output_V_load_3765_reg_10384   |   32|   0|   32|          0|
    |output_V_load_3766_reg_10399   |   32|   0|   32|          0|
    |output_V_load_3767_reg_10404   |   32|   0|   32|          0|
    |output_V_load_3768_reg_10419   |   32|   0|   32|          0|
    |output_V_load_3769_reg_10424   |   32|   0|   32|          0|
    |output_V_load_3770_reg_10439   |   32|   0|   32|          0|
    |output_V_load_3771_reg_10444   |   32|   0|   32|          0|
    |output_V_load_3772_reg_10459   |   32|   0|   32|          0|
    |output_V_load_3773_reg_10464   |   32|   0|   32|          0|
    |output_V_load_3774_reg_10479   |   32|   0|   32|          0|
    |output_V_load_3775_reg_10484   |   32|   0|   32|          0|
    |output_V_load_3776_reg_10499   |   32|   0|   32|          0|
    |output_V_load_3777_reg_10504   |   32|   0|   32|          0|
    |output_V_load_3778_reg_10519   |   32|   0|   32|          0|
    |output_V_load_3779_reg_10524   |   32|   0|   32|          0|
    |output_V_load_3780_reg_10539   |   32|   0|   32|          0|
    |output_V_load_3781_reg_10544   |   32|   0|   32|          0|
    |output_V_load_3782_reg_10559   |   32|   0|   32|          0|
    |output_V_load_3783_reg_10564   |   32|   0|   32|          0|
    |output_V_load_3784_reg_10579   |   32|   0|   32|          0|
    |output_V_load_3785_reg_10584   |   32|   0|   32|          0|
    |output_V_load_3786_reg_10599   |   32|   0|   32|          0|
    |output_V_load_3787_reg_10604   |   32|   0|   32|          0|
    |output_V_load_3788_reg_10619   |   32|   0|   32|          0|
    |output_V_load_3789_reg_10624   |   32|   0|   32|          0|
    |output_V_load_3790_reg_10639   |   32|   0|   32|          0|
    |output_V_load_3791_reg_10644   |   32|   0|   32|          0|
    |output_V_load_3792_reg_10659   |   32|   0|   32|          0|
    |output_V_load_3793_reg_10664   |   32|   0|   32|          0|
    |output_V_load_3794_reg_10679   |   32|   0|   32|          0|
    |output_V_load_3795_reg_10684   |   32|   0|   32|          0|
    |output_V_load_3796_reg_10699   |   32|   0|   32|          0|
    |output_V_load_3797_reg_10704   |   32|   0|   32|          0|
    |output_V_load_3798_reg_10719   |   32|   0|   32|          0|
    |output_V_load_3799_reg_10724   |   32|   0|   32|          0|
    |output_V_load_3800_reg_10739   |   32|   0|   32|          0|
    |output_V_load_3801_reg_10744   |   32|   0|   32|          0|
    |output_V_load_3802_reg_10759   |   32|   0|   32|          0|
    |output_V_load_3803_reg_10764   |   32|   0|   32|          0|
    |output_V_load_3804_reg_10779   |   32|   0|   32|          0|
    |output_V_load_3805_reg_10784   |   32|   0|   32|          0|
    |output_V_load_3806_reg_10799   |   32|   0|   32|          0|
    |output_V_load_3807_reg_10804   |   32|   0|   32|          0|
    |output_V_load_3808_reg_10819   |   32|   0|   32|          0|
    |output_V_load_3809_reg_10824   |   32|   0|   32|          0|
    |output_V_load_3810_reg_10839   |   32|   0|   32|          0|
    |output_V_load_3811_reg_10844   |   32|   0|   32|          0|
    |output_V_load_3812_reg_10859   |   32|   0|   32|          0|
    |output_V_load_3813_reg_10864   |   32|   0|   32|          0|
    |output_V_load_3814_reg_11281   |   32|   0|   32|          0|
    |output_V_load_3815_reg_11286   |   32|   0|   32|          0|
    |output_V_load_3816_reg_11321   |   32|   0|   32|          0|
    |output_V_load_3817_reg_11326   |   32|   0|   32|          0|
    |output_V_load_3818_reg_11361   |   32|   0|   32|          0|
    |output_V_load_3819_reg_11366   |   32|   0|   32|          0|
    |output_V_load_3820_reg_11401   |   32|   0|   32|          0|
    |output_V_load_3821_reg_11406   |   32|   0|   32|          0|
    |output_V_load_3822_reg_11441   |   32|   0|   32|          0|
    |output_V_load_3823_reg_11446   |   32|   0|   32|          0|
    |output_V_load_3824_reg_11481   |   32|   0|   32|          0|
    |output_V_load_3825_reg_11486   |   32|   0|   32|          0|
    |output_V_load_3826_reg_11521   |   32|   0|   32|          0|
    |output_V_load_3827_reg_11526   |   32|   0|   32|          0|
    |output_V_load_3828_reg_11561   |   32|   0|   32|          0|
    |output_V_load_3829_reg_11566   |   32|   0|   32|          0|
    |output_V_load_3830_reg_11601   |   32|   0|   32|          0|
    |output_V_load_3831_reg_11606   |   32|   0|   32|          0|
    |output_V_load_3832_reg_11641   |   32|   0|   32|          0|
    |output_V_load_3833_reg_11646   |   32|   0|   32|          0|
    |output_V_load_3834_reg_11681   |   32|   0|   32|          0|
    |output_V_load_3835_reg_11686   |   32|   0|   32|          0|
    |output_V_load_3836_reg_11721   |   32|   0|   32|          0|
    |output_V_load_3837_reg_11726   |   32|   0|   32|          0|
    |output_V_load_3838_reg_11761   |   32|   0|   32|          0|
    |output_V_load_3839_reg_11766   |   32|   0|   32|          0|
    |output_V_load_3840_reg_11801   |   32|   0|   32|          0|
    |output_V_load_3841_reg_11806   |   32|   0|   32|          0|
    |output_V_load_3842_reg_11841   |   32|   0|   32|          0|
    |output_V_load_3843_reg_11846   |   32|   0|   32|          0|
    |output_V_load_3844_reg_11881   |   32|   0|   32|          0|
    |output_V_load_3845_reg_11886   |   32|   0|   32|          0|
    |output_V_load_3846_reg_11921   |   32|   0|   32|          0|
    |output_V_load_3847_reg_11926   |   32|   0|   32|          0|
    |output_V_load_3848_reg_11961   |   32|   0|   32|          0|
    |output_V_load_3849_reg_11966   |   32|   0|   32|          0|
    |output_V_load_3850_reg_12001   |   32|   0|   32|          0|
    |output_V_load_3851_reg_12006   |   32|   0|   32|          0|
    |output_V_load_3852_reg_12041   |   32|   0|   32|          0|
    |output_V_load_3853_reg_12046   |   32|   0|   32|          0|
    |output_V_load_3854_reg_12081   |   32|   0|   32|          0|
    |output_V_load_3855_reg_12086   |   32|   0|   32|          0|
    |output_V_load_3856_reg_12121   |   32|   0|   32|          0|
    |output_V_load_3857_reg_12126   |   32|   0|   32|          0|
    |output_V_load_3858_reg_12161   |   32|   0|   32|          0|
    |output_V_load_3859_reg_12166   |   32|   0|   32|          0|
    |output_V_load_3860_reg_12201   |   32|   0|   32|          0|
    |output_V_load_3861_reg_12206   |   32|   0|   32|          0|
    |output_V_load_3862_reg_12241   |   32|   0|   32|          0|
    |output_V_load_3863_reg_12246   |   32|   0|   32|          0|
    |output_V_load_3864_reg_12281   |   32|   0|   32|          0|
    |output_V_load_3865_reg_12286   |   32|   0|   32|          0|
    |output_V_load_3866_reg_12321   |   32|   0|   32|          0|
    |output_V_load_3867_reg_12326   |   32|   0|   32|          0|
    |output_V_load_3868_reg_12361   |   32|   0|   32|          0|
    |output_V_load_3869_reg_12366   |   32|   0|   32|          0|
    |output_V_load_3870_reg_12401   |   32|   0|   32|          0|
    |output_V_load_3871_reg_12406   |   32|   0|   32|          0|
    |output_V_load_3872_reg_12441   |   32|   0|   32|          0|
    |output_V_load_3873_reg_12446   |   32|   0|   32|          0|
    |output_V_load_3874_reg_12481   |   32|   0|   32|          0|
    |output_V_load_3875_reg_12486   |   32|   0|   32|          0|
    |output_V_load_3876_reg_12521   |   32|   0|   32|          0|
    |output_V_load_3877_reg_12526   |   32|   0|   32|          0|
    |output_V_load_3878_reg_12541   |   32|   0|   32|          0|
    |output_V_load_3879_reg_12546   |   32|   0|   32|          0|
    |output_V_load_3880_reg_12561   |   32|   0|   32|          0|
    |output_V_load_3881_reg_12566   |   32|   0|   32|          0|
    |output_V_load_3882_reg_12581   |   32|   0|   32|          0|
    |output_V_load_3883_reg_12586   |   32|   0|   32|          0|
    |output_V_load_3884_reg_12601   |   32|   0|   32|          0|
    |output_V_load_3885_reg_12606   |   32|   0|   32|          0|
    |output_V_load_3886_reg_12621   |   32|   0|   32|          0|
    |output_V_load_3887_reg_12626   |   32|   0|   32|          0|
    |output_V_load_3888_reg_12641   |   32|   0|   32|          0|
    |output_V_load_3889_reg_12646   |   32|   0|   32|          0|
    |output_V_load_3890_reg_12661   |   32|   0|   32|          0|
    |output_V_load_3891_reg_12666   |   32|   0|   32|          0|
    |output_V_load_3892_reg_12681   |   32|   0|   32|          0|
    |output_V_load_3893_reg_12686   |   32|   0|   32|          0|
    |output_V_load_3894_reg_12701   |   32|   0|   32|          0|
    |output_V_load_3895_reg_12706   |   32|   0|   32|          0|
    |output_V_load_3896_reg_12721   |   32|   0|   32|          0|
    |output_V_load_3897_reg_12726   |   32|   0|   32|          0|
    |output_V_load_3898_reg_12741   |   32|   0|   32|          0|
    |output_V_load_3899_reg_12746   |   32|   0|   32|          0|
    |output_V_load_3900_reg_12761   |   32|   0|   32|          0|
    |output_V_load_3901_reg_12766   |   32|   0|   32|          0|
    |output_V_load_3902_reg_12781   |   32|   0|   32|          0|
    |output_V_load_3903_reg_12786   |   32|   0|   32|          0|
    |output_V_load_3904_reg_12801   |   32|   0|   32|          0|
    |output_V_load_3905_reg_12806   |   32|   0|   32|          0|
    |output_V_load_3906_reg_12821   |   32|   0|   32|          0|
    |output_V_load_3907_reg_12826   |   32|   0|   32|          0|
    |output_V_load_3908_reg_12841   |   32|   0|   32|          0|
    |output_V_load_3909_reg_12846   |   32|   0|   32|          0|
    |output_V_load_3910_reg_12861   |   32|   0|   32|          0|
    |output_V_load_3911_reg_12866   |   32|   0|   32|          0|
    |output_V_load_3912_reg_12881   |   32|   0|   32|          0|
    |output_V_load_3913_reg_12886   |   32|   0|   32|          0|
    |output_V_load_3914_reg_12901   |   32|   0|   32|          0|
    |output_V_load_3915_reg_12906   |   32|   0|   32|          0|
    |output_V_load_3916_reg_12921   |   32|   0|   32|          0|
    |output_V_load_3917_reg_12926   |   32|   0|   32|          0|
    |output_V_load_3918_reg_12941   |   32|   0|   32|          0|
    |output_V_load_3919_reg_12946   |   32|   0|   32|          0|
    |output_V_load_3920_reg_12961   |   32|   0|   32|          0|
    |output_V_load_3921_reg_12966   |   32|   0|   32|          0|
    |output_V_load_3922_reg_12981   |   32|   0|   32|          0|
    |output_V_load_3923_reg_12986   |   32|   0|   32|          0|
    |output_V_load_3924_reg_13001   |   32|   0|   32|          0|
    |output_V_load_3925_reg_13006   |   32|   0|   32|          0|
    |output_V_load_3926_reg_13021   |   32|   0|   32|          0|
    |output_V_load_3927_reg_13026   |   32|   0|   32|          0|
    |output_V_load_3928_reg_13041   |   32|   0|   32|          0|
    |output_V_load_3929_reg_13046   |   32|   0|   32|          0|
    |output_V_load_3930_reg_13061   |   32|   0|   32|          0|
    |output_V_load_3931_reg_13066   |   32|   0|   32|          0|
    |output_V_load_3932_reg_13081   |   32|   0|   32|          0|
    |output_V_load_3933_reg_13086   |   32|   0|   32|          0|
    |output_V_load_3934_reg_13101   |   32|   0|   32|          0|
    |output_V_load_3935_reg_13106   |   32|   0|   32|          0|
    |output_V_load_3936_reg_13121   |   32|   0|   32|          0|
    |output_V_load_3937_reg_13126   |   32|   0|   32|          0|
    |output_V_load_3938_reg_13141   |   32|   0|   32|          0|
    |output_V_load_3939_reg_13146   |   32|   0|   32|          0|
    |output_V_load_3940_reg_13161   |   32|   0|   32|          0|
    |output_V_load_3941_reg_13166   |   32|   0|   32|          0|
    |output_V_load_3942_reg_13181   |   32|   0|   32|          0|
    |output_V_load_3943_reg_13186   |   32|   0|   32|          0|
    |output_V_load_3944_reg_13201   |   32|   0|   32|          0|
    |output_V_load_3945_reg_13206   |   32|   0|   32|          0|
    |output_V_load_3946_reg_13221   |   32|   0|   32|          0|
    |output_V_load_3947_reg_13226   |   32|   0|   32|          0|
    |output_V_load_3948_reg_13241   |   32|   0|   32|          0|
    |output_V_load_3949_reg_13246   |   32|   0|   32|          0|
    |output_V_load_3950_reg_13261   |   32|   0|   32|          0|
    |output_V_load_3951_reg_13266   |   32|   0|   32|          0|
    |output_V_load_3952_reg_13281   |   32|   0|   32|          0|
    |output_V_load_3953_reg_13286   |   32|   0|   32|          0|
    |output_V_load_3954_reg_13301   |   32|   0|   32|          0|
    |output_V_load_3955_reg_13306   |   32|   0|   32|          0|
    |output_V_load_3956_reg_13321   |   32|   0|   32|          0|
    |output_V_load_3957_reg_13326   |   32|   0|   32|          0|
    |output_V_load_3958_reg_13341   |   32|   0|   32|          0|
    |output_V_load_3959_reg_13346   |   32|   0|   32|          0|
    |output_V_load_3960_reg_13361   |   32|   0|   32|          0|
    |output_V_load_3961_reg_13366   |   32|   0|   32|          0|
    |output_V_load_3962_reg_13381   |   32|   0|   32|          0|
    |output_V_load_3963_reg_13386   |   32|   0|   32|          0|
    |output_V_load_3964_reg_13401   |   32|   0|   32|          0|
    |output_V_load_3965_reg_13406   |   32|   0|   32|          0|
    |output_V_load_3966_reg_13421   |   32|   0|   32|          0|
    |output_V_load_3967_reg_13426   |   32|   0|   32|          0|
    |output_V_load_3968_reg_13441   |   32|   0|   32|          0|
    |output_V_load_3969_reg_13446   |   32|   0|   32|          0|
    |output_V_load_3970_reg_13461   |   32|   0|   32|          0|
    |output_V_load_3971_reg_13466   |   32|   0|   32|          0|
    |output_V_load_3972_reg_13481   |   32|   0|   32|          0|
    |output_V_load_3973_reg_13486   |   32|   0|   32|          0|
    |output_V_load_3974_reg_13501   |   32|   0|   32|          0|
    |output_V_load_3975_reg_13506   |   32|   0|   32|          0|
    |output_V_load_3976_reg_13521   |   32|   0|   32|          0|
    |output_V_load_3977_reg_13526   |   32|   0|   32|          0|
    |output_V_load_3978_reg_13541   |   32|   0|   32|          0|
    |output_V_load_3979_reg_13546   |   32|   0|   32|          0|
    |output_V_load_3980_reg_13561   |   32|   0|   32|          0|
    |output_V_load_3981_reg_13566   |   32|   0|   32|          0|
    |output_V_load_3982_reg_13581   |   32|   0|   32|          0|
    |output_V_load_3983_reg_13586   |   32|   0|   32|          0|
    |output_V_load_3984_reg_13601   |   32|   0|   32|          0|
    |output_V_load_3985_reg_13606   |   32|   0|   32|          0|
    |output_V_load_3986_reg_13621   |   32|   0|   32|          0|
    |output_V_load_3987_reg_13626   |   32|   0|   32|          0|
    |output_V_load_3988_reg_13641   |   32|   0|   32|          0|
    |output_V_load_3989_reg_13646   |   32|   0|   32|          0|
    |output_V_load_3990_reg_13661   |   32|   0|   32|          0|
    |output_V_load_3991_reg_13666   |   32|   0|   32|          0|
    |output_V_load_3992_reg_13681   |   32|   0|   32|          0|
    |output_V_load_3993_reg_13686   |   32|   0|   32|          0|
    |output_V_load_3994_reg_13701   |   32|   0|   32|          0|
    |output_V_load_3995_reg_13706   |   32|   0|   32|          0|
    |output_V_load_3996_reg_13721   |   32|   0|   32|          0|
    |output_V_load_3997_reg_13726   |   32|   0|   32|          0|
    |output_V_load_3998_reg_13741   |   32|   0|   32|          0|
    |output_V_load_3999_reg_13746   |   32|   0|   32|          0|
    |output_V_load_4000_reg_13761   |   32|   0|   32|          0|
    |output_V_load_4001_reg_13766   |   32|   0|   32|          0|
    |output_V_load_4002_reg_13781   |   32|   0|   32|          0|
    |output_V_load_4003_reg_13786   |   32|   0|   32|          0|
    |output_V_load_4004_reg_13801   |   32|   0|   32|          0|
    |output_V_load_4005_reg_13806   |   32|   0|   32|          0|
    |output_V_load_4006_reg_13821   |   32|   0|   32|          0|
    |output_V_load_4007_reg_13826   |   32|   0|   32|          0|
    |reg_7137                       |   32|   0|   32|          0|
    |reg_7142                       |   32|   0|   32|          0|
    |trunc_ln203_reg_10879          |   32|   0|   32|          0|
    +-------------------------------+-----+----+-----+-----------+
    |Total                          |18752|   0|18752|          0|
    +-------------------------------+-----+----+-----+-----------+



================================================================
== Interface
================================================================
* Summary: 
+-------------------+-----+------+------------+-------------------------------------------------------+--------------+
|     RTL Ports     | Dir | Bits |  Protocol  |                     Source Object                     |    C Type    |
+-------------------+-----+------+------------+-------------------------------------------------------+--------------+
|ap_clk             |  in |     1| ap_ctrl_hs | cnnshift_arr<ap_fixed,ap_fixed<32,16,5,3,0>,config22> | return value |
|ap_rst             |  in |     1| ap_ctrl_hs | cnnshift_arr<ap_fixed,ap_fixed<32,16,5,3,0>,config22> | return value |
|ap_start           |  in |     1| ap_ctrl_hs | cnnshift_arr<ap_fixed,ap_fixed<32,16,5,3,0>,config22> | return value |
|ap_done            | out |     1| ap_ctrl_hs | cnnshift_arr<ap_fixed,ap_fixed<32,16,5,3,0>,config22> | return value |
|ap_idle            | out |     1| ap_ctrl_hs | cnnshift_arr<ap_fixed,ap_fixed<32,16,5,3,0>,config22> | return value |
|ap_ready           | out |     1| ap_ctrl_hs | cnnshift_arr<ap_fixed,ap_fixed<32,16,5,3,0>,config22> | return value |
|data_V_read        |  in |  2048|   ap_none  |                      data_V_read                      |    scalar    |
|output_V_address0  | out |    10|  ap_memory |                        output_V                       |     array    |
|output_V_ce0       | out |     1|  ap_memory |                        output_V                       |     array    |
|output_V_we0       | out |     1|  ap_memory |                        output_V                       |     array    |
|output_V_d0        | out |    32|  ap_memory |                        output_V                       |     array    |
|output_V_q0        |  in |    32|  ap_memory |                        output_V                       |     array    |
|output_V_address1  | out |    10|  ap_memory |                        output_V                       |     array    |
|output_V_ce1       | out |     1|  ap_memory |                        output_V                       |     array    |
|output_V_we1       | out |     1|  ap_memory |                        output_V                       |     array    |
|output_V_d1        | out |    32|  ap_memory |                        output_V                       |     array    |
|output_V_q1        |  in |    32|  ap_memory |                        output_V                       |     array    |
+-------------------+-----+------+------------+-------------------------------------------------------+--------------+

