

================================================================
== Vivado HLS Report for 'conv_2d_cl_me_ap_fixed_ap_fixed_32_16_5_3_0_config22_s'
================================================================
* Date:           Wed Mar 30 22:15:32 2022

* Version:        2019.2 (Build 2704478 on Wed Nov 06 22:10:23 MST 2019)
* Project:        myproject_prj
* Solution:       solution1
* Product family: zynq
* Target device:  xc7z020-clg400-1


================================================================
== Performance Estimates
================================================================
+ Timing: 
    * Summary: 
    +--------+---------+----------+------------+
    |  Clock |  Target | Estimated| Uncertainty|
    +--------+---------+----------+------------+
    |ap_clk  | 5.00 ns | 4.321 ns |   0.62 ns  |
    +--------+---------+----------+------------+

+ Latency: 
    * Summary: 
    +---------+----------+----------+-----------+--------+----------+---------+
    |  Latency (cycles)  |  Latency (absolute)  |      Interval     | Pipeline|
    |   min   |    max   |    min   |    max    |   min  |    max   |   Type  |
    +---------+----------+----------+-----------+--------+----------+---------+
    |   108241|  97997281| 0.541 ms | 0.490 sec |  108241|  97997281|   none  |
    +---------+----------+----------+-----------+--------+----------+---------+

    + Detail: 
        * Instance: 
        +--------------------------------------------------------------------+-------------------------------------------------------+---------+---------+-----------+-----------+-----+-----+---------+
        |                                                                    |                                                       |  Latency (cycles) |   Latency (absolute)  |  Interval | Pipeline|
        |                              Instance                              |                         Module                        |   min   |   max   |    min    |    max    | min | max |   Type  |
        +--------------------------------------------------------------------+-------------------------------------------------------+---------+---------+-----------+-----------+-----+-----+---------+
        |grp_cnnshift_arr_ap_fixed_ap_fixed_32_16_5_3_0_config22_s_fu_14973  |cnnshift_arr_ap_fixed_ap_fixed_32_16_5_3_0_config22_s  |      383|      383|  1.915 us |  1.915 us |  383|  383|   none  |
        |grp_product_dense_ap_fixed_ap_fixed_ap_fixed_s_fu_15236             |product_dense_ap_fixed_ap_fixed_ap_fixed_s             |        4|        4| 20.000 ns | 20.000 ns |    4|    4|   none  |
        +--------------------------------------------------------------------+-------------------------------------------------------+---------+---------+-----------+-----------+-----+-----+---------+

        * Loop: 
        +-----------------+---------+----------+--------------+-----------+-----------+------+----------+
        |                 |  Latency (cycles)  |   Iteration  |  Initiation Interval  | Trip |          |
        |    Loop Name    |   min   |    max   |    Latency   |  achieved |   target  | Count| Pipelined|
        +-----------------+---------+----------+--------------+-----------+-----------+------+----------+
        |- Loop 1         |   108240|  97997280| 451 ~ 408322 |          -|          -|   240|    no    |
        | + Loop 1.1      |   407808|    407808|           708|          -|          -|   576|    no    |
        |  ++ Loop 1.1.1  |      448|       448|             7|          -|          -|    64|    no    |
        |  ++ Loop 1.1.2  |      256|       256|             4|          -|          -|    64|    no    |
        +-----------------+---------+----------+--------------+-----------+-----------+------+----------+



================================================================
== Utilization Estimates
================================================================
* Summary: 
+-----------------+---------+-------+--------+-------+-----+
|       Name      | BRAM_18K| DSP48E|   FF   |  LUT  | URAM|
+-----------------+---------+-------+--------+-------+-----+
|DSP              |        -|      -|       -|      -|    -|
|Expression       |        -|      -|       0|    490|    -|
|FIFO             |        -|      -|       -|      -|    -|
|Instance         |        0|      4|   31611|  13133|    -|
|Memory           |        3|      -|       0|      0|    0|
|Multiplexer      |        -|      -|       -|   2839|    -|
|Register         |        -|      -|   10939|      -|    -|
+-----------------+---------+-------+--------+-------+-----+
|Total            |        3|      4|   42550|  16462|    0|
+-----------------+---------+-------+--------+-------+-----+
|Available        |      280|    220|  106400|  53200|    0|
+-----------------+---------+-------+--------+-------+-----+
|Utilization (%)  |        1|      1|      39|     30|    0|
+-----------------+---------+-------+--------+-------+-----+

+ Detail: 
    * Instance: 
    +--------------------------------------------------------------------+-------------------------------------------------------+---------+-------+-------+-------+-----+
    |                              Instance                              |                         Module                        | BRAM_18K| DSP48E|   FF  |  LUT  | URAM|
    +--------------------------------------------------------------------+-------------------------------------------------------+---------+-------+-------+-------+-----+
    |grp_cnnshift_arr_ap_fixed_ap_fixed_32_16_5_3_0_config22_s_fu_14973  |cnnshift_arr_ap_fixed_ap_fixed_32_16_5_3_0_config22_s  |        0|      0|  26944|  11745|    0|
    |myproject_axi_mux_646_32_1_1_U164                                   |myproject_axi_mux_646_32_1_1                           |        0|      0|   4415|   1345|    0|
    |grp_product_dense_ap_fixed_ap_fixed_ap_fixed_s_fu_15236             |product_dense_ap_fixed_ap_fixed_ap_fixed_s             |        0|      4|    252|     43|    0|
    +--------------------------------------------------------------------+-------------------------------------------------------+---------+-------+-------+-------+-----+
    |Total                                                               |                                                       |        0|      4|  31611|  13133|    0|
    +--------------------------------------------------------------------+-------------------------------------------------------+---------+-------+-------+-------+-----+

    * DSP48E: 
    N/A

    * Memory: 
    +-----------------+--------------------------------------------------------------+---------+---+----+-----+------+-----+------+-------------+
    |      Memory     |                            Module                            | BRAM_18K| FF| LUT| URAM| Words| Bits| Banks| W*Bits*Banks|
    +-----------------+--------------------------------------------------------------+---------+---+----+-----+------+-----+------+-------------+
    |tmpmult_V_U      |conv_2d_cl_me_ap_fixed_ap_fixed_32_16_5_3_0_config18_s_tmdUL  |        1|  0|   0|    0|    64|   32|     1|         2048|
    |layer_in_V_14_U  |conv_2d_cl_me_ap_fixed_ap_fixed_32_16_5_3_0_config22_s_lafZ6  |        2|  0|   0|    0|   576|   32|     1|        18432|
    +-----------------+--------------------------------------------------------------+---------+---+----+-----+------+-----+------+-------------+
    |Total            |                                                              |        3|  0|   0|    0|   640|   64|     2|        20480|
    +-----------------+--------------------------------------------------------------+---------+---+----+-----+------+-----+------+-------------+

    * FIFO: 
    N/A

    * Expression: 
    +---------------------------+----------+-------+---+----+------------+------------+
    |       Variable Name       | Operation| DSP48E| FF| LUT| Bitwidth P0| Bitwidth P1|
    +---------------------------+----------+-------+---+----+------------+------------+
    |acc_0_V_fu_15590_p2        |     +    |      0|  0|  39|          32|          32|
    |add_ln245_fu_15639_p2      |     +    |      0|  0|  39|          32|           1|
    |add_ln247_fu_15650_p2      |     +    |      0|  0|  39|          32|           1|
    |add_ln250_fu_15599_p2      |     +    |      0|  0|  39|          32|           1|
    |add_ln252_fu_15610_p2      |     +    |      0|  0|  39|          32|           1|
    |i_fu_15249_p2              |     +    |      0|  0|  15|           8|           1|
    |im_9_fu_15442_p2           |     +    |      0|  0|  15|           7|           1|
    |im_fu_15425_p2             |     +    |      0|  0|  15|           7|           1|
    |ir_fu_15408_p2             |     +    |      0|  0|  14|          10|           1|
    |and_ln215_13_fu_15390_p2   |    and   |      0|  0|   2|           1|           1|
    |and_ln215_14_fu_15396_p2   |    and   |      0|  0|   2|           1|           1|
    |and_ln215_fu_15384_p2      |    and   |      0|  0|   2|           1|           1|
    |ap_block_state139          |    and   |      0|  0|   2|           1|           1|
    |ap_block_state2            |    and   |      0|  0|   2|           1|           1|
    |ap_block_state68           |    and   |      0|  0|   2|           1|           1|
    |ap_condition_1220          |    and   |      0|  0|   2|           1|           1|
    |ap_condition_1228          |    and   |      0|  0|   2|           1|           1|
    |icmp_ln206_fu_15243_p2     |   icmp   |      0|  0|  11|           8|           6|
    |icmp_ln215_19_fu_15338_p2  |   icmp   |      0|  0|  18|          32|           2|
    |icmp_ln215_20_fu_15358_p2  |   icmp   |      0|  0|  18|          31|           1|
    |icmp_ln215_21_fu_15378_p2  |   icmp   |      0|  0|  18|          31|           1|
    |icmp_ln215_fu_15328_p2     |   icmp   |      0|  0|  18|          32|           2|
    |icmp_ln237_fu_15594_p2     |   icmp   |      0|  0|  18|          32|           4|
    |icmp_ln241_fu_15634_p2     |   icmp   |      0|  0|  18|          32|           4|
    |icmp_ln325_fu_15402_p2     |   icmp   |      0|  0|  13|          10|          10|
    |icmp_ln330_fu_15419_p2     |   icmp   |      0|  0|  11|           7|           8|
    |icmp_ln339_fu_15436_p2     |   icmp   |      0|  0|  11|           7|           8|
    |ap_block_state1            |    or    |      0|  0|   2|           1|           1|
    |select_ln247_fu_15655_p3   |  select  |      0|  0|  32|           1|           2|
    |select_ln252_fu_15615_p3   |  select  |      0|  0|  32|           1|           2|
    +---------------------------+----------+-------+---+----+------------+------------+
    |Total                      |          |      0|  0| 490|         425|          99|
    +---------------------------+----------+-------+---+----+------------+------------+

    * Multiplexer: 
    +-----------------------------------------+-----+-----------+-----+-----------+
    |                   Name                  | LUT | Input Size| Bits| Total Bits|
    +-----------------------------------------+-----+-----------+-----+-----------+
    |acc_0_V_1_be_reg_14764                   |    9|          2|   32|         64|
    |acc_0_V_1_reg_2267                       |    9|          2|   32|         64|
    |acc_10_V_1_be_reg_12784                  |    9|          2|   32|         64|
    |acc_10_V_1_reg_2147                      |    9|          2|   32|         64|
    |acc_11_V_1_be_reg_12586                  |    9|          2|   32|         64|
    |acc_11_V_1_reg_2135                      |    9|          2|   32|         64|
    |acc_12_V_1_be_reg_12388                  |    9|          2|   32|         64|
    |acc_12_V_1_reg_2123                      |    9|          2|   32|         64|
    |acc_13_V_1_be_reg_12190                  |    9|          2|   32|         64|
    |acc_13_V_1_reg_2111                      |    9|          2|   32|         64|
    |acc_14_V_1_be_reg_11992                  |    9|          2|   32|         64|
    |acc_14_V_1_reg_2099                      |    9|          2|   32|         64|
    |acc_15_V_1_be_reg_11794                  |    9|          2|   32|         64|
    |acc_15_V_1_reg_2087                      |    9|          2|   32|         64|
    |acc_16_V_1_be_reg_11596                  |    9|          2|   32|         64|
    |acc_16_V_1_reg_2075                      |    9|          2|   32|         64|
    |acc_17_V_1_be_reg_11398                  |    9|          2|   32|         64|
    |acc_17_V_1_reg_2063                      |    9|          2|   32|         64|
    |acc_18_V_1_be_reg_11200                  |    9|          2|   32|         64|
    |acc_18_V_1_reg_2051                      |    9|          2|   32|         64|
    |acc_19_V_1_be_reg_11002                  |    9|          2|   32|         64|
    |acc_19_V_1_reg_2039                      |    9|          2|   32|         64|
    |acc_1_V_1_be_reg_14566                   |    9|          2|   32|         64|
    |acc_1_V_1_reg_2255                       |    9|          2|   32|         64|
    |acc_20_V_1_be_reg_10804                  |    9|          2|   32|         64|
    |acc_20_V_1_reg_2027                      |    9|          2|   32|         64|
    |acc_21_V_1_be_reg_10606                  |    9|          2|   32|         64|
    |acc_21_V_1_reg_2015                      |    9|          2|   32|         64|
    |acc_22_V_1_be_reg_10408                  |    9|          2|   32|         64|
    |acc_22_V_1_reg_2003                      |    9|          2|   32|         64|
    |acc_23_V_1_be_reg_10210                  |    9|          2|   32|         64|
    |acc_23_V_1_reg_1991                      |    9|          2|   32|         64|
    |acc_24_V_1_be_reg_10012                  |    9|          2|   32|         64|
    |acc_24_V_1_reg_1979                      |    9|          2|   32|         64|
    |acc_25_V_1_be_reg_9814                   |    9|          2|   32|         64|
    |acc_25_V_1_reg_1967                      |    9|          2|   32|         64|
    |acc_26_V_1_be_reg_9616                   |    9|          2|   32|         64|
    |acc_26_V_1_reg_1955                      |    9|          2|   32|         64|
    |acc_27_V_1_be_reg_9418                   |    9|          2|   32|         64|
    |acc_27_V_1_reg_1943                      |    9|          2|   32|         64|
    |acc_28_V_1_be_reg_9220                   |    9|          2|   32|         64|
    |acc_28_V_1_reg_1931                      |    9|          2|   32|         64|
    |acc_29_V_1_be_reg_9022                   |    9|          2|   32|         64|
    |acc_29_V_1_reg_1919                      |    9|          2|   32|         64|
    |acc_2_V_1_be_reg_14368                   |    9|          2|   32|         64|
    |acc_2_V_1_reg_2243                       |    9|          2|   32|         64|
    |acc_30_V_1_be_reg_8824                   |    9|          2|   32|         64|
    |acc_30_V_1_reg_1907                      |    9|          2|   32|         64|
    |acc_31_V_1_be_reg_8626                   |    9|          2|   32|         64|
    |acc_31_V_1_reg_1895                      |    9|          2|   32|         64|
    |acc_32_V_1_be_reg_8428                   |    9|          2|   32|         64|
    |acc_32_V_1_reg_1883                      |    9|          2|   32|         64|
    |acc_33_V_1_be_reg_8230                   |    9|          2|   32|         64|
    |acc_33_V_1_reg_1871                      |    9|          2|   32|         64|
    |acc_34_V_1_be_reg_8032                   |    9|          2|   32|         64|
    |acc_34_V_1_reg_1859                      |    9|          2|   32|         64|
    |acc_35_V_1_be_reg_7834                   |    9|          2|   32|         64|
    |acc_35_V_1_reg_1847                      |    9|          2|   32|         64|
    |acc_36_V_1_be_reg_7636                   |    9|          2|   32|         64|
    |acc_36_V_1_reg_1835                      |    9|          2|   32|         64|
    |acc_37_V_1_be_reg_7438                   |    9|          2|   32|         64|
    |acc_37_V_1_reg_1823                      |    9|          2|   32|         64|
    |acc_38_V_1_be_reg_7240                   |    9|          2|   32|         64|
    |acc_38_V_1_reg_1811                      |    9|          2|   32|         64|
    |acc_39_V_1_be_reg_7042                   |    9|          2|   32|         64|
    |acc_39_V_1_reg_1799                      |    9|          2|   32|         64|
    |acc_3_V_1_be_reg_14170                   |    9|          2|   32|         64|
    |acc_3_V_1_reg_2231                       |    9|          2|   32|         64|
    |acc_40_V_1_be_reg_6844                   |    9|          2|   32|         64|
    |acc_40_V_1_reg_1787                      |    9|          2|   32|         64|
    |acc_41_V_1_be_reg_6646                   |    9|          2|   32|         64|
    |acc_41_V_1_reg_1775                      |    9|          2|   32|         64|
    |acc_42_V_1_be_reg_6448                   |    9|          2|   32|         64|
    |acc_42_V_1_reg_1763                      |    9|          2|   32|         64|
    |acc_43_V_1_be_reg_6250                   |    9|          2|   32|         64|
    |acc_43_V_1_reg_1751                      |    9|          2|   32|         64|
    |acc_44_V_1_be_reg_6052                   |    9|          2|   32|         64|
    |acc_44_V_1_reg_1739                      |    9|          2|   32|         64|
    |acc_45_V_1_be_reg_5854                   |    9|          2|   32|         64|
    |acc_45_V_1_reg_1727                      |    9|          2|   32|         64|
    |acc_46_V_1_be_reg_5656                   |    9|          2|   32|         64|
    |acc_46_V_1_reg_1715                      |    9|          2|   32|         64|
    |acc_47_V_1_be_reg_5458                   |    9|          2|   32|         64|
    |acc_47_V_1_reg_1703                      |    9|          2|   32|         64|
    |acc_48_V_1_be_reg_5260                   |    9|          2|   32|         64|
    |acc_48_V_1_reg_1691                      |    9|          2|   32|         64|
    |acc_49_V_1_be_reg_5062                   |    9|          2|   32|         64|
    |acc_49_V_1_reg_1679                      |    9|          2|   32|         64|
    |acc_4_V_1_be_reg_13972                   |    9|          2|   32|         64|
    |acc_4_V_1_reg_2219                       |    9|          2|   32|         64|
    |acc_50_V_1_be_reg_4864                   |    9|          2|   32|         64|
    |acc_50_V_1_reg_1667                      |    9|          2|   32|         64|
    |acc_51_V_1_be_reg_4666                   |    9|          2|   32|         64|
    |acc_51_V_1_reg_1655                      |    9|          2|   32|         64|
    |acc_52_V_1_be_reg_4468                   |    9|          2|   32|         64|
    |acc_52_V_1_reg_1643                      |    9|          2|   32|         64|
    |acc_53_V_1_be_reg_4270                   |    9|          2|   32|         64|
    |acc_53_V_1_reg_1631                      |    9|          2|   32|         64|
    |acc_54_V_1_be_reg_4072                   |    9|          2|   32|         64|
    |acc_54_V_1_reg_1619                      |    9|          2|   32|         64|
    |acc_55_V_1_be_reg_3874                   |    9|          2|   32|         64|
    |acc_55_V_1_reg_1607                      |    9|          2|   32|         64|
    |acc_56_V_1_be_reg_3676                   |    9|          2|   32|         64|
    |acc_56_V_1_reg_1595                      |    9|          2|   32|         64|
    |acc_57_V_1_be_reg_3478                   |    9|          2|   32|         64|
    |acc_57_V_1_reg_1583                      |    9|          2|   32|         64|
    |acc_58_V_1_be_reg_3280                   |    9|          2|   32|         64|
    |acc_58_V_1_reg_1571                      |    9|          2|   32|         64|
    |acc_59_V_1_be_reg_3082                   |    9|          2|   32|         64|
    |acc_59_V_1_reg_1559                      |    9|          2|   32|         64|
    |acc_5_V_1_be_reg_13774                   |    9|          2|   32|         64|
    |acc_5_V_1_reg_2207                       |    9|          2|   32|         64|
    |acc_60_V_1_be_reg_2884                   |    9|          2|   32|         64|
    |acc_60_V_1_reg_1547                      |    9|          2|   32|         64|
    |acc_61_V_1_be_reg_2686                   |    9|          2|   32|         64|
    |acc_61_V_1_reg_1535                      |    9|          2|   32|         64|
    |acc_62_V_1_be_reg_2488                   |    9|          2|   32|         64|
    |acc_62_V_1_reg_1523                      |    9|          2|   32|         64|
    |acc_63_V_1_be_reg_2290                   |    9|          2|   32|         64|
    |acc_63_V_1_reg_1511                      |    9|          2|   32|         64|
    |acc_6_V_1_be_reg_13576                   |    9|          2|   32|         64|
    |acc_6_V_1_reg_2195                       |    9|          2|   32|         64|
    |acc_7_V_1_be_reg_13378                   |    9|          2|   32|         64|
    |acc_7_V_1_reg_2183                       |    9|          2|   32|         64|
    |acc_8_V_1_be_reg_13180                   |    9|          2|   32|         64|
    |acc_8_V_1_reg_2171                       |    9|          2|   32|         64|
    |acc_9_V_1_be_reg_12982                   |    9|          2|   32|         64|
    |acc_9_V_1_reg_2159                       |    9|          2|   32|         64|
    |ap_NS_fsm                                |  629|        141|    1|        141|
    |ap_done                                  |    9|          2|    1|          2|
    |ap_phi_mux_storemerge_i_phi_fu_14966_p4  |    9|          2|   32|         64|
    |data_V_V_blk_n                           |    9|          2|    1|          2|
    |i_0_i_reg_645                            |    9|          2|    8|         16|
    |im_0_i_i_i_reg_1499                      |    9|          2|    7|         14|
    |in_index_reg_1488                        |    9|          2|   10|         20|
    |layer_in_V_14_address0                   |   15|          3|   10|         30|
    |layer_in_V_14_ce0                        |   15|          3|    1|          3|
    |layer_in_V_14_ce1                        |    9|          2|    1|          2|
    |layer_in_V_14_we0                        |    9|          2|    1|          2|
    |layer_in_V_14_we1                        |    9|          2|    1|          2|
    |out_index_reg_2279                       |    9|          2|    7|         14|
    |pX_11                                    |    9|          2|   32|         64|
    |pY_11                                    |    9|          2|   32|         64|
    |real_start                               |    9|          2|    1|          2|
    |res_V_V_blk_n                            |    9|          2|    1|          2|
    |res_V_V_din                              |  293|         65|   32|       2080|
    |sX_11                                    |    9|          2|   32|         64|
    |storemerge_i_reg_14962                   |    9|          2|   32|         64|
    |tmp_V_1598_reg_1475                      |    9|          2|   32|         64|
    |tmp_V_1599_reg_1462                      |    9|          2|   32|         64|
    |tmp_V_1600_reg_1449                      |    9|          2|   32|         64|
    |tmp_V_1601_reg_1436                      |    9|          2|   32|         64|
    |tmp_V_1602_reg_1423                      |    9|          2|   32|         64|
    |tmp_V_1603_reg_1410                      |    9|          2|   32|         64|
    |tmp_V_1604_reg_1397                      |    9|          2|   32|         64|
    |tmp_V_1605_reg_1384                      |    9|          2|   32|         64|
    |tmp_V_1606_reg_1371                      |    9|          2|   32|         64|
    |tmp_V_1607_reg_1358                      |    9|          2|   32|         64|
    |tmp_V_1608_reg_1345                      |    9|          2|   32|         64|
    |tmp_V_1609_reg_1332                      |    9|          2|   32|         64|
    |tmp_V_1610_reg_1319                      |    9|          2|   32|         64|
    |tmp_V_1611_reg_1306                      |    9|          2|   32|         64|
    |tmp_V_1612_reg_1293                      |    9|          2|   32|         64|
    |tmp_V_1613_reg_1280                      |    9|          2|   32|         64|
    |tmp_V_1614_reg_1267                      |    9|          2|   32|         64|
    |tmp_V_1615_reg_1254                      |    9|          2|   32|         64|
    |tmp_V_1616_reg_1241                      |    9|          2|   32|         64|
    |tmp_V_1617_reg_1228                      |    9|          2|   32|         64|
    |tmp_V_1618_reg_1215                      |    9|          2|   32|         64|
    |tmp_V_1619_reg_1202                      |    9|          2|   32|         64|
    |tmp_V_1620_reg_1189                      |    9|          2|   32|         64|
    |tmp_V_1621_reg_1176                      |    9|          2|   32|         64|
    |tmp_V_1622_reg_1163                      |    9|          2|   32|         64|
    |tmp_V_1623_reg_1150                      |    9|          2|   32|         64|
    |tmp_V_1624_reg_1137                      |    9|          2|   32|         64|
    |tmp_V_1625_reg_1124                      |    9|          2|   32|         64|
    |tmp_V_1626_reg_1111                      |    9|          2|   32|         64|
    |tmp_V_1627_reg_1098                      |    9|          2|   32|         64|
    |tmp_V_1628_reg_1085                      |    9|          2|   32|         64|
    |tmp_V_1629_reg_1072                      |    9|          2|   32|         64|
    |tmp_V_1630_reg_1059                      |    9|          2|   32|         64|
    |tmp_V_1631_reg_1046                      |    9|          2|   32|         64|
    |tmp_V_1632_reg_1033                      |    9|          2|   32|         64|
    |tmp_V_1633_reg_1020                      |    9|          2|   32|         64|
    |tmp_V_1634_reg_1007                      |    9|          2|   32|         64|
    |tmp_V_1635_reg_994                       |    9|          2|   32|         64|
    |tmp_V_1636_reg_981                       |    9|          2|   32|         64|
    |tmp_V_1637_reg_968                       |    9|          2|   32|         64|
    |tmp_V_1638_reg_955                       |    9|          2|   32|         64|
    |tmp_V_1639_reg_942                       |    9|          2|   32|         64|
    |tmp_V_1640_reg_929                       |    9|          2|   32|         64|
    |tmp_V_1641_reg_916                       |    9|          2|   32|         64|
    |tmp_V_1642_reg_903                       |    9|          2|   32|         64|
    |tmp_V_1643_reg_890                       |    9|          2|   32|         64|
    |tmp_V_1644_reg_877                       |    9|          2|   32|         64|
    |tmp_V_1645_reg_864                       |    9|          2|   32|         64|
    |tmp_V_1646_reg_851                       |    9|          2|   32|         64|
    |tmp_V_1647_reg_838                       |    9|          2|   32|         64|
    |tmp_V_1648_reg_825                       |    9|          2|   32|         64|
    |tmp_V_1649_reg_812                       |    9|          2|   32|         64|
    |tmp_V_1650_reg_799                       |    9|          2|   32|         64|
    |tmp_V_1651_reg_786                       |    9|          2|   32|         64|
    |tmp_V_1652_reg_773                       |    9|          2|   32|         64|
    |tmp_V_1653_reg_760                       |    9|          2|   32|         64|
    |tmp_V_1654_reg_747                       |    9|          2|   32|         64|
    |tmp_V_1655_reg_734                       |    9|          2|   32|         64|
    |tmp_V_1656_reg_721                       |    9|          2|   32|         64|
    |tmp_V_1657_reg_708                       |    9|          2|   32|         64|
    |tmp_V_1658_reg_695                       |    9|          2|   32|         64|
    |tmp_V_1659_reg_682                       |    9|          2|   32|         64|
    |tmp_V_1660_reg_669                       |    9|          2|   32|         64|
    |tmp_V_1661_reg_656                       |    9|          2|   32|         64|
    |tmpmult_V_address0                       |   15|          3|    6|         18|
    +-----------------------------------------+-----+-----------+-----+-----------+
    |Total                                    | 2839|        631| 6393|      14958|
    +-----------------------------------------+-----+-----------+-----+-----------+

    * Register: 
    +---------------------------------------------------------------------------------+------+----+------+-----------+
    |                                       Name                                      |  FF  | LUT| Bits | Const Bits|
    +---------------------------------------------------------------------------------+------+----+------+-----------+
    |acc_0_V_1_be_reg_14764                                                           |    32|   0|    32|          0|
    |acc_0_V_1_reg_2267                                                               |    32|   0|    32|          0|
    |acc_10_V_1_be_reg_12784                                                          |    32|   0|    32|          0|
    |acc_10_V_1_reg_2147                                                              |    32|   0|    32|          0|
    |acc_11_V_1_be_reg_12586                                                          |    32|   0|    32|          0|
    |acc_11_V_1_reg_2135                                                              |    32|   0|    32|          0|
    |acc_12_V_1_be_reg_12388                                                          |    32|   0|    32|          0|
    |acc_12_V_1_reg_2123                                                              |    32|   0|    32|          0|
    |acc_13_V_1_be_reg_12190                                                          |    32|   0|    32|          0|
    |acc_13_V_1_reg_2111                                                              |    32|   0|    32|          0|
    |acc_14_V_1_be_reg_11992                                                          |    32|   0|    32|          0|
    |acc_14_V_1_reg_2099                                                              |    32|   0|    32|          0|
    |acc_15_V_1_be_reg_11794                                                          |    32|   0|    32|          0|
    |acc_15_V_1_reg_2087                                                              |    32|   0|    32|          0|
    |acc_16_V_1_be_reg_11596                                                          |    32|   0|    32|          0|
    |acc_16_V_1_reg_2075                                                              |    32|   0|    32|          0|
    |acc_17_V_1_be_reg_11398                                                          |    32|   0|    32|          0|
    |acc_17_V_1_reg_2063                                                              |    32|   0|    32|          0|
    |acc_18_V_1_be_reg_11200                                                          |    32|   0|    32|          0|
    |acc_18_V_1_reg_2051                                                              |    32|   0|    32|          0|
    |acc_19_V_1_be_reg_11002                                                          |    32|   0|    32|          0|
    |acc_19_V_1_reg_2039                                                              |    32|   0|    32|          0|
    |acc_1_V_1_be_reg_14566                                                           |    32|   0|    32|          0|
    |acc_1_V_1_reg_2255                                                               |    32|   0|    32|          0|
    |acc_20_V_1_be_reg_10804                                                          |    32|   0|    32|          0|
    |acc_20_V_1_reg_2027                                                              |    32|   0|    32|          0|
    |acc_21_V_1_be_reg_10606                                                          |    32|   0|    32|          0|
    |acc_21_V_1_reg_2015                                                              |    32|   0|    32|          0|
    |acc_22_V_1_be_reg_10408                                                          |    32|   0|    32|          0|
    |acc_22_V_1_reg_2003                                                              |    32|   0|    32|          0|
    |acc_23_V_1_be_reg_10210                                                          |    32|   0|    32|          0|
    |acc_23_V_1_reg_1991                                                              |    32|   0|    32|          0|
    |acc_24_V_1_be_reg_10012                                                          |    32|   0|    32|          0|
    |acc_24_V_1_reg_1979                                                              |    32|   0|    32|          0|
    |acc_25_V_1_be_reg_9814                                                           |    32|   0|    32|          0|
    |acc_25_V_1_reg_1967                                                              |    32|   0|    32|          0|
    |acc_26_V_1_be_reg_9616                                                           |    32|   0|    32|          0|
    |acc_26_V_1_reg_1955                                                              |    32|   0|    32|          0|
    |acc_27_V_1_be_reg_9418                                                           |    32|   0|    32|          0|
    |acc_27_V_1_reg_1943                                                              |    32|   0|    32|          0|
    |acc_28_V_1_be_reg_9220                                                           |    32|   0|    32|          0|
    |acc_28_V_1_reg_1931                                                              |    32|   0|    32|          0|
    |acc_29_V_1_be_reg_9022                                                           |    32|   0|    32|          0|
    |acc_29_V_1_reg_1919                                                              |    32|   0|    32|          0|
    |acc_2_V_1_be_reg_14368                                                           |    32|   0|    32|          0|
    |acc_2_V_1_reg_2243                                                               |    32|   0|    32|          0|
    |acc_30_V_1_be_reg_8824                                                           |    32|   0|    32|          0|
    |acc_30_V_1_reg_1907                                                              |    32|   0|    32|          0|
    |acc_31_V_1_be_reg_8626                                                           |    32|   0|    32|          0|
    |acc_31_V_1_reg_1895                                                              |    32|   0|    32|          0|
    |acc_32_V_1_be_reg_8428                                                           |    32|   0|    32|          0|
    |acc_32_V_1_reg_1883                                                              |    32|   0|    32|          0|
    |acc_33_V_1_be_reg_8230                                                           |    32|   0|    32|          0|
    |acc_33_V_1_reg_1871                                                              |    32|   0|    32|          0|
    |acc_34_V_1_be_reg_8032                                                           |    32|   0|    32|          0|
    |acc_34_V_1_reg_1859                                                              |    32|   0|    32|          0|
    |acc_35_V_1_be_reg_7834                                                           |    32|   0|    32|          0|
    |acc_35_V_1_reg_1847                                                              |    32|   0|    32|          0|
    |acc_36_V_1_be_reg_7636                                                           |    32|   0|    32|          0|
    |acc_36_V_1_reg_1835                                                              |    32|   0|    32|          0|
    |acc_37_V_1_be_reg_7438                                                           |    32|   0|    32|          0|
    |acc_37_V_1_reg_1823                                                              |    32|   0|    32|          0|
    |acc_38_V_1_be_reg_7240                                                           |    32|   0|    32|          0|
    |acc_38_V_1_reg_1811                                                              |    32|   0|    32|          0|
    |acc_39_V_1_be_reg_7042                                                           |    32|   0|    32|          0|
    |acc_39_V_1_reg_1799                                                              |    32|   0|    32|          0|
    |acc_3_V_1_be_reg_14170                                                           |    32|   0|    32|          0|
    |acc_3_V_1_reg_2231                                                               |    32|   0|    32|          0|
    |acc_40_V_1_be_reg_6844                                                           |    32|   0|    32|          0|
    |acc_40_V_1_reg_1787                                                              |    32|   0|    32|          0|
    |acc_41_V_1_be_reg_6646                                                           |    32|   0|    32|          0|
    |acc_41_V_1_reg_1775                                                              |    32|   0|    32|          0|
    |acc_42_V_1_be_reg_6448                                                           |    32|   0|    32|          0|
    |acc_42_V_1_reg_1763                                                              |    32|   0|    32|          0|
    |acc_43_V_1_be_reg_6250                                                           |    32|   0|    32|          0|
    |acc_43_V_1_reg_1751                                                              |    32|   0|    32|          0|
    |acc_44_V_1_be_reg_6052                                                           |    32|   0|    32|          0|
    |acc_44_V_1_reg_1739                                                              |    32|   0|    32|          0|
    |acc_45_V_1_be_reg_5854                                                           |    32|   0|    32|          0|
    |acc_45_V_1_reg_1727                                                              |    32|   0|    32|          0|
    |acc_46_V_1_be_reg_5656                                                           |    32|   0|    32|          0|
    |acc_46_V_1_reg_1715                                                              |    32|   0|    32|          0|
    |acc_47_V_1_be_reg_5458                                                           |    32|   0|    32|          0|
    |acc_47_V_1_reg_1703                                                              |    32|   0|    32|          0|
    |acc_48_V_1_be_reg_5260                                                           |    32|   0|    32|          0|
    |acc_48_V_1_reg_1691                                                              |    32|   0|    32|          0|
    |acc_49_V_1_be_reg_5062                                                           |    32|   0|    32|          0|
    |acc_49_V_1_reg_1679                                                              |    32|   0|    32|          0|
    |acc_4_V_1_be_reg_13972                                                           |    32|   0|    32|          0|
    |acc_4_V_1_reg_2219                                                               |    32|   0|    32|          0|
    |acc_50_V_1_be_reg_4864                                                           |    32|   0|    32|          0|
    |acc_50_V_1_reg_1667                                                              |    32|   0|    32|          0|
    |acc_51_V_1_be_reg_4666                                                           |    32|   0|    32|          0|
    |acc_51_V_1_reg_1655                                                              |    32|   0|    32|          0|
    |acc_52_V_1_be_reg_4468                                                           |    32|   0|    32|          0|
    |acc_52_V_1_reg_1643                                                              |    32|   0|    32|          0|
    |acc_53_V_1_be_reg_4270                                                           |    32|   0|    32|          0|
    |acc_53_V_1_reg_1631                                                              |    32|   0|    32|          0|
    |acc_54_V_1_be_reg_4072                                                           |    32|   0|    32|          0|
    |acc_54_V_1_reg_1619                                                              |    32|   0|    32|          0|
    |acc_55_V_1_be_reg_3874                                                           |    32|   0|    32|          0|
    |acc_55_V_1_reg_1607                                                              |    32|   0|    32|          0|
    |acc_56_V_1_be_reg_3676                                                           |    32|   0|    32|          0|
    |acc_56_V_1_reg_1595                                                              |    32|   0|    32|          0|
    |acc_57_V_1_be_reg_3478                                                           |    32|   0|    32|          0|
    |acc_57_V_1_reg_1583                                                              |    32|   0|    32|          0|
    |acc_58_V_1_be_reg_3280                                                           |    32|   0|    32|          0|
    |acc_58_V_1_reg_1571                                                              |    32|   0|    32|          0|
    |acc_59_V_1_be_reg_3082                                                           |    32|   0|    32|          0|
    |acc_59_V_1_reg_1559                                                              |    32|   0|    32|          0|
    |acc_5_V_1_be_reg_13774                                                           |    32|   0|    32|          0|
    |acc_5_V_1_reg_2207                                                               |    32|   0|    32|          0|
    |acc_60_V_1_be_reg_2884                                                           |    32|   0|    32|          0|
    |acc_60_V_1_reg_1547                                                              |    32|   0|    32|          0|
    |acc_61_V_1_be_reg_2686                                                           |    32|   0|    32|          0|
    |acc_61_V_1_reg_1535                                                              |    32|   0|    32|          0|
    |acc_62_V_1_be_reg_2488                                                           |    32|   0|    32|          0|
    |acc_62_V_1_reg_1523                                                              |    32|   0|    32|          0|
    |acc_63_V_1_be_reg_2290                                                           |    32|   0|    32|          0|
    |acc_63_V_1_reg_1511                                                              |    32|   0|    32|          0|
    |acc_6_V_1_be_reg_13576                                                           |    32|   0|    32|          0|
    |acc_6_V_1_reg_2195                                                               |    32|   0|    32|          0|
    |acc_7_V_1_be_reg_13378                                                           |    32|   0|    32|          0|
    |acc_7_V_1_reg_2183                                                               |    32|   0|    32|          0|
    |acc_8_V_1_be_reg_13180                                                           |    32|   0|    32|          0|
    |acc_8_V_1_reg_2171                                                               |    32|   0|    32|          0|
    |acc_9_V_1_be_reg_12982                                                           |    32|   0|    32|          0|
    |acc_9_V_1_reg_2159                                                               |    32|   0|    32|          0|
    |and_ln215_14_reg_16044                                                           |     1|   0|     1|          0|
    |ap_CS_fsm                                                                        |   140|   0|   140|          0|
    |ap_done_reg                                                                      |     1|   0|     1|          0|
    |grp_cnnshift_arr_ap_fixed_ap_fixed_32_16_5_3_0_config22_s_fu_14973_ap_start_reg  |     1|   0|     1|          0|
    |grp_product_dense_ap_fixed_ap_fixed_ap_fixed_s_fu_15236_ap_start_reg             |     1|   0|     1|          0|
    |i_0_i_reg_645                                                                    |     8|   0|     8|          0|
    |i_reg_15682                                                                      |     8|   0|     8|          0|
    |icmp_ln215_19_reg_16027                                                          |     1|   0|     1|          0|
    |icmp_ln215_reg_16017                                                             |     1|   0|     1|          0|
    |icmp_ln237_reg_16175                                                             |     1|   0|     1|          0|
    |icmp_ln241_reg_16184                                                             |     1|   0|     1|          0|
    |im_0_i_i_i_reg_1499                                                              |     7|   0|     7|          0|
    |im_9_reg_16082                                                                   |     7|   0|     7|          0|
    |im_reg_16069                                                                     |     7|   0|     7|          0|
    |in_index_reg_1488                                                                |    10|   0|    10|          0|
    |ir_reg_16051                                                                     |    10|   0|    10|          0|
    |layer_in_V_14_load_reg_16061                                                     |    32|   0|    32|          0|
    |op_V_assign_7_reg_16074                                                          |    32|   0|    32|          0|
    |out_index_reg_2279                                                               |     7|   0|     7|          0|
    |pX_11                                                                            |    32|   0|    32|          0|
    |pX_11_load_reg_16038                                                             |    32|   0|    32|          0|
    |pY_11                                                                            |    32|   0|    32|          0|
    |pY_11_load_reg_16032                                                             |    32|   0|    32|          0|
    |p_Val2_10_reg_16102                                                              |    32|   0|    32|          0|
    |p_Val2_s_reg_16097                                                               |    32|   0|    32|          0|
    |sX_11                                                                            |    32|   0|    32|          0|
    |sX_11_load_reg_16012                                                             |    32|   0|    32|          0|
    |sY_11                                                                            |    32|   0|    32|          0|
    |sY_11_load_reg_16022                                                             |    32|   0|    32|          0|
    |select_ln247_reg_16188                                                           |    32|   0|    32|          0|
    |select_ln252_reg_16179                                                           |    32|   0|    32|          0|
    |start_once_reg                                                                   |     1|   0|     1|          0|
    |storemerge_i_reg_14962                                                           |    32|   0|    32|          0|
    |tmp_V_1598_reg_1475                                                              |    32|   0|    32|          0|
    |tmp_V_1599_reg_1462                                                              |    32|   0|    32|          0|
    |tmp_V_1600_reg_1449                                                              |    32|   0|    32|          0|
    |tmp_V_1601_reg_1436                                                              |    32|   0|    32|          0|
    |tmp_V_1602_reg_1423                                                              |    32|   0|    32|          0|
    |tmp_V_1603_reg_1410                                                              |    32|   0|    32|          0|
    |tmp_V_1604_reg_1397                                                              |    32|   0|    32|          0|
    |tmp_V_1605_reg_1384                                                              |    32|   0|    32|          0|
    |tmp_V_1606_reg_1371                                                              |    32|   0|    32|          0|
    |tmp_V_1607_reg_1358                                                              |    32|   0|    32|          0|
    |tmp_V_1608_reg_1345                                                              |    32|   0|    32|          0|
    |tmp_V_1609_reg_1332                                                              |    32|   0|    32|          0|
    |tmp_V_1610_reg_1319                                                              |    32|   0|    32|          0|
    |tmp_V_1611_reg_1306                                                              |    32|   0|    32|          0|
    |tmp_V_1612_reg_1293                                                              |    32|   0|    32|          0|
    |tmp_V_1613_reg_1280                                                              |    32|   0|    32|          0|
    |tmp_V_1614_reg_1267                                                              |    32|   0|    32|          0|
    |tmp_V_1615_reg_1254                                                              |    32|   0|    32|          0|
    |tmp_V_1616_reg_1241                                                              |    32|   0|    32|          0|
    |tmp_V_1617_reg_1228                                                              |    32|   0|    32|          0|
    |tmp_V_1618_reg_1215                                                              |    32|   0|    32|          0|
    |tmp_V_1619_reg_1202                                                              |    32|   0|    32|          0|
    |tmp_V_1620_reg_1189                                                              |    32|   0|    32|          0|
    |tmp_V_1621_reg_1176                                                              |    32|   0|    32|          0|
    |tmp_V_1622_reg_1163                                                              |    32|   0|    32|          0|
    |tmp_V_1623_reg_1150                                                              |    32|   0|    32|          0|
    |tmp_V_1624_reg_1137                                                              |    32|   0|    32|          0|
    |tmp_V_1625_reg_1124                                                              |    32|   0|    32|          0|
    |tmp_V_1626_reg_1111                                                              |    32|   0|    32|          0|
    |tmp_V_1627_reg_1098                                                              |    32|   0|    32|          0|
    |tmp_V_1628_reg_1085                                                              |    32|   0|    32|          0|
    |tmp_V_1629_reg_1072                                                              |    32|   0|    32|          0|
    |tmp_V_1630_reg_1059                                                              |    32|   0|    32|          0|
    |tmp_V_1631_reg_1046                                                              |    32|   0|    32|          0|
    |tmp_V_1632_reg_1033                                                              |    32|   0|    32|          0|
    |tmp_V_1633_reg_1020                                                              |    32|   0|    32|          0|
    |tmp_V_1634_reg_1007                                                              |    32|   0|    32|          0|
    |tmp_V_1635_reg_994                                                               |    32|   0|    32|          0|
    |tmp_V_1636_reg_981                                                               |    32|   0|    32|          0|
    |tmp_V_1637_reg_968                                                               |    32|   0|    32|          0|
    |tmp_V_1638_reg_955                                                               |    32|   0|    32|          0|
    |tmp_V_1639_reg_942                                                               |    32|   0|    32|          0|
    |tmp_V_1640_reg_929                                                               |    32|   0|    32|          0|
    |tmp_V_1641_reg_916                                                               |    32|   0|    32|          0|
    |tmp_V_1642_reg_903                                                               |    32|   0|    32|          0|
    |tmp_V_1643_reg_890                                                               |    32|   0|    32|          0|
    |tmp_V_1644_reg_877                                                               |    32|   0|    32|          0|
    |tmp_V_1645_reg_864                                                               |    32|   0|    32|          0|
    |tmp_V_1646_reg_851                                                               |    32|   0|    32|          0|
    |tmp_V_1647_reg_838                                                               |    32|   0|    32|          0|
    |tmp_V_1648_reg_825                                                               |    32|   0|    32|          0|
    |tmp_V_1649_reg_812                                                               |    32|   0|    32|          0|
    |tmp_V_1650_reg_799                                                               |    32|   0|    32|          0|
    |tmp_V_1651_reg_786                                                               |    32|   0|    32|          0|
    |tmp_V_1652_reg_773                                                               |    32|   0|    32|          0|
    |tmp_V_1653_reg_760                                                               |    32|   0|    32|          0|
    |tmp_V_1654_reg_747                                                               |    32|   0|    32|          0|
    |tmp_V_1655_reg_734                                                               |    32|   0|    32|          0|
    |tmp_V_1656_reg_721                                                               |    32|   0|    32|          0|
    |tmp_V_1657_reg_708                                                               |    32|   0|    32|          0|
    |tmp_V_1658_reg_695                                                               |    32|   0|    32|          0|
    |tmp_V_1659_reg_682                                                               |    32|   0|    32|          0|
    |tmp_V_1660_reg_669                                                               |    32|   0|    32|          0|
    |tmp_V_1661_reg_656                                                               |    32|   0|    32|          0|
    |tmp_V_4377_reg_15692                                                             |    32|   0|    32|          0|
    |tmp_V_4378_reg_15697                                                             |    32|   0|    32|          0|
    |tmp_V_4379_reg_15702                                                             |    32|   0|    32|          0|
    |tmp_V_4380_reg_15707                                                             |    32|   0|    32|          0|
    |tmp_V_4381_reg_15712                                                             |    32|   0|    32|          0|
    |tmp_V_4382_reg_15717                                                             |    32|   0|    32|          0|
    |tmp_V_4383_reg_15722                                                             |    32|   0|    32|          0|
    |tmp_V_4384_reg_15727                                                             |    32|   0|    32|          0|
    |tmp_V_4385_reg_15732                                                             |    32|   0|    32|          0|
    |tmp_V_4386_reg_15737                                                             |    32|   0|    32|          0|
    |tmp_V_4387_reg_15742                                                             |    32|   0|    32|          0|
    |tmp_V_4388_reg_15747                                                             |    32|   0|    32|          0|
    |tmp_V_4389_reg_15752                                                             |    32|   0|    32|          0|
    |tmp_V_4390_reg_15757                                                             |    32|   0|    32|          0|
    |tmp_V_4391_reg_15762                                                             |    32|   0|    32|          0|
    |tmp_V_4392_reg_15767                                                             |    32|   0|    32|          0|
    |tmp_V_4393_reg_15772                                                             |    32|   0|    32|          0|
    |tmp_V_4394_reg_15777                                                             |    32|   0|    32|          0|
    |tmp_V_4395_reg_15782                                                             |    32|   0|    32|          0|
    |tmp_V_4396_reg_15787                                                             |    32|   0|    32|          0|
    |tmp_V_4397_reg_15792                                                             |    32|   0|    32|          0|
    |tmp_V_4398_reg_15797                                                             |    32|   0|    32|          0|
    |tmp_V_4399_reg_15802                                                             |    32|   0|    32|          0|
    |tmp_V_4400_reg_15807                                                             |    32|   0|    32|          0|
    |tmp_V_4401_reg_15812                                                             |    32|   0|    32|          0|
    |tmp_V_4402_reg_15817                                                             |    32|   0|    32|          0|
    |tmp_V_4403_reg_15822                                                             |    32|   0|    32|          0|
    |tmp_V_4404_reg_15827                                                             |    32|   0|    32|          0|
    |tmp_V_4405_reg_15832                                                             |    32|   0|    32|          0|
    |tmp_V_4406_reg_15837                                                             |    32|   0|    32|          0|
    |tmp_V_4407_reg_15842                                                             |    32|   0|    32|          0|
    |tmp_V_4408_reg_15847                                                             |    32|   0|    32|          0|
    |tmp_V_4409_reg_15852                                                             |    32|   0|    32|          0|
    |tmp_V_4410_reg_15857                                                             |    32|   0|    32|          0|
    |tmp_V_4411_reg_15862                                                             |    32|   0|    32|          0|
    |tmp_V_4412_reg_15867                                                             |    32|   0|    32|          0|
    |tmp_V_4413_reg_15872                                                             |    32|   0|    32|          0|
    |tmp_V_4414_reg_15877                                                             |    32|   0|    32|          0|
    |tmp_V_4415_reg_15882                                                             |    32|   0|    32|          0|
    |tmp_V_4416_reg_15887                                                             |    32|   0|    32|          0|
    |tmp_V_4417_reg_15892                                                             |    32|   0|    32|          0|
    |tmp_V_4418_reg_15897                                                             |    32|   0|    32|          0|
    |tmp_V_4419_reg_15902                                                             |    32|   0|    32|          0|
    |tmp_V_4420_reg_15907                                                             |    32|   0|    32|          0|
    |tmp_V_4421_reg_15912                                                             |    32|   0|    32|          0|
    |tmp_V_4422_reg_15917                                                             |    32|   0|    32|          0|
    |tmp_V_4423_reg_15922                                                             |    32|   0|    32|          0|
    |tmp_V_4424_reg_15927                                                             |    32|   0|    32|          0|
    |tmp_V_4425_reg_15932                                                             |    32|   0|    32|          0|
    |tmp_V_4426_reg_15937                                                             |    32|   0|    32|          0|
    |tmp_V_4427_reg_15942                                                             |    32|   0|    32|          0|
    |tmp_V_4428_reg_15947                                                             |    32|   0|    32|          0|
    |tmp_V_4429_reg_15952                                                             |    32|   0|    32|          0|
    |tmp_V_4430_reg_15957                                                             |    32|   0|    32|          0|
    |tmp_V_4431_reg_15962                                                             |    32|   0|    32|          0|
    |tmp_V_4432_reg_15967                                                             |    32|   0|    32|          0|
    |tmp_V_4433_reg_15972                                                             |    32|   0|    32|          0|
    |tmp_V_4434_reg_15977                                                             |    32|   0|    32|          0|
    |tmp_V_4435_reg_15982                                                             |    32|   0|    32|          0|
    |tmp_V_4436_reg_15987                                                             |    32|   0|    32|          0|
    |tmp_V_4437_reg_15992                                                             |    32|   0|    32|          0|
    |tmp_V_4438_reg_15997                                                             |    32|   0|    32|          0|
    |tmp_V_4439_reg_16002                                                             |    32|   0|    32|          0|
    |tmp_V_reg_15687                                                                  |    32|   0|    32|          0|
    |tmpdata_V_reg_16007                                                              |  2048|   0|  2048|          0|
    |trunc_ln1265_reg_16087                                                           |     6|   0|     6|          0|
    +---------------------------------------------------------------------------------+------+----+------+-----------+
    |Total                                                                            | 10939|   0| 10939|          0|
    +---------------------------------------------------------------------------------+------+----+------+-----------+



================================================================
== Interface
================================================================
* Summary: 
+------------------+-----+-----+------------+--------------------------------------------------------+--------------+
|     RTL Ports    | Dir | Bits|  Protocol  |                      Source Object                     |    C Type    |
+------------------+-----+-----+------------+--------------------------------------------------------+--------------+
|ap_clk            |  in |    1| ap_ctrl_hs | conv_2d_cl_me<ap_fixed,ap_fixed<32,16,5,3,0>,config22> | return value |
|ap_rst            |  in |    1| ap_ctrl_hs | conv_2d_cl_me<ap_fixed,ap_fixed<32,16,5,3,0>,config22> | return value |
|ap_start          |  in |    1| ap_ctrl_hs | conv_2d_cl_me<ap_fixed,ap_fixed<32,16,5,3,0>,config22> | return value |
|start_full_n      |  in |    1| ap_ctrl_hs | conv_2d_cl_me<ap_fixed,ap_fixed<32,16,5,3,0>,config22> | return value |
|ap_done           | out |    1| ap_ctrl_hs | conv_2d_cl_me<ap_fixed,ap_fixed<32,16,5,3,0>,config22> | return value |
|ap_continue       |  in |    1| ap_ctrl_hs | conv_2d_cl_me<ap_fixed,ap_fixed<32,16,5,3,0>,config22> | return value |
|ap_idle           | out |    1| ap_ctrl_hs | conv_2d_cl_me<ap_fixed,ap_fixed<32,16,5,3,0>,config22> | return value |
|ap_ready          | out |    1| ap_ctrl_hs | conv_2d_cl_me<ap_fixed,ap_fixed<32,16,5,3,0>,config22> | return value |
|start_out         | out |    1| ap_ctrl_hs | conv_2d_cl_me<ap_fixed,ap_fixed<32,16,5,3,0>,config22> | return value |
|start_write       | out |    1| ap_ctrl_hs | conv_2d_cl_me<ap_fixed,ap_fixed<32,16,5,3,0>,config22> | return value |
|data_V_V_dout     |  in |   32|   ap_fifo  |                        data_V_V                        |    pointer   |
|data_V_V_empty_n  |  in |    1|   ap_fifo  |                        data_V_V                        |    pointer   |
|data_V_V_read     | out |    1|   ap_fifo  |                        data_V_V                        |    pointer   |
|res_V_V_din       | out |   32|   ap_fifo  |                         res_V_V                        |    pointer   |
|res_V_V_full_n    |  in |    1|   ap_fifo  |                         res_V_V                        |    pointer   |
|res_V_V_write     | out |    1|   ap_fifo  |                         res_V_V                        |    pointer   |
+------------------+-----+-----+------------+--------------------------------------------------------+--------------+

