

================================================================
== Vivado HLS Report for 'dense_large_stream_me_ap_fixed_ap_fixed_config53_s'
================================================================
* Date:           Wed Mar 30 22:34:15 2022

* Version:        2019.2 (Build 2704478 on Wed Nov 06 22:10:23 MST 2019)
* Project:        myproject_prj
* Solution:       solution1
* Product family: zynq
* Target device:  xc7z020-clg400-1


================================================================
== Performance Estimates
================================================================
+ Timing: 
    * Summary: 
    +--------+---------+----------+------------+
    |  Clock |  Target | Estimated| Uncertainty|
    +--------+---------+----------+------------+
    |ap_clk  | 5.00 ns | 3.950 ns |   0.62 ns  |
    +--------+---------+----------+------------+

+ Latency: 
    * Summary: 
    +---------+---------+-----------+-----------+------+------+---------+
    |  Latency (cycles) |   Latency (absolute)  |   Interval  | Pipeline|
    |   min   |   max   |    min    |    max    |  min |  max |   Type  |
    +---------+---------+-----------+-----------+------+------+---------+
    |     2560|     2560| 12.800 us | 12.800 us |  2560|  2560|   none  |
    +---------+---------+-----------+-----------+------+------+---------+

    + Detail: 
        * Instance: 
        +-------------------------------------------------------+--------------------------------------------+---------+---------+-----------+-----------+-----+-----+---------+
        |                                                       |                                            |  Latency (cycles) |   Latency (absolute)  |  Interval | Pipeline|
        |                        Instance                       |                   Module                   |   min   |   max   |    min    |    max    | min | max |   Type  |
        +-------------------------------------------------------+--------------------------------------------+---------+---------+-----------+-----------+-----+-----+---------+
        |grp_product_dense_ap_fixed_ap_fixed_ap_fixed_s_fu_602  |product_dense_ap_fixed_ap_fixed_ap_fixed_s  |        4|        4| 20.000 ns | 20.000 ns |    4|    4|   none  |
        +-------------------------------------------------------+--------------------------------------------+---------+---------+-----------+-----------+-----+-----+---------+

        * Loop: 
        +----------+---------+---------+----------+-----------+-----------+------+----------+
        |          |  Latency (cycles) | Iteration|  Initiation Interval  | Trip |          |
        | Loop Name|   min   |   max   |  Latency |  achieved |   target  | Count| Pipelined|
        +----------+---------+---------+----------+-----------+-----------+------+----------+
        |- Loop 1  |     2304|     2304|         9|          -|          -|   256|    no    |
        +----------+---------+---------+----------+-----------+-----------+------+----------+



================================================================
== Utilization Estimates
================================================================
* Summary: 
+-----------------+---------+-------+--------+-------+-----+
|       Name      | BRAM_18K| DSP48E|   FF   |  LUT  | URAM|
+-----------------+---------+-------+--------+-------+-----+
|DSP              |        -|      -|       -|      -|    -|
|Expression       |        -|      -|       0|     71|    -|
|FIFO             |        -|      -|       -|      -|    -|
|Instance         |        -|      4|    4667|   1388|    -|
|Memory           |        1|      -|       0|      0|    -|
|Multiplexer      |        -|      -|       -|   1247|    -|
|Register         |        -|      -|    8622|      -|    -|
+-----------------+---------+-------+--------+-------+-----+
|Total            |        1|      4|   13289|   2706|    0|
+-----------------+---------+-------+--------+-------+-----+
|Available        |      280|    220|  106400|  53200|    0|
+-----------------+---------+-------+--------+-------+-----+
|Utilization (%)  |    ~0   |      1|      12|      5|    0|
+-----------------+---------+-------+--------+-------+-----+

+ Detail: 
    * Instance: 
    +-------------------------------------------------------+--------------------------------------------+---------+-------+------+------+-----+
    |                        Instance                       |                   Module                   | BRAM_18K| DSP48E|  FF  |  LUT | URAM|
    +-------------------------------------------------------+--------------------------------------------+---------+-------+------+------+-----+
    |myproject_axi_mux_2568_32_2_1_U2878                    |myproject_axi_mux_2568_32_2_1               |        0|      0|  4415|  1345|    0|
    |grp_product_dense_ap_fixed_ap_fixed_ap_fixed_s_fu_602  |product_dense_ap_fixed_ap_fixed_ap_fixed_s  |        0|      4|   252|    43|    0|
    +-------------------------------------------------------+--------------------------------------------+---------+-------+------+------+-----+
    |Total                                                  |                                            |        0|      4|  4667|  1388|    0|
    +-------------------------------------------------------+--------------------------------------------+---------+-------+------+------+-----+

    * DSP48E: 
    N/A

    * Memory: 
    +---------+----------------------------------------------------------+---------+---+----+-----+------+-----+------+-------------+
    |  Memory |                          Module                          | BRAM_18K| FF| LUT| URAM| Words| Bits| Banks| W*Bits*Banks|
    +---------+----------------------------------------------------------+---------+---+----+-----+------+-----+------+-------------+
    |w53_V_U  |dense_large_stream_me_ap_fixed_ap_fixed_config53_s_w53_V  |        1|  0|   0|    0|   256|   20|     1|         5120|
    +---------+----------------------------------------------------------+---------+---+----+-----+------+-----+------+-------------+
    |Total    |                                                          |        1|  0|   0|    0|   256|   20|     1|         5120|
    +---------+----------------------------------------------------------+---------+---+----+-----+------+-----+------+-------------+

    * FIFO: 
    N/A

    * Expression: 
    +-----------------------+----------+-------+---+----+------------+------------+
    |     Variable Name     | Operation| DSP48E| FF| LUT| Bitwidth P0| Bitwidth P1|
    +-----------------------+----------+-------+---+----+------------+------------+
    |acc_0_V_fu_3711_p2     |     +    |      0|  0|  39|          32|          32|
    |ir_fu_2150_p2          |     +    |      0|  0|  15|           9|           1|
    |ap_block_state257      |    and   |      0|  0|   2|           1|           1|
    |icmp_ln325_fu_2144_p2  |   icmp   |      0|  0|  13|           9|          10|
    |ap_block_state1        |    or    |      0|  0|   2|           1|           1|
    +-----------------------+----------+-------+---+----+------------+------------+
    |Total                  |          |      0|  0|  71|          52|          45|
    +-----------------------+----------+-------+---+----+------------+------------+

    * Multiplexer: 
    +--------------------+------+-----------+-----+-----------+
    |        Name        |  LUT | Input Size| Bits| Total Bits|
    +--------------------+------+-----------+-----+-----------+
    |ap_NS_fsm           |  1193|        262|    1|        262|
    |ap_done             |     9|          2|    1|          2|
    |data_V_V_blk_n      |     9|          2|    1|          2|
    |in_index_reg_591    |     9|          2|    9|         18|
    |real_start          |     9|          2|    1|          2|
    |res_V_V_blk_n       |     9|          2|    1|          2|
    |tmp_V_1226_reg_578  |     9|          2|   32|         64|
    +--------------------+------+-----------+-----+-----------+
    |Total               |  1247|        274|   46|        352|
    +--------------------+------+-----------+-----+-----------+

    * Register: 
    +--------------------------------------------------------------------+-----+----+-----+-----------+
    |                                Name                                |  FF | LUT| Bits| Const Bits|
    +--------------------------------------------------------------------+-----+----+-----+-----------+
    |ap_CS_fsm                                                           |  261|   0|  261|          0|
    |ap_done_reg                                                         |    1|   0|    1|          0|
    |grp_product_dense_ap_fixed_ap_fixed_ap_fixed_s_fu_602_ap_start_reg  |    1|   0|    1|          0|
    |in_index_reg_591                                                    |    9|   0|    9|          0|
    |ir_reg_3719                                                         |    9|   0|    9|          0|
    |op_V_assign_0_i_reg_5029                                            |   32|   0|   32|          0|
    |sext_ln333_reg_5024                                                 |   32|   0|   32|          0|
    |start_once_reg                                                      |    1|   0|    1|          0|
    |tmp_V_1226_reg_578                                                  |   32|   0|   32|          0|
    |tmp_reg_5014                                                        |   32|   0|   32|          0|
    |tmpdata_V_2_0                                                       |   32|   0|   32|          0|
    |tmpdata_V_2_1                                                       |   32|   0|   32|          0|
    |tmpdata_V_2_10                                                      |   32|   0|   32|          0|
    |tmpdata_V_2_100                                                     |   32|   0|   32|          0|
    |tmpdata_V_2_101                                                     |   32|   0|   32|          0|
    |tmpdata_V_2_102                                                     |   32|   0|   32|          0|
    |tmpdata_V_2_103                                                     |   32|   0|   32|          0|
    |tmpdata_V_2_104                                                     |   32|   0|   32|          0|
    |tmpdata_V_2_105                                                     |   32|   0|   32|          0|
    |tmpdata_V_2_106                                                     |   32|   0|   32|          0|
    |tmpdata_V_2_107                                                     |   32|   0|   32|          0|
    |tmpdata_V_2_108                                                     |   32|   0|   32|          0|
    |tmpdata_V_2_109                                                     |   32|   0|   32|          0|
    |tmpdata_V_2_11                                                      |   32|   0|   32|          0|
    |tmpdata_V_2_110                                                     |   32|   0|   32|          0|
    |tmpdata_V_2_111                                                     |   32|   0|   32|          0|
    |tmpdata_V_2_112                                                     |   32|   0|   32|          0|
    |tmpdata_V_2_113                                                     |   32|   0|   32|          0|
    |tmpdata_V_2_114                                                     |   32|   0|   32|          0|
    |tmpdata_V_2_115                                                     |   32|   0|   32|          0|
    |tmpdata_V_2_116                                                     |   32|   0|   32|          0|
    |tmpdata_V_2_117                                                     |   32|   0|   32|          0|
    |tmpdata_V_2_118                                                     |   32|   0|   32|          0|
    |tmpdata_V_2_119                                                     |   32|   0|   32|          0|
    |tmpdata_V_2_12                                                      |   32|   0|   32|          0|
    |tmpdata_V_2_120                                                     |   32|   0|   32|          0|
    |tmpdata_V_2_121                                                     |   32|   0|   32|          0|
    |tmpdata_V_2_122                                                     |   32|   0|   32|          0|
    |tmpdata_V_2_123                                                     |   32|   0|   32|          0|
    |tmpdata_V_2_124                                                     |   32|   0|   32|          0|
    |tmpdata_V_2_125                                                     |   32|   0|   32|          0|
    |tmpdata_V_2_126                                                     |   32|   0|   32|          0|
    |tmpdata_V_2_127                                                     |   32|   0|   32|          0|
    |tmpdata_V_2_128                                                     |   32|   0|   32|          0|
    |tmpdata_V_2_129                                                     |   32|   0|   32|          0|
    |tmpdata_V_2_13                                                      |   32|   0|   32|          0|
    |tmpdata_V_2_130                                                     |   32|   0|   32|          0|
    |tmpdata_V_2_131                                                     |   32|   0|   32|          0|
    |tmpdata_V_2_132                                                     |   32|   0|   32|          0|
    |tmpdata_V_2_133                                                     |   32|   0|   32|          0|
    |tmpdata_V_2_134                                                     |   32|   0|   32|          0|
    |tmpdata_V_2_135                                                     |   32|   0|   32|          0|
    |tmpdata_V_2_136                                                     |   32|   0|   32|          0|
    |tmpdata_V_2_137                                                     |   32|   0|   32|          0|
    |tmpdata_V_2_138                                                     |   32|   0|   32|          0|
    |tmpdata_V_2_139                                                     |   32|   0|   32|          0|
    |tmpdata_V_2_14                                                      |   32|   0|   32|          0|
    |tmpdata_V_2_140                                                     |   32|   0|   32|          0|
    |tmpdata_V_2_141                                                     |   32|   0|   32|          0|
    |tmpdata_V_2_142                                                     |   32|   0|   32|          0|
    |tmpdata_V_2_143                                                     |   32|   0|   32|          0|
    |tmpdata_V_2_144                                                     |   32|   0|   32|          0|
    |tmpdata_V_2_145                                                     |   32|   0|   32|          0|
    |tmpdata_V_2_146                                                     |   32|   0|   32|          0|
    |tmpdata_V_2_147                                                     |   32|   0|   32|          0|
    |tmpdata_V_2_148                                                     |   32|   0|   32|          0|
    |tmpdata_V_2_149                                                     |   32|   0|   32|          0|
    |tmpdata_V_2_15                                                      |   32|   0|   32|          0|
    |tmpdata_V_2_150                                                     |   32|   0|   32|          0|
    |tmpdata_V_2_151                                                     |   32|   0|   32|          0|
    |tmpdata_V_2_152                                                     |   32|   0|   32|          0|
    |tmpdata_V_2_153                                                     |   32|   0|   32|          0|
    |tmpdata_V_2_154                                                     |   32|   0|   32|          0|
    |tmpdata_V_2_155                                                     |   32|   0|   32|          0|
    |tmpdata_V_2_156                                                     |   32|   0|   32|          0|
    |tmpdata_V_2_157                                                     |   32|   0|   32|          0|
    |tmpdata_V_2_158                                                     |   32|   0|   32|          0|
    |tmpdata_V_2_159                                                     |   32|   0|   32|          0|
    |tmpdata_V_2_16                                                      |   32|   0|   32|          0|
    |tmpdata_V_2_160                                                     |   32|   0|   32|          0|
    |tmpdata_V_2_161                                                     |   32|   0|   32|          0|
    |tmpdata_V_2_162                                                     |   32|   0|   32|          0|
    |tmpdata_V_2_163                                                     |   32|   0|   32|          0|
    |tmpdata_V_2_164                                                     |   32|   0|   32|          0|
    |tmpdata_V_2_165                                                     |   32|   0|   32|          0|
    |tmpdata_V_2_166                                                     |   32|   0|   32|          0|
    |tmpdata_V_2_167                                                     |   32|   0|   32|          0|
    |tmpdata_V_2_168                                                     |   32|   0|   32|          0|
    |tmpdata_V_2_169                                                     |   32|   0|   32|          0|
    |tmpdata_V_2_17                                                      |   32|   0|   32|          0|
    |tmpdata_V_2_170                                                     |   32|   0|   32|          0|
    |tmpdata_V_2_171                                                     |   32|   0|   32|          0|
    |tmpdata_V_2_172                                                     |   32|   0|   32|          0|
    |tmpdata_V_2_173                                                     |   32|   0|   32|          0|
    |tmpdata_V_2_174                                                     |   32|   0|   32|          0|
    |tmpdata_V_2_175                                                     |   32|   0|   32|          0|
    |tmpdata_V_2_176                                                     |   32|   0|   32|          0|
    |tmpdata_V_2_177                                                     |   32|   0|   32|          0|
    |tmpdata_V_2_178                                                     |   32|   0|   32|          0|
    |tmpdata_V_2_179                                                     |   32|   0|   32|          0|
    |tmpdata_V_2_18                                                      |   32|   0|   32|          0|
    |tmpdata_V_2_180                                                     |   32|   0|   32|          0|
    |tmpdata_V_2_181                                                     |   32|   0|   32|          0|
    |tmpdata_V_2_182                                                     |   32|   0|   32|          0|
    |tmpdata_V_2_183                                                     |   32|   0|   32|          0|
    |tmpdata_V_2_184                                                     |   32|   0|   32|          0|
    |tmpdata_V_2_185                                                     |   32|   0|   32|          0|
    |tmpdata_V_2_186                                                     |   32|   0|   32|          0|
    |tmpdata_V_2_187                                                     |   32|   0|   32|          0|
    |tmpdata_V_2_188                                                     |   32|   0|   32|          0|
    |tmpdata_V_2_189                                                     |   32|   0|   32|          0|
    |tmpdata_V_2_19                                                      |   32|   0|   32|          0|
    |tmpdata_V_2_190                                                     |   32|   0|   32|          0|
    |tmpdata_V_2_191                                                     |   32|   0|   32|          0|
    |tmpdata_V_2_192                                                     |   32|   0|   32|          0|
    |tmpdata_V_2_193                                                     |   32|   0|   32|          0|
    |tmpdata_V_2_194                                                     |   32|   0|   32|          0|
    |tmpdata_V_2_195                                                     |   32|   0|   32|          0|
    |tmpdata_V_2_196                                                     |   32|   0|   32|          0|
    |tmpdata_V_2_197                                                     |   32|   0|   32|          0|
    |tmpdata_V_2_198                                                     |   32|   0|   32|          0|
    |tmpdata_V_2_199                                                     |   32|   0|   32|          0|
    |tmpdata_V_2_2                                                       |   32|   0|   32|          0|
    |tmpdata_V_2_20                                                      |   32|   0|   32|          0|
    |tmpdata_V_2_200                                                     |   32|   0|   32|          0|
    |tmpdata_V_2_201                                                     |   32|   0|   32|          0|
    |tmpdata_V_2_202                                                     |   32|   0|   32|          0|
    |tmpdata_V_2_203                                                     |   32|   0|   32|          0|
    |tmpdata_V_2_204                                                     |   32|   0|   32|          0|
    |tmpdata_V_2_205                                                     |   32|   0|   32|          0|
    |tmpdata_V_2_206                                                     |   32|   0|   32|          0|
    |tmpdata_V_2_207                                                     |   32|   0|   32|          0|
    |tmpdata_V_2_208                                                     |   32|   0|   32|          0|
    |tmpdata_V_2_209                                                     |   32|   0|   32|          0|
    |tmpdata_V_2_21                                                      |   32|   0|   32|          0|
    |tmpdata_V_2_210                                                     |   32|   0|   32|          0|
    |tmpdata_V_2_211                                                     |   32|   0|   32|          0|
    |tmpdata_V_2_212                                                     |   32|   0|   32|          0|
    |tmpdata_V_2_213                                                     |   32|   0|   32|          0|
    |tmpdata_V_2_214                                                     |   32|   0|   32|          0|
    |tmpdata_V_2_215                                                     |   32|   0|   32|          0|
    |tmpdata_V_2_216                                                     |   32|   0|   32|          0|
    |tmpdata_V_2_217                                                     |   32|   0|   32|          0|
    |tmpdata_V_2_218                                                     |   32|   0|   32|          0|
    |tmpdata_V_2_219                                                     |   32|   0|   32|          0|
    |tmpdata_V_2_22                                                      |   32|   0|   32|          0|
    |tmpdata_V_2_220                                                     |   32|   0|   32|          0|
    |tmpdata_V_2_221                                                     |   32|   0|   32|          0|
    |tmpdata_V_2_222                                                     |   32|   0|   32|          0|
    |tmpdata_V_2_223                                                     |   32|   0|   32|          0|
    |tmpdata_V_2_224                                                     |   32|   0|   32|          0|
    |tmpdata_V_2_225                                                     |   32|   0|   32|          0|
    |tmpdata_V_2_226                                                     |   32|   0|   32|          0|
    |tmpdata_V_2_227                                                     |   32|   0|   32|          0|
    |tmpdata_V_2_228                                                     |   32|   0|   32|          0|
    |tmpdata_V_2_229                                                     |   32|   0|   32|          0|
    |tmpdata_V_2_23                                                      |   32|   0|   32|          0|
    |tmpdata_V_2_230                                                     |   32|   0|   32|          0|
    |tmpdata_V_2_231                                                     |   32|   0|   32|          0|
    |tmpdata_V_2_232                                                     |   32|   0|   32|          0|
    |tmpdata_V_2_233                                                     |   32|   0|   32|          0|
    |tmpdata_V_2_234                                                     |   32|   0|   32|          0|
    |tmpdata_V_2_235                                                     |   32|   0|   32|          0|
    |tmpdata_V_2_236                                                     |   32|   0|   32|          0|
    |tmpdata_V_2_237                                                     |   32|   0|   32|          0|
    |tmpdata_V_2_238                                                     |   32|   0|   32|          0|
    |tmpdata_V_2_239                                                     |   32|   0|   32|          0|
    |tmpdata_V_2_24                                                      |   32|   0|   32|          0|
    |tmpdata_V_2_240                                                     |   32|   0|   32|          0|
    |tmpdata_V_2_241                                                     |   32|   0|   32|          0|
    |tmpdata_V_2_242                                                     |   32|   0|   32|          0|
    |tmpdata_V_2_243                                                     |   32|   0|   32|          0|
    |tmpdata_V_2_244                                                     |   32|   0|   32|          0|
    |tmpdata_V_2_245                                                     |   32|   0|   32|          0|
    |tmpdata_V_2_246                                                     |   32|   0|   32|          0|
    |tmpdata_V_2_247                                                     |   32|   0|   32|          0|
    |tmpdata_V_2_248                                                     |   32|   0|   32|          0|
    |tmpdata_V_2_249                                                     |   32|   0|   32|          0|
    |tmpdata_V_2_25                                                      |   32|   0|   32|          0|
    |tmpdata_V_2_250                                                     |   32|   0|   32|          0|
    |tmpdata_V_2_251                                                     |   32|   0|   32|          0|
    |tmpdata_V_2_252                                                     |   32|   0|   32|          0|
    |tmpdata_V_2_253                                                     |   32|   0|   32|          0|
    |tmpdata_V_2_254                                                     |   32|   0|   32|          0|
    |tmpdata_V_2_255                                                     |   32|   0|   32|          0|
    |tmpdata_V_2_26                                                      |   32|   0|   32|          0|
    |tmpdata_V_2_27                                                      |   32|   0|   32|          0|
    |tmpdata_V_2_28                                                      |   32|   0|   32|          0|
    |tmpdata_V_2_29                                                      |   32|   0|   32|          0|
    |tmpdata_V_2_3                                                       |   32|   0|   32|          0|
    |tmpdata_V_2_30                                                      |   32|   0|   32|          0|
    |tmpdata_V_2_31                                                      |   32|   0|   32|          0|
    |tmpdata_V_2_32                                                      |   32|   0|   32|          0|
    |tmpdata_V_2_33                                                      |   32|   0|   32|          0|
    |tmpdata_V_2_34                                                      |   32|   0|   32|          0|
    |tmpdata_V_2_35                                                      |   32|   0|   32|          0|
    |tmpdata_V_2_36                                                      |   32|   0|   32|          0|
    |tmpdata_V_2_37                                                      |   32|   0|   32|          0|
    |tmpdata_V_2_38                                                      |   32|   0|   32|          0|
    |tmpdata_V_2_39                                                      |   32|   0|   32|          0|
    |tmpdata_V_2_4                                                       |   32|   0|   32|          0|
    |tmpdata_V_2_40                                                      |   32|   0|   32|          0|
    |tmpdata_V_2_41                                                      |   32|   0|   32|          0|
    |tmpdata_V_2_42                                                      |   32|   0|   32|          0|
    |tmpdata_V_2_43                                                      |   32|   0|   32|          0|
    |tmpdata_V_2_44                                                      |   32|   0|   32|          0|
    |tmpdata_V_2_45                                                      |   32|   0|   32|          0|
    |tmpdata_V_2_46                                                      |   32|   0|   32|          0|
    |tmpdata_V_2_47                                                      |   32|   0|   32|          0|
    |tmpdata_V_2_48                                                      |   32|   0|   32|          0|
    |tmpdata_V_2_49                                                      |   32|   0|   32|          0|
    |tmpdata_V_2_5                                                       |   32|   0|   32|          0|
    |tmpdata_V_2_50                                                      |   32|   0|   32|          0|
    |tmpdata_V_2_51                                                      |   32|   0|   32|          0|
    |tmpdata_V_2_52                                                      |   32|   0|   32|          0|
    |tmpdata_V_2_53                                                      |   32|   0|   32|          0|
    |tmpdata_V_2_54                                                      |   32|   0|   32|          0|
    |tmpdata_V_2_55                                                      |   32|   0|   32|          0|
    |tmpdata_V_2_56                                                      |   32|   0|   32|          0|
    |tmpdata_V_2_57                                                      |   32|   0|   32|          0|
    |tmpdata_V_2_58                                                      |   32|   0|   32|          0|
    |tmpdata_V_2_59                                                      |   32|   0|   32|          0|
    |tmpdata_V_2_6                                                       |   32|   0|   32|          0|
    |tmpdata_V_2_60                                                      |   32|   0|   32|          0|
    |tmpdata_V_2_61                                                      |   32|   0|   32|          0|
    |tmpdata_V_2_62                                                      |   32|   0|   32|          0|
    |tmpdata_V_2_63                                                      |   32|   0|   32|          0|
    |tmpdata_V_2_64                                                      |   32|   0|   32|          0|
    |tmpdata_V_2_65                                                      |   32|   0|   32|          0|
    |tmpdata_V_2_66                                                      |   32|   0|   32|          0|
    |tmpdata_V_2_67                                                      |   32|   0|   32|          0|
    |tmpdata_V_2_68                                                      |   32|   0|   32|          0|
    |tmpdata_V_2_69                                                      |   32|   0|   32|          0|
    |tmpdata_V_2_7                                                       |   32|   0|   32|          0|
    |tmpdata_V_2_70                                                      |   32|   0|   32|          0|
    |tmpdata_V_2_71                                                      |   32|   0|   32|          0|
    |tmpdata_V_2_72                                                      |   32|   0|   32|          0|
    |tmpdata_V_2_73                                                      |   32|   0|   32|          0|
    |tmpdata_V_2_74                                                      |   32|   0|   32|          0|
    |tmpdata_V_2_75                                                      |   32|   0|   32|          0|
    |tmpdata_V_2_76                                                      |   32|   0|   32|          0|
    |tmpdata_V_2_77                                                      |   32|   0|   32|          0|
    |tmpdata_V_2_78                                                      |   32|   0|   32|          0|
    |tmpdata_V_2_79                                                      |   32|   0|   32|          0|
    |tmpdata_V_2_8                                                       |   32|   0|   32|          0|
    |tmpdata_V_2_80                                                      |   32|   0|   32|          0|
    |tmpdata_V_2_81                                                      |   32|   0|   32|          0|
    |tmpdata_V_2_82                                                      |   32|   0|   32|          0|
    |tmpdata_V_2_83                                                      |   32|   0|   32|          0|
    |tmpdata_V_2_84                                                      |   32|   0|   32|          0|
    |tmpdata_V_2_85                                                      |   32|   0|   32|          0|
    |tmpdata_V_2_86                                                      |   32|   0|   32|          0|
    |tmpdata_V_2_87                                                      |   32|   0|   32|          0|
    |tmpdata_V_2_88                                                      |   32|   0|   32|          0|
    |tmpdata_V_2_89                                                      |   32|   0|   32|          0|
    |tmpdata_V_2_9                                                       |   32|   0|   32|          0|
    |tmpdata_V_2_90                                                      |   32|   0|   32|          0|
    |tmpdata_V_2_91                                                      |   32|   0|   32|          0|
    |tmpdata_V_2_92                                                      |   32|   0|   32|          0|
    |tmpdata_V_2_93                                                      |   32|   0|   32|          0|
    |tmpdata_V_2_94                                                      |   32|   0|   32|          0|
    |tmpdata_V_2_95                                                      |   32|   0|   32|          0|
    |tmpdata_V_2_96                                                      |   32|   0|   32|          0|
    |tmpdata_V_2_97                                                      |   32|   0|   32|          0|
    |tmpdata_V_2_98                                                      |   32|   0|   32|          0|
    |tmpdata_V_2_99                                                      |   32|   0|   32|          0|
    |w53_V_load_reg_5019                                                 |   20|   0|   20|          0|
    +--------------------------------------------------------------------+-----+----+-----+-----------+
    |Total                                                               | 8622|   0| 8622|          0|
    +--------------------------------------------------------------------+-----+----+-----+-----------+



================================================================
== Interface
================================================================
* Summary: 
+------------------+-----+-----+------------+---------------------------------------------------+--------------+
|     RTL Ports    | Dir | Bits|  Protocol  |                   Source Object                   |    C Type    |
+------------------+-----+-----+------------+---------------------------------------------------+--------------+
|ap_clk            |  in |    1| ap_ctrl_hs | dense_large_stream_me<ap_fixed,ap_fixed,config53> | return value |
|ap_rst            |  in |    1| ap_ctrl_hs | dense_large_stream_me<ap_fixed,ap_fixed,config53> | return value |
|ap_start          |  in |    1| ap_ctrl_hs | dense_large_stream_me<ap_fixed,ap_fixed,config53> | return value |
|start_full_n      |  in |    1| ap_ctrl_hs | dense_large_stream_me<ap_fixed,ap_fixed,config53> | return value |
|ap_done           | out |    1| ap_ctrl_hs | dense_large_stream_me<ap_fixed,ap_fixed,config53> | return value |
|ap_continue       |  in |    1| ap_ctrl_hs | dense_large_stream_me<ap_fixed,ap_fixed,config53> | return value |
|ap_idle           | out |    1| ap_ctrl_hs | dense_large_stream_me<ap_fixed,ap_fixed,config53> | return value |
|ap_ready          | out |    1| ap_ctrl_hs | dense_large_stream_me<ap_fixed,ap_fixed,config53> | return value |
|start_out         | out |    1| ap_ctrl_hs | dense_large_stream_me<ap_fixed,ap_fixed,config53> | return value |
|start_write       | out |    1| ap_ctrl_hs | dense_large_stream_me<ap_fixed,ap_fixed,config53> | return value |
|data_V_V_dout     |  in |   32|   ap_fifo  |                      data_V_V                     |    pointer   |
|data_V_V_empty_n  |  in |    1|   ap_fifo  |                      data_V_V                     |    pointer   |
|data_V_V_read     | out |    1|   ap_fifo  |                      data_V_V                     |    pointer   |
|res_V_V_din       | out |   32|   ap_fifo  |                      res_V_V                      |    pointer   |
|res_V_V_full_n    |  in |    1|   ap_fifo  |                      res_V_V                      |    pointer   |
|res_V_V_write     | out |    1|   ap_fifo  |                      res_V_V                      |    pointer   |
+------------------+-----+-----+------------+---------------------------------------------------+--------------+

