

================================================================
== Vivado HLS Report for 'Loop_1_proc636'
================================================================
* Date:           Wed Mar 30 22:13:00 2022

* Version:        2019.2 (Build 2704478 on Wed Nov 06 22:10:23 MST 2019)
* Project:        myproject_prj
* Solution:       solution1
* Product family: zynq
* Target device:  xc7z020-clg400-1


================================================================
== Performance Estimates
================================================================
+ Timing: 
    * Summary: 
    +--------+---------+----------+------------+
    |  Clock |  Target | Estimated| Uncertainty|
    +--------+---------+----------+------------+
    |ap_clk  | 5.00 ns | 4.234 ns |   0.62 ns  |
    +--------+---------+----------+------------+

+ Latency: 
    * Summary: 
    +---------+---------+-----------+-----------+-------+-------+---------+
    |  Latency (cycles) |   Latency (absolute)  |    Interval   | Pipeline|
    |   min   |   max   |    min    |    max    |  min  |  max  |   Type  |
    +---------+---------+-----------+-----------+-------+-------+---------+
    |    18481|    18481| 92.405 us | 92.405 us |  18481|  18481|   none  |
    +---------+---------+-----------+-----------+-------+-------+---------+

    + Detail: 
        * Instance: 
        N/A

        * Loop: 
        +-------------+---------+---------+----------+-----------+-----------+------+----------+
        |             |  Latency (cycles) | Iteration|  Initiation Interval  | Trip |          |
        |  Loop Name  |   min   |   max   |  Latency |  achieved |   target  | Count| Pipelined|
        +-------------+---------+---------+----------+-----------+-----------+------+----------+
        |- Loop 1     |    18480|    18480|        30|          -|          -|   616|    no    |
        | + Loop 1.1  |       28|       28|         7|          -|          -|     4|    no    |
        +-------------+---------+---------+----------+-----------+-----------+------+----------+



================================================================
== Utilization Estimates
================================================================
* Summary: 
+-----------------+---------+-------+--------+-------+-----+
|       Name      | BRAM_18K| DSP48E|   FF   |  LUT  | URAM|
+-----------------+---------+-------+--------+-------+-----+
|DSP              |        -|      -|       -|      -|    -|
|Expression       |        -|      -|       0|    456|    -|
|FIFO             |        -|      -|       -|      -|    -|
|Instance         |        -|      0|     454|    480|    -|
|Memory           |        -|      -|       -|      -|    -|
|Multiplexer      |        -|      -|       -|    119|    -|
|Register         |        -|      -|     427|      -|    -|
+-----------------+---------+-------+--------+-------+-----+
|Total            |        0|      0|     881|   1055|    0|
+-----------------+---------+-------+--------+-------+-----+
|Available        |      280|    220|  106400|  53200|    0|
+-----------------+---------+-------+--------+-------+-----+
|Utilization (%)  |        0|      0|   ~0   |      1|    0|
+-----------------+---------+-------+--------+-------+-----+

+ Detail: 
    * Instance: 
    +----------------------------------------+-------------------------------------+---------+-------+-----+-----+-----+
    |                Instance                |                Module               | BRAM_18K| DSP48E|  FF | LUT | URAM|
    +----------------------------------------+-------------------------------------+---------+-------+-----+-----+-----+
    |myproject_axi_ashr_54ns_32ns_54_2_1_U2  |myproject_axi_ashr_54ns_32ns_54_2_1  |        0|      0|  214|  216|    0|
    |myproject_axi_fpext_32ns_64_3_1_U1      |myproject_axi_fpext_32ns_64_3_1      |        0|      0|  100|  138|    0|
    |myproject_axi_shl_32ns_32s_32_2_1_U3    |myproject_axi_shl_32ns_32s_32_2_1    |        0|      0|  140|  126|    0|
    +----------------------------------------+-------------------------------------+---------+-------+-----+-----+-----+
    |Total                                   |                                     |        0|      0|  454|  480|    0|
    +----------------------------------------+-------------------------------------+---------+-------+-----+-----+-----+

    * DSP48E: 
    N/A

    * Memory: 
    N/A

    * FIFO: 
    N/A

    * Expression: 
    +--------------------------+----------+-------+---+----+------------+------------+
    |       Variable Name      | Operation| DSP48E| FF| LUT| Bitwidth P0| Bitwidth P1|
    +--------------------------+----------+-------+---+----+------------+------------+
    |add_ln581_fu_280_p2       |     +    |      0|  0|  12|           6|          12|
    |i_fu_168_p2               |     +    |      0|  0|  14|          10|           1|
    |j_fu_180_p2               |     +    |      0|  0|  12|           3|           1|
    |F2_fu_268_p2              |     -    |      0|  0|  12|          11|          12|
    |man_V_1_fu_250_p2         |     -    |      0|  0|  61|           1|          54|
    |sub_ln581_fu_286_p2       |     -    |      0|  0|  12|           5|          12|
    |and_ln581_fu_376_p2       |    and   |      0|  0|   2|           1|           1|
    |and_ln582_fu_434_p2       |    and   |      0|  0|   2|           1|           1|
    |and_ln585_1_fu_393_p2     |    and   |      0|  0|   2|           1|           1|
    |and_ln585_fu_387_p2       |    and   |      0|  0|   2|           1|           1|
    |and_ln603_fu_410_p2       |    and   |      0|  0|   2|           1|           1|
    |ap_block_state2           |    and   |      0|  0|   2|           1|           1|
    |ap_block_state3           |    and   |      0|  0|   2|           1|           1|
    |icmp_ln34_fu_162_p2       |   icmp   |      0|  0|  13|          10|          10|
    |icmp_ln37_fu_174_p2       |   icmp   |      0|  0|   9|           3|           4|
    |icmp_ln571_fu_263_p2      |   icmp   |      0|  0|  29|          63|           1|
    |icmp_ln581_fu_274_p2      |   icmp   |      0|  0|  13|          12|           5|
    |icmp_ln582_fu_300_p2      |   icmp   |      0|  0|  13|          12|           5|
    |icmp_ln585_fu_323_p2      |   icmp   |      0|  0|  13|          12|           6|
    |icmp_ln603_fu_328_p2      |   icmp   |      0|  0|  11|           7|           1|
    |ap_block_state1           |    or    |      0|  0|   2|           1|           1|
    |is_last_fu_195_p2         |    or    |      0|  0|   2|           1|           1|
    |or_ln581_fu_399_p2        |    or    |      0|  0|   2|           1|           1|
    |or_ln582_fu_366_p2        |    or    |      0|  0|   2|           1|           1|
    |or_ln603_1_fu_439_p2      |    or    |      0|  0|   2|           1|           1|
    |or_ln603_2_fu_444_p2      |    or    |      0|  0|   2|           1|           1|
    |or_ln603_fu_416_p2        |    or    |      0|  0|   2|           1|           1|
    |in_local_V_V_din          |  select  |      0|  0|  32|           1|          32|
    |man_V_2_fu_256_p3         |  select  |      0|  0|  54|           1|          54|
    |select_ln588_fu_353_p3    |  select  |      0|  0|   2|           1|           2|
    |select_ln603_1_fu_422_p3  |  select  |      0|  0|  32|           1|          32|
    |select_ln603_2_fu_458_p3  |  select  |      0|  0|  32|           1|          32|
    |select_ln603_fu_452_p3    |  select  |      0|  0|  32|           1|          32|
    |sh_amt_fu_292_p3          |  select  |      0|  0|  12|           1|          12|
    |xor_ln571_fu_429_p2       |    xor   |      0|  0|   2|           1|           2|
    |xor_ln581_fu_404_p2       |    xor   |      0|  0|   2|           1|           2|
    |xor_ln582_fu_370_p2       |    xor   |      0|  0|   2|           1|           2|
    |xor_ln585_fu_381_p2       |    xor   |      0|  0|   2|           1|           2|
    +--------------------------+----------+-------+---+----+------------+------------+
    |Total                     |          |      0|  0| 456|         180|         342|
    +--------------------------+----------+-------+---+----+------------+------------+

    * Multiplexer: 
    +---------------------------------+----+-----------+-----+-----------+
    |               Name              | LUT| Input Size| Bits| Total Bits|
    +---------------------------------+----+-----------+-----+-----------+
    |ap_NS_fsm                        |  47|         10|    1|         10|
    |ap_done                          |   9|          2|    1|          2|
    |i_0_i_i_i_reg_128                |   9|          2|   10|         20|
    |in_local_V_V_blk_n               |   9|          2|    1|          2|
    |in_r_TDATA_blk_n                 |   9|          2|    1|          2|
    |is_last_0_loc_0_i_out_out_blk_n  |   9|          2|    1|          2|
    |is_last_1_fu_102                 |   9|          2|    1|          2|
    |j_0_i_i_i_reg_139                |   9|          2|    3|          6|
    |real_start                       |   9|          2|    1|          2|
    +---------------------------------+----+-----------+-----+-----------+
    |Total                            | 119|         26|   20|         48|
    +---------------------------------+----+-----------+-----+-----------+

    * Register: 
    +------------------------+----+----+-----+-----------+
    |          Name          | FF | LUT| Bits| Const Bits|
    +------------------------+----+----+-----+-----------+
    |and_ln585_reg_571       |   1|   0|    1|          0|
    |and_ln603_reg_576       |   1|   0|    1|          0|
    |ap_CS_fsm               |   9|   0|    9|          0|
    |ap_done_reg             |   1|   0|    1|          0|
    |ashr_ln586_reg_592      |  54|   0|   54|          0|
    |exp_tmp_V_reg_511       |  11|   0|   11|          0|
    |i_0_i_i_i_reg_128       |  10|   0|   10|          0|
    |i_reg_482               |  10|   0|   10|          0|
    |icmp_ln571_reg_526      |   1|   0|    1|          0|
    |icmp_ln581_reg_532      |   1|   0|    1|          0|
    |icmp_ln582_reg_544      |   1|   0|    1|          0|
    |in_data_tmp_reg_495     |  32|   0|   32|          0|
    |is_last_1_fu_102        |   1|   0|    1|          0|
    |j_0_i_i_i_reg_139       |   3|   0|    3|          0|
    |j_reg_490               |   3|   0|    3|          0|
    |man_V_2_reg_521         |  54|   0|   54|          0|
    |or_ln603_2_reg_602      |   1|   0|    1|          0|
    |or_ln603_reg_581        |   1|   0|    1|          0|
    |p_Result_s_reg_506      |   1|   0|    1|          0|
    |select_ln603_1_reg_587  |  32|   0|   32|          0|
    |sh_amt_reg_538          |  12|   0|   12|          0|
    |shl_ln604_reg_597       |  32|   0|   32|          0|
    |start_once_reg          |   1|   0|    1|          0|
    |tmp_reg_556             |   7|   0|    7|          0|
    |trunc_ln556_reg_501     |  63|   0|   63|          0|
    |trunc_ln565_reg_516     |  52|   0|   52|          0|
    |trunc_ln583_reg_550     |  32|   0|   32|          0|
    +------------------------+----+----+-----+-----------+
    |Total                   | 427|   0|  427|          0|
    +------------------------+----+----+-----+-----------+



================================================================
== Interface
================================================================
* Summary: 
+----------------------------------+-----+-----+------------+---------------------------+--------------+
|             RTL Ports            | Dir | Bits|  Protocol  |       Source Object       |    C Type    |
+----------------------------------+-----+-----+------------+---------------------------+--------------+
|ap_clk                            |  in |    1| ap_ctrl_hs |       Loop_1_proc636      | return value |
|ap_rst                            |  in |    1| ap_ctrl_hs |       Loop_1_proc636      | return value |
|ap_start                          |  in |    1| ap_ctrl_hs |       Loop_1_proc636      | return value |
|start_full_n                      |  in |    1| ap_ctrl_hs |       Loop_1_proc636      | return value |
|ap_done                           | out |    1| ap_ctrl_hs |       Loop_1_proc636      | return value |
|ap_continue                       |  in |    1| ap_ctrl_hs |       Loop_1_proc636      | return value |
|ap_idle                           | out |    1| ap_ctrl_hs |       Loop_1_proc636      | return value |
|ap_ready                          | out |    1| ap_ctrl_hs |       Loop_1_proc636      | return value |
|start_out                         | out |    1| ap_ctrl_hs |       Loop_1_proc636      | return value |
|start_write                       | out |    1| ap_ctrl_hs |       Loop_1_proc636      | return value |
|in_r_TLAST                        |  in |    1|    axis    |         in_last_V         |    pointer   |
|in_r_TVALID                       |  in |    1|    axis    |          in_data          |    pointer   |
|in_r_TREADY                       | out |    1|    axis    |          in_data          |    pointer   |
|in_r_TDATA                        |  in |   32|    axis    |          in_data          |    pointer   |
|in_local_V_V_din                  | out |   32|   ap_fifo  |        in_local_V_V       |    pointer   |
|in_local_V_V_full_n               |  in |    1|   ap_fifo  |        in_local_V_V       |    pointer   |
|in_local_V_V_write                | out |    1|   ap_fifo  |        in_local_V_V       |    pointer   |
|is_last_0_loc_0_i_out_out_din     | out |    1|   ap_fifo  | is_last_0_loc_0_i_out_out |    pointer   |
|is_last_0_loc_0_i_out_out_full_n  |  in |    1|   ap_fifo  | is_last_0_loc_0_i_out_out |    pointer   |
|is_last_0_loc_0_i_out_out_write   | out |    1|   ap_fifo  | is_last_0_loc_0_i_out_out |    pointer   |
+----------------------------------+-----+-----+------------+---------------------------+--------------+

