

================================================================
== Vivado HLS Report for 'normalize_me_ap_fixed_ap_fixed_32_16_5_3_0_config3_s'
================================================================
* Date:           Wed Mar 30 22:13:03 2022

* Version:        2019.2 (Build 2704478 on Wed Nov 06 22:10:23 MST 2019)
* Project:        myproject_prj
* Solution:       solution1
* Product family: zynq
* Target device:  xc7z020-clg400-1


================================================================
== Performance Estimates
================================================================
+ Timing: 
    * Summary: 
    +--------+---------+----------+------------+
    |  Clock |  Target | Estimated| Uncertainty|
    +--------+---------+----------+------------+
    |ap_clk  | 5.00 ns | 3.950 ns |   0.62 ns  |
    +--------+---------+----------+------------+

+ Latency: 
    * Summary: 
    +---------+---------+----------+----------+--------+--------+---------+
    |  Latency (cycles) |  Latency (absolute) |     Interval    | Pipeline|
    |   min   |   max   |    min   |    max   |   min  |   max  |   Type  |
    +---------+---------+----------+----------+--------+--------+---------+
    |   110881|   110881| 0.554 ms | 0.554 ms |  110881|  110881|   none  |
    +---------+---------+----------+----------+--------+--------+---------+

    + Detail: 
        * Instance: 
        +------------------------------------------------------+--------------------------------------------+---------+---------+-----------+-----------+-----+-----+---------+
        |                                                      |                                            |  Latency (cycles) |   Latency (absolute)  |  Interval | Pipeline|
        |                       Instance                       |                   Module                   |   min   |   max   |    min    |    max    | min | max |   Type  |
        +------------------------------------------------------+--------------------------------------------+---------+---------+-----------+-----------+-----+-----+---------+
        |grp_product_dense_ap_fixed_ap_fixed_ap_fixed_s_fu_96  |product_dense_ap_fixed_ap_fixed_ap_fixed_s  |        4|        4| 20.000 ns | 20.000 ns |    4|    4|   none  |
        +------------------------------------------------------+--------------------------------------------+---------+---------+-----------+-----------+-----+-----+---------+

        * Loop: 
        +-----------------+---------+---------+----------+-----------+-----------+-------+----------+
        |                 |  Latency (cycles) | Iteration|  Initiation Interval  |  Trip |          |
        |    Loop Name    |   min   |   max   |  Latency |  achieved |   target  | Count | Pipelined|
        +-----------------+---------+---------+----------+-----------+-----------+-------+----------+
        |- BatchNormLoop  |   110880|   110880|         9|          -|          -|  12320|    no    |
        +-----------------+---------+---------+----------+-----------+-----------+-------+----------+



================================================================
== Utilization Estimates
================================================================
* Summary: 
+-----------------+---------+-------+--------+-------+-----+
|       Name      | BRAM_18K| DSP48E|   FF   |  LUT  | URAM|
+-----------------+---------+-------+--------+-------+-----+
|DSP              |        -|      -|       -|      -|    -|
|Expression       |        -|      -|       0|     75|    -|
|FIFO             |        -|      -|       -|      -|    -|
|Instance         |        -|      4|    9082|   2733|    -|
|Memory           |        -|      -|       -|      -|    -|
|Multiplexer      |        -|      -|       -|     83|    -|
|Register         |        -|      -|     167|      -|    -|
+-----------------+---------+-------+--------+-------+-----+
|Total            |        0|      4|    9249|   2891|    0|
+-----------------+---------+-------+--------+-------+-----+
|Available        |      280|    220|  106400|  53200|    0|
+-----------------+---------+-------+--------+-------+-----+
|Utilization (%)  |        0|      1|       8|      5|    0|
+-----------------+---------+-------+--------+-------+-----+

+ Detail: 
    * Instance: 
    +------------------------------------------------------+--------------------------------------------+---------+-------+------+------+-----+
    |                       Instance                       |                   Module                   | BRAM_18K| DSP48E|  FF  |  LUT | URAM|
    +------------------------------------------------------+--------------------------------------------+---------+-------+------+------+-----+
    |myproject_axi_mux_42_32_1_1_U18                       |myproject_axi_mux_42_32_1_1                 |        0|      0|  4415|  1345|    0|
    |myproject_axi_mux_42_32_1_1_U19                       |myproject_axi_mux_42_32_1_1                 |        0|      0|  4415|  1345|    0|
    |grp_product_dense_ap_fixed_ap_fixed_ap_fixed_s_fu_96  |product_dense_ap_fixed_ap_fixed_ap_fixed_s  |        0|      4|   252|    43|    0|
    +------------------------------------------------------+--------------------------------------------+---------+-------+------+------+-----+
    |Total                                                 |                                            |        0|      4|  9082|  2733|    0|
    +------------------------------------------------------+--------------------------------------------+---------+-------+------+------+-----+

    * DSP48E: 
    N/A

    * Memory: 
    N/A

    * FIFO: 
    N/A

    * Expression: 
    +----------------------+----------+-------+---+----+------------+------------+
    |     Variable Name    | Operation| DSP48E| FF| LUT| Bitwidth P0| Bitwidth P1|
    +----------------------+----------+-------+---+----+------------+------------+
    |i_fu_108_p2           |     +    |      0|  0|  19|          14|           1|
    |out_data_V_fu_145_p2  |     +    |      0|  0|  39|          32|          32|
    |ap_block_state2       |    and   |      0|  0|   2|           1|           1|
    |icmp_ln48_fu_102_p2   |   icmp   |      0|  0|  13|          14|          13|
    |ap_block_state1       |    or    |      0|  0|   2|           1|           1|
    +----------------------+----------+-------+---+----+------------+------------+
    |Total                 |          |      0|  0|  75|          62|          48|
    +----------------------+----------+-------+---+----+------------+------------+

    * Multiplexer: 
    +----------------+----+-----------+-----+-----------+
    |      Name      | LUT| Input Size| Bits| Total Bits|
    +----------------+----+-----------+-----+-----------+
    |ap_NS_fsm       |  38|          7|    1|          7|
    |ap_done         |   9|          2|    1|          2|
    |data_V_V_blk_n  |   9|          2|    1|          2|
    |i_0_reg_85      |   9|          2|   14|         28|
    |real_start      |   9|          2|    1|          2|
    |res_V_V_blk_n   |   9|          2|    1|          2|
    +----------------+----+-----------+-----+-----------+
    |Total           |  83|         17|   19|         43|
    +----------------+----+-----------+-----+-----------+

    * Register: 
    +-------------------------------------------------------------------+----+----+-----+-----------+
    |                                Name                               | FF | LUT| Bits| Const Bits|
    +-------------------------------------------------------------------+----+----+-----+-----------+
    |ap_CS_fsm                                                          |   6|   0|    6|          0|
    |ap_done_reg                                                        |   1|   0|    1|          0|
    |grp_product_dense_ap_fixed_ap_fixed_ap_fixed_s_fu_96_ap_start_reg  |   1|   0|    1|          0|
    |i_0_reg_85                                                         |  14|   0|   14|          0|
    |i_reg_153                                                          |  14|   0|   14|          0|
    |out_data_V_reg_178                                                 |  32|   0|   32|          0|
    |p_Val2_s_reg_173                                                   |  32|   0|   32|          0|
    |start_once_reg                                                     |   1|   0|    1|          0|
    |tmp_1_reg_168                                                      |  32|   0|   32|          0|
    |tmp_V_reg_158                                                      |  32|   0|   32|          0|
    |trunc_ln63_reg_163                                                 |   2|   0|    2|          0|
    +-------------------------------------------------------------------+----+----+-----+-----------+
    |Total                                                              | 167|   0|  167|          0|
    +-------------------------------------------------------------------+----+----+-----+-----------+



================================================================
== Interface
================================================================
* Summary: 
+------------------+-----+-----+------------+------------------------------------------------------+--------------+
|     RTL Ports    | Dir | Bits|  Protocol  |                     Source Object                    |    C Type    |
+------------------+-----+-----+------------+------------------------------------------------------+--------------+
|ap_clk            |  in |    1| ap_ctrl_hs | normalize_me<ap_fixed,ap_fixed<32,16,5,3,0>,config3> | return value |
|ap_rst            |  in |    1| ap_ctrl_hs | normalize_me<ap_fixed,ap_fixed<32,16,5,3,0>,config3> | return value |
|ap_start          |  in |    1| ap_ctrl_hs | normalize_me<ap_fixed,ap_fixed<32,16,5,3,0>,config3> | return value |
|start_full_n      |  in |    1| ap_ctrl_hs | normalize_me<ap_fixed,ap_fixed<32,16,5,3,0>,config3> | return value |
|ap_done           | out |    1| ap_ctrl_hs | normalize_me<ap_fixed,ap_fixed<32,16,5,3,0>,config3> | return value |
|ap_continue       |  in |    1| ap_ctrl_hs | normalize_me<ap_fixed,ap_fixed<32,16,5,3,0>,config3> | return value |
|ap_idle           | out |    1| ap_ctrl_hs | normalize_me<ap_fixed,ap_fixed<32,16,5,3,0>,config3> | return value |
|ap_ready          | out |    1| ap_ctrl_hs | normalize_me<ap_fixed,ap_fixed<32,16,5,3,0>,config3> | return value |
|start_out         | out |    1| ap_ctrl_hs | normalize_me<ap_fixed,ap_fixed<32,16,5,3,0>,config3> | return value |
|start_write       | out |    1| ap_ctrl_hs | normalize_me<ap_fixed,ap_fixed<32,16,5,3,0>,config3> | return value |
|data_V_V_dout     |  in |   32|   ap_fifo  |                       data_V_V                       |    pointer   |
|data_V_V_empty_n  |  in |    1|   ap_fifo  |                       data_V_V                       |    pointer   |
|data_V_V_read     | out |    1|   ap_fifo  |                       data_V_V                       |    pointer   |
|res_V_V_din       | out |   32|   ap_fifo  |                        res_V_V                       |    pointer   |
|res_V_V_full_n    |  in |    1|   ap_fifo  |                        res_V_V                       |    pointer   |
|res_V_V_write     | out |    1|   ap_fifo  |                        res_V_V                       |    pointer   |
+------------------+-----+-----+------------+------------------------------------------------------+--------------+

