

================================================================
== Vivado HLS Report for 'pooling2d_large_cl_nopad_pad_me_ap_fixed_ap_fixed_config8_s'
================================================================
* Date:           Wed Mar 30 22:13:18 2022

* Version:        2019.2 (Build 2704478 on Wed Nov 06 22:10:23 MST 2019)
* Project:        myproject_prj
* Solution:       solution1
* Product family: zynq
* Target device:  xc7z020-clg400-1


================================================================
== Performance Estimates
================================================================
+ Timing: 
    * Summary: 
    +--------+---------+----------+------------+
    |  Clock |  Target | Estimated| Uncertainty|
    +--------+---------+----------+------------+
    |ap_clk  | 5.00 ns | 4.321 ns |   0.62 ns  |
    +--------+---------+----------+------------+

+ Latency: 
    * Summary: 
    +---------+---------+----------+----------+-------+---------+---------+
    |  Latency (cycles) |  Latency (absolute) |     Interval    | Pipeline|
    |   min   |   max   |    min   |    max   |  min  |   max   |   Type  |
    +---------+---------+----------+----------+-------+---------+---------+
    |    55441|  1881881| 0.277 ms | 9.409 ms |  55441|  1881881|   none  |
    +---------+---------+----------+----------+-------+---------+---------+

    + Detail: 
        * Instance: 
        +----------------------------------------------------------------------+------------------------------------------------------+---------+---------+----------+----------+-----+-----+----------+
        |                                                                      |                                                      |  Latency (cycles) |  Latency (absolute) |  Interval | Pipeline |
        |                               Instance                               |                        Module                        |   min   |   max   |    min   |    max   | min | max |   Type   |
        +----------------------------------------------------------------------+------------------------------------------------------+---------+---------+----------+----------+-----+-----+----------+
        |call_ret_cnnshift_arr_ap_fixed_ap_fixed_32_16_5_3_0_config8_s_fu_204  |cnnshift_arr_ap_fixed_ap_fixed_32_16_5_3_0_config8_s  |        0|        0|   0 ns   |   0 ns   |    1|    1| function |
        +----------------------------------------------------------------------+------------------------------------------------------+---------+---------+----------+----------+-----+-----+----------+

        * Loop: 
        +-----------------+---------+---------+----------+-----------+-----------+------+----------+
        |                 |  Latency (cycles) | Iteration|  Initiation Interval  | Trip |          |
        |    Loop Name    |   min   |   max   |  Latency |  achieved |   target  | Count| Pipelined|
        +-----------------+---------+---------+----------+-----------+-----------+------+----------+
        |- Loop 1         |    55440|  1881880| 18 ~ 611 |          -|          -|  3080|    no    |
        | + Loop 1.1      |      592|      592|        37|          -|          -|    16|    no    |
        |  ++ Loop 1.1.1  |       27|       27|         9|          -|          -|     3|    no    |
        +-----------------+---------+---------+----------+-----------+-----------+------+----------+



================================================================
== Utilization Estimates
================================================================
* Summary: 
+-----------------+---------+-------+--------+-------+-----+
|       Name      | BRAM_18K| DSP48E|   FF   |  LUT  | URAM|
+-----------------+---------+-------+--------+-------+-----+
|DSP              |        -|      -|       -|      -|    -|
|Expression       |        -|      -|       0|  26680|    -|
|FIFO             |        -|      -|       -|      -|    -|
|Instance         |        0|      -|   16793|  14598|    -|
|Memory           |        -|      -|       -|      -|    -|
|Multiplexer      |        -|      -|       -|    281|    -|
|Register         |        -|      -|   26116|      -|    -|
+-----------------+---------+-------+--------+-------+-----+
|Total            |        0|      0|   42909|  41559|    0|
+-----------------+---------+-------+--------+-------+-----+
|Available        |      280|    220|  106400|  53200|    0|
+-----------------+---------+-------+--------+-------+-----+
|Utilization (%)  |        0|      0|      40|     78|    0|
+-----------------+---------+-------+--------+-------+-----+

+ Detail: 
    * Instance: 
    +----------------------------------------------------------------------+------------------------------------------------------+---------+-------+------+------+-----+
    |                               Instance                               |                        Module                        | BRAM_18K| DSP48E|  FF  |  LUT | URAM|
    +----------------------------------------------------------------------+------------------------------------------------------+---------+-------+------+------+-----+
    |call_ret_cnnshift_arr_ap_fixed_ap_fixed_32_16_5_3_0_config8_s_fu_204  |cnnshift_arr_ap_fixed_ap_fixed_32_16_5_3_0_config8_s  |        0|      0|  1025|  1024|    0|
    |myproject_axi_lshr_128ns_8ns_128_6_1_U68                              |myproject_axi_lshr_128ns_8ns_128_6_1                  |        0|      0|  1000|   710|    0|
    |myproject_axi_lshr_2048ns_12ns_2048_6_1_U64                           |myproject_axi_lshr_2048ns_12ns_2048_6_1               |        0|      0|  3692|  3216|    0|
    |myproject_axi_lshr_2048ns_12ns_2048_6_1_U65                           |myproject_axi_lshr_2048ns_12ns_2048_6_1               |        0|      0|  3692|  3216|    0|
    |myproject_axi_lshr_2048ns_12ns_2048_6_1_U66                           |myproject_axi_lshr_2048ns_12ns_2048_6_1               |        0|      0|  3692|  3216|    0|
    |myproject_axi_lshr_2048ns_12ns_2048_6_1_U67                           |myproject_axi_lshr_2048ns_12ns_2048_6_1               |        0|      0|  3692|  3216|    0|
    +----------------------------------------------------------------------+------------------------------------------------------+---------+-------+------+------+-----+
    |Total                                                                 |                                                      |        0|      0| 16793| 14598|    0|
    +----------------------------------------------------------------------+------------------------------------------------------+---------+-------+------+------+-----+

    * DSP48E: 
    N/A

    * Memory: 
    N/A

    * FIFO: 
    N/A

    * Expression: 
    +---------------------------+----------+-------+---+------+------------+------------+
    |       Variable Name       | Operation| DSP48E| FF|  LUT | Bitwidth P0| Bitwidth P1|
    +---------------------------+----------+-------+---+------+------------+------------+
    |add_ln530_fu_600_p2        |     +    |      0|  0|    39|          32|           1|
    |add_ln532_fu_611_p2        |     +    |      0|  0|    39|          32|           1|
    |add_ln535_fu_560_p2        |     +    |      0|  0|    39|          32|           1|
    |add_ln537_fu_571_p2        |     +    |      0|  0|    39|          32|           1|
    |i1_fu_345_p2               |     +    |      0|  0|    15|           5|           1|
    |i_fu_978_p2                |     +    |      0|  0|    12|           1|           3|
    |i_ih_fu_269_p2             |     +    |      0|  0|    12|          12|           1|
    |sub_ln1494_1_fu_943_p2     |     -    |      0|  0|    15|           8|           8|
    |sub_ln1494_2_fu_972_p2     |     -    |      0|  0|    15|           7|           8|
    |sub_ln1494_fu_931_p2       |     -    |      0|  0|    15|           8|           8|
    |sub_ln203_10_fu_752_p2     |     -    |      0|  0|    12|          12|          12|
    |sub_ln203_11_fu_780_p2     |     -    |      0|  0|    12|          11|          12|
    |sub_ln203_1_fu_405_p2      |     -    |      0|  0|    12|          12|          12|
    |sub_ln203_2_fu_435_p2      |     -    |      0|  0|    12|          11|          12|
    |sub_ln203_3_fu_664_p2      |     -    |      0|  0|    12|          12|          12|
    |sub_ln203_4_fu_676_p2      |     -    |      0|  0|    12|          12|          12|
    |sub_ln203_5_fu_704_p2      |     -    |      0|  0|    12|          11|          12|
    |sub_ln203_6_fu_497_p2      |     -    |      0|  0|    12|          12|          12|
    |sub_ln203_7_fu_509_p2      |     -    |      0|  0|    12|          12|          12|
    |sub_ln203_8_fu_539_p2      |     -    |      0|  0|    12|          11|          12|
    |sub_ln203_9_fu_740_p2      |     -    |      0|  0|    12|          12|          12|
    |sub_ln203_fu_393_p2        |     -    |      0|  0|    12|          12|          12|
    |and_ln1494_fu_1001_p2      |    and   |      0|  0|   128|         128|         128|
    |and_ln203_1_fu_847_p2      |    and   |      0|  0|  2048|        2048|        2048|
    |and_ln203_2_fu_829_p2      |    and   |      0|  0|  2048|        2048|        2048|
    |and_ln203_3_fu_865_p2      |    and   |      0|  0|  2048|        2048|        2048|
    |and_ln203_fu_811_p2        |    and   |      0|  0|  2048|        2048|        2048|
    |and_ln498_1_fu_327_p2      |    and   |      0|  0|     2|           1|           1|
    |and_ln498_2_fu_333_p2      |    and   |      0|  0|     2|           1|           1|
    |and_ln498_fu_321_p2        |    and   |      0|  0|     2|           1|           1|
    |ap_block_state2            |    and   |      0|  0|     2|           1|           1|
    |ap_block_state27           |    and   |      0|  0|     2|           1|           1|
    |icmp_ln1494_1_fu_908_p2    |   icmp   |      0|  0|    11|           7|           7|
    |icmp_ln1494_fu_1010_p2     |   icmp   |      0|  0|    18|          32|          32|
    |icmp_ln203_1_fu_650_p2     |   icmp   |      0|  0|    13|          10|          10|
    |icmp_ln203_2_fu_473_p2     |   icmp   |      0|  0|    13|          11|          11|
    |icmp_ln203_3_fu_726_p2     |   icmp   |      0|  0|    13|          10|          10|
    |icmp_ln203_fu_369_p2       |   icmp   |      0|  0|    13|           9|           9|
    |icmp_ln484_fu_263_p2       |   icmp   |      0|  0|    13|          12|          11|
    |icmp_ln498_1_fu_295_p2     |   icmp   |      0|  0|    18|          32|           1|
    |icmp_ln498_2_fu_305_p2     |   icmp   |      0|  0|    18|          32|           1|
    |icmp_ln498_3_fu_315_p2     |   icmp   |      0|  0|    18|          32|           1|
    |icmp_ln498_fu_285_p2       |   icmp   |      0|  0|    18|          32|           1|
    |icmp_ln500_fu_339_p2       |   icmp   |      0|  0|    11|           5|           6|
    |icmp_ln512_fu_884_p2       |   icmp   |      0|  0|     9|           3|           4|
    |icmp_ln522_fu_555_p2       |   icmp   |      0|  0|    18|          32|           6|
    |icmp_ln526_fu_595_p2       |   icmp   |      0|  0|    18|          32|           6|
    |lshr_ln1494_1_fu_995_p2    |   lshr   |      0|  0|   423|           2|         128|
    |lshr_ln203_1_fu_805_p2     |   lshr   |      0|  0|  2171|           2|        2048|
    |lshr_ln203_3_fu_841_p2     |   lshr   |      0|  0|  2171|           2|        2048|
    |lshr_ln203_5_fu_823_p2     |   lshr   |      0|  0|  2171|           2|        2048|
    |lshr_ln203_7_fu_859_p2     |   lshr   |      0|  0|  2171|           2|        2048|
    |ap_block_state1            |    or    |      0|  0|     2|           1|           1|
    |ap_condition_296           |    or    |      0|  0|     2|           1|           1|
    |ap_condition_307           |    or    |      0|  0|     2|           1|           1|
    |ap_condition_469           |    or    |      0|  0|     2|           1|           1|
    |ap_condition_476           |    or    |      0|  0|     2|           1|           1|
    |empty_102_fu_902_p2        |    or    |      0|  0|     7|           7|           5|
    |empty_96_fu_363_p2         |    or    |      0|  0|     9|           9|           5|
    |empty_97_fu_644_p2         |    or    |      0|  0|    10|          10|           5|
    |empty_98_fu_467_p2         |    or    |      0|  0|    11|          11|           5|
    |pool_res_V_1_fu_1015_p3    |  select  |      0|  0|    32|           1|          32|
    |select_ln1494_1_fu_957_p3  |  select  |      0|  0|   128|           1|         128|
    |select_ln1494_2_fu_964_p3  |  select  |      0|  0|     8|           1|           8|
    |select_ln1494_fu_949_p3    |  select  |      0|  0|     8|           1|           8|
    |select_ln203_10_fu_766_p3  |  select  |      0|  0|  2048|           1|        2048|
    |select_ln203_11_fu_772_p3  |  select  |      0|  0|    12|           1|          12|
    |select_ln203_1_fu_419_p3   |  select  |      0|  0|  2048|           1|        2048|
    |select_ln203_2_fu_427_p3   |  select  |      0|  0|    12|           1|          12|
    |select_ln203_3_fu_682_p3   |  select  |      0|  0|    12|           1|          12|
    |select_ln203_4_fu_690_p3   |  select  |      0|  0|  2048|           1|        2048|
    |select_ln203_5_fu_696_p3   |  select  |      0|  0|    12|           1|          12|
    |select_ln203_6_fu_515_p3   |  select  |      0|  0|    12|           1|          12|
    |select_ln203_7_fu_523_p3   |  select  |      0|  0|  2048|           1|        2048|
    |select_ln203_8_fu_531_p3   |  select  |      0|  0|    12|           1|          12|
    |select_ln203_9_fu_758_p3   |  select  |      0|  0|    12|           1|          12|
    |select_ln203_fu_411_p3     |  select  |      0|  0|    12|           1|          12|
    |select_ln532_fu_616_p3     |  select  |      0|  0|    32|           1|           1|
    |select_ln537_fu_576_p3     |  select  |      0|  0|    32|           1|           1|
    |xor_ln1494_fu_937_p2       |    xor   |      0|  0|     8|           8|           7|
    |xor_ln203_1_fu_399_p2      |    xor   |      0|  0|    12|          12|          11|
    |xor_ln203_2_fu_670_p2      |    xor   |      0|  0|    12|          12|          11|
    |xor_ln203_3_fu_503_p2      |    xor   |      0|  0|    12|          12|          11|
    |xor_ln203_4_fu_746_p2      |    xor   |      0|  0|    12|          12|          11|
    |xor_ln203_fu_441_p2        |    xor   |      0|  0|     6|           5|           6|
    +---------------------------+----------+-------+---+------+------------+------------+
    |Total                      |          |      0|  0| 26680|        9056|       25486|
    +---------------------------+----------+-------+---+------+------------+------------+

    * Multiplexer: 
    +--------------------+-----+-----------+-----+-----------+
    |        Name        | LUT | Input Size| Bits| Total Bits|
    +--------------------+-----+-----------+-----+-----------+
    |ap_NS_fsm           |  173|         39|    1|         39|
    |ap_done             |    9|          2|    1|          2|
    |data_V_V_blk_n      |    9|          2|    1|          2|
    |i1_0_reg_160        |    9|          2|    5|         10|
    |i_0_reg_182         |    9|          2|    3|          6|
    |i_ih_0_reg_149      |    9|          2|   12|         24|
    |pX                  |    9|          2|   32|         64|
    |pY                  |    9|          2|   32|         64|
    |real_start          |    9|          2|    1|          2|
    |res_V_V_blk_n       |    9|          2|    1|          2|
    |sX                  |    9|          2|   32|         64|
    |storemerge_reg_193  |    9|          2|   32|         64|
    |tmp_V_reg_171       |    9|          2|   32|         64|
    +--------------------+-----+-----------+-----+-----------+
    |Total               |  281|         63|  185|        407|
    +--------------------+-----+-----------+-----+-----------+

    * Register: 
    +------------------------------+------+----+------+-----------+
    |             Name             |  FF  | LUT| Bits | Const Bits|
    +------------------------------+------+----+------+-----------+
    |and_ln498_2_reg_1148          |     1|   0|     1|          0|
    |ap_CS_fsm                     |    38|   0|    38|          0|
    |ap_done_reg                   |     1|   0|     1|          0|
    |i1_0_reg_160                  |     5|   0|     5|          0|
    |i1_reg_1155                   |     5|   0|     5|          0|
    |i_0_reg_182                   |     3|   0|     3|          0|
    |i_ih_0_reg_149                |    12|   0|    12|          0|
    |i_ih_reg_1036                 |    12|   0|    12|          0|
    |i_reg_1333                    |     3|   0|     3|          0|
    |icmp_ln498_1_reg_1131         |     1|   0|     1|          0|
    |icmp_ln498_reg_1121           |     1|   0|     1|          0|
    |icmp_ln522_reg_1211           |     1|   0|     1|          0|
    |layer_in_V_9                  |  2048|   0|  2048|          0|
    |layer_in_V_9_load_1_reg_1160  |  2048|   0|  2048|          0|
    |lshr_ln1494_reg_1343          |   128|   0|   128|          0|
    |lshr_ln203_2_reg_1294         |  2048|   0|  2048|          0|
    |lshr_ln203_4_reg_1283         |  2048|   0|  2048|          0|
    |lshr_ln203_6_reg_1304         |  2048|   0|  2048|          0|
    |lshr_ln203_reg_1278           |  2048|   0|  2048|          0|
    |pX                            |    32|   0|    32|          0|
    |pX_load_reg_1142              |    32|   0|    32|          0|
    |pY                            |    32|   0|    32|          0|
    |pY_load_reg_1136              |    32|   0|    32|          0|
    |pool_V_reg_1309               |   128|   0|   128|          0|
    |pool_res_V_reg_1288           |    32|   0|    32|          0|
    |sX                            |    32|   0|    32|          0|
    |sX_load_reg_1116              |    32|   0|    32|          0|
    |sY                            |    32|   0|    32|          0|
    |sY_load_reg_1126              |    32|   0|    32|          0|
    |select_ln1494_1_reg_1318      |   128|   0|   128|          0|
    |select_ln1494_2_reg_1323      |     8|   0|     8|          0|
    |select_ln203_10_reg_1253      |  2048|   0|  2048|          0|
    |select_ln203_11_reg_1258      |    12|   0|    12|          0|
    |select_ln203_1_reg_1166       |  2048|   0|  2048|          0|
    |select_ln203_2_reg_1171       |    12|   0|    12|          0|
    |select_ln203_4_reg_1233       |  2048|   0|  2048|          0|
    |select_ln203_5_reg_1238       |    12|   0|    12|          0|
    |select_ln203_7_reg_1191       |  2048|   0|  2048|          0|
    |select_ln203_8_reg_1196       |    12|   0|    12|          0|
    |select_ln532_reg_1223         |    32|   0|    32|          0|
    |select_ln537_reg_1215         |    32|   0|    32|          0|
    |start_once_reg                |     1|   0|     1|          0|
    |storemerge_reg_193            |    32|   0|    32|          0|
    |sub_ln1494_2_reg_1328         |     7|   0|     8|          1|
    |sub_ln203_11_reg_1263         |    11|   0|    12|          1|
    |sub_ln203_2_reg_1176          |    11|   0|    12|          1|
    |sub_ln203_5_reg_1243          |    11|   0|    12|          1|
    |sub_ln203_8_reg_1201          |    11|   0|    12|          1|
    |tmp_5_reg_1186                |  2048|   0|  2048|          0|
    |tmp_7_reg_1206                |  2048|   0|  2048|          0|
    |tmp_V_721_reg_1041            |    32|   0|    32|          0|
    |tmp_V_722_reg_1046            |    32|   0|    32|          0|
    |tmp_V_723_reg_1051            |    32|   0|    32|          0|
    |tmp_V_724_reg_1056            |    32|   0|    32|          0|
    |tmp_V_725_reg_1061            |    32|   0|    32|          0|
    |tmp_V_726_reg_1066            |    32|   0|    32|          0|
    |tmp_V_727_reg_1071            |    32|   0|    32|          0|
    |tmp_V_728_reg_1076            |    32|   0|    32|          0|
    |tmp_V_729_reg_1081            |    32|   0|    32|          0|
    |tmp_V_730_reg_1086            |    32|   0|    32|          0|
    |tmp_V_731_reg_1091            |    32|   0|    32|          0|
    |tmp_V_732_reg_1096            |    32|   0|    32|          0|
    |tmp_V_733_reg_1101            |    32|   0|    32|          0|
    |tmp_V_734_reg_1106            |    32|   0|    32|          0|
    |tmp_V_735_reg_1111            |    32|   0|    32|          0|
    |tmp_V_reg_171                 |    32|   0|    32|          0|
    |trunc_ln1494_reg_1348         |    32|   0|    32|          0|
    |trunc_ln203_2_reg_1299        |    32|   0|    32|          0|
    |xor_ln203_reg_1181            |     5|   0|     5|          0|
    +------------------------------+------+----+------+-----------+
    |Total                         | 26116|   0| 26121|          5|
    +------------------------------+------+----+------+-----------+



================================================================
== Interface
================================================================
* Summary: 
+------------------+-----+-----+------------+------------------------------------------------------------+--------------+
|     RTL Ports    | Dir | Bits|  Protocol  |                        Source Object                       |    C Type    |
+------------------+-----+-----+------------+------------------------------------------------------------+--------------+
|ap_clk            |  in |    1| ap_ctrl_hs | pooling2d_large_cl_nopad_pad_me<ap_fixed,ap_fixed,config8> | return value |
|ap_rst            |  in |    1| ap_ctrl_hs | pooling2d_large_cl_nopad_pad_me<ap_fixed,ap_fixed,config8> | return value |
|ap_start          |  in |    1| ap_ctrl_hs | pooling2d_large_cl_nopad_pad_me<ap_fixed,ap_fixed,config8> | return value |
|start_full_n      |  in |    1| ap_ctrl_hs | pooling2d_large_cl_nopad_pad_me<ap_fixed,ap_fixed,config8> | return value |
|ap_done           | out |    1| ap_ctrl_hs | pooling2d_large_cl_nopad_pad_me<ap_fixed,ap_fixed,config8> | return value |
|ap_continue       |  in |    1| ap_ctrl_hs | pooling2d_large_cl_nopad_pad_me<ap_fixed,ap_fixed,config8> | return value |
|ap_idle           | out |    1| ap_ctrl_hs | pooling2d_large_cl_nopad_pad_me<ap_fixed,ap_fixed,config8> | return value |
|ap_ready          | out |    1| ap_ctrl_hs | pooling2d_large_cl_nopad_pad_me<ap_fixed,ap_fixed,config8> | return value |
|start_out         | out |    1| ap_ctrl_hs | pooling2d_large_cl_nopad_pad_me<ap_fixed,ap_fixed,config8> | return value |
|start_write       | out |    1| ap_ctrl_hs | pooling2d_large_cl_nopad_pad_me<ap_fixed,ap_fixed,config8> | return value |
|data_V_V_dout     |  in |   32|   ap_fifo  |                          data_V_V                          |    pointer   |
|data_V_V_empty_n  |  in |    1|   ap_fifo  |                          data_V_V                          |    pointer   |
|data_V_V_read     | out |    1|   ap_fifo  |                          data_V_V                          |    pointer   |
|res_V_V_din       | out |   32|   ap_fifo  |                           res_V_V                          |    pointer   |
|res_V_V_full_n    |  in |    1|   ap_fifo  |                           res_V_V                          |    pointer   |
|res_V_V_write     | out |    1|   ap_fifo  |                           res_V_V                          |    pointer   |
+------------------+-----+-----+------------+------------------------------------------------------------+--------------+

